\relax 
\providecommand\hyper@newdestlabel[2]{}
\providecommand{\mciteSetMaxWidth}[3]{\relax}
\providecommand{\mciteSetMaxCount}[3]{\relax}
\providecommand\HyperFirstAtBeginDocument{\AtBeginDocument}
\HyperFirstAtBeginDocument{\ifx\hyper@anchor\@undefined
\global\let\oldcontentsline\contentsline
\gdef\contentsline#1#2#3#4{\oldcontentsline{#1}{#2}{#3}}
\global\let\oldnewlabel\newlabel
\gdef\newlabel#1#2{\newlabelxx{#1}#2}
\gdef\newlabelxx#1#2#3#4#5#6{\oldnewlabel{#1}{{#2}{#3}}}
\AtEndDocument{\ifx\hyper@anchor\@undefined
\let\contentsline\oldcontentsline
\let\newlabel\oldnewlabel
\fi}
\fi}
\global\let\hyper@last\relax 
\gdef\HyperFirstAtBeginDocument#1{#1}
\providecommand*\HyPL@Entry[1]{}
\HyPL@Entry{0<</S/D>>}
\@writefile{toc}{\contentsline {section}{\numberline {1}Replies to Tom}{2}{section.1}}
\newlabel{sec:replies_to_tom}{{1}{2}{Replies to Tom}{section.1}{}}
\@writefile{toc}{\contentsline {subsection}{\numberline {1.1}General comments}{2}{subsection.1.1}}
\newlabel{sub:general_comments}{{1.1}{2}{General comments}{subsection.1.1}{}}
\@writefile{toc}{\contentsline {subsection}{\numberline {1.2}Specific comments}{2}{subsection.1.2}}
\newlabel{sub:specific_comments}{{1.2}{2}{Specific comments}{subsection.1.2}{}}
\@writefile{toc}{\contentsline {subsubsection}{\numberline {1.2.1}On global significance}{2}{subsubsection.1.2.1}}
\newlabel{ssub:on_global_significance}{{1.2.1}{2}{On global significance}{subsubsection.1.2.1}{}}
\citation{Gross:2010qma}
\citation{Gross:2010qma}
\@writefile{lof}{\contentsline {figure}{\numberline {1}{\ignorespaces Corrected plots corresponding to Figure\nobreakspace  {}65 in note v1r1.\relax }}{3}{figure.caption.2}}
\providecommand*\caption@xref[2]{\@setref\relax\@undefined{#1}}
\newlabel{fig:t0}{{1}{3}{Corrected plots corresponding to Figure~65 in note v1r1.\relax }{figure.caption.2}{}}
\newlabel{eq:bound}{{\oldstylenums {1}.\oldstylenums {2}}{3}{On global significance}{equation.1.2}{}}
\@writefile{lof}{\contentsline {figure}{\numberline {2}{\ignorespaces The fit to the toy distributions.\relax }}{4}{figure.caption.3}}
\newlabel{fig:t0_fit}{{2}{4}{The fit to the toy distributions.\relax }{figure.caption.3}{}}
\@writefile{lof}{\contentsline {figure}{\numberline {3}{\ignorespaces The comparison of (blue solid line) toy experiments and (red dotted line) Eq.\nobreakspace  {}\ref  {eq:bound}.\relax }}{4}{figure.caption.4}}
\newlabel{fig:t0_tail}{{3}{4}{The comparison of (blue solid line) toy experiments and (red dotted line) Eq.~\ref {eq:bound}.\relax }{figure.caption.4}{}}
\@writefile{toc}{\contentsline {subsubsection}{\numberline {1.2.2}Other specific comments}{5}{subsubsection.1.2.2}}
\newlabel{ssub:other_specific_comments}{{1.2.2}{5}{Other specific comments}{subsubsection.1.2.2}{}}
\@writefile{lof}{\contentsline {figure}{\numberline {4}{\ignorespaces Comparison of the 2016--2018 UL of $R({\ensuremath {\Xi _{{\ensuremath {\ensuremath {c}\xspace  }}\xspace  {\ensuremath {\ensuremath {c}\xspace  }}\xspace  }^{++}}}\xspace  )$ with large and nominal systematic uncertainties.\relax }}{6}{figure.caption.5}}
\newlabel{fig:ul}{{4}{6}{Comparison of the 2016--2018 UL of $R(\Xiccpp )$ with large and nominal systematic uncertainties.\relax }{figure.caption.5}{}}
\@writefile{lof}{\contentsline {figure}{\numberline {5}{\ignorespaces The likelihood scan for $\mu $ for the total sets with 1step MVA selection.\relax }}{7}{figure.caption.6}}
\newlabel{fig:scan_mu}{{5}{7}{The likelihood scan for $\mu $ for the total sets with 1step MVA selection.\relax }{figure.caption.6}{}}
\@writefile{toc}{\contentsline {section}{\numberline {2}Replies to Dan}{7}{section.2}}
\newlabel{sec:replies_to_dan}{{2}{7}{Replies to Dan}{section.2}{}}
\bibstyle{LHCb}
\bibdata{mybib}
\bibcite{Gross:2010qma}{1}
\@writefile{lof}{\contentsline {figure}{\numberline {6}{\ignorespaces The normalised RS and WS mass distribution in the region of [3460,3800].\relax }}{9}{figure.caption.7}}
\newlabel{fig:rs_ws}{{6}{9}{The normalised RS and WS mass distribution in the region of [3460,3800].\relax }{figure.caption.7}{}}
\@writefile{lof}{\contentsline {figure}{\numberline {7}{\ignorespaces The comparison of training variables for MVA1, blue for signal and red for background.\relax }}{9}{figure.caption.8}}
\newlabel{fig:mva1}{{7}{9}{The comparison of training variables for MVA1, blue for signal and red for background.\relax }{figure.caption.8}{}}
\@writefile{toc}{\contentsline {section}{References}{9}{figure.caption.9}}
\mciteSetMaxCount{main}{bibitem}{1}
\mciteSetMaxCount{main}{subitem}{1}
\mciteSetMaxWidth{main}{bibitem}{327680}
\mciteSetMaxWidth{main}{subitem}{0}
\@writefile{lof}{\contentsline {figure}{\numberline {8}{\ignorespaces The comparison of training variables for MVA2, blue for signal and red for background.\relax }}{10}{figure.caption.9}}
\newlabel{fig:mva1}{{8}{10}{The comparison of training variables for MVA2, blue for signal and red for background.\relax }{figure.caption.9}{}}
