\contentsline {section}{\numberline {1}Replies to Tom}{2}{section.1}
\contentsline {subsection}{\numberline {1.1}General comments}{2}{subsection.1.1}
\contentsline {subsection}{\numberline {1.2}Specific comments}{2}{subsection.1.2}
\contentsline {subsubsection}{\numberline {1.2.1}On global significance}{2}{subsubsection.1.2.1}
\contentsline {subsubsection}{\numberline {1.2.2}Other specific comments}{5}{subsubsection.1.2.2}
\contentsline {section}{\numberline {2}Replies to Dan}{7}{section.2}
\contentsline {section}{References}{9}{figure.caption.9}
