%!PS-Adobe-2.0 EPSF-2.0
%%BoundingBox:  0 0 567 294
%%Title: plots/variables_id_c2.eps: Input variables (training sample)
%%Creator: ROOT Version 6.06/02
%%CreationDate: Thu Jun  7 13:33:00 2018
%%DocumentNeededResources: ProcSet (FontSetInit)
%%EndComments
%%BeginProlog
80 dict begin
/s {stroke} def /l {lineto} def /m {moveto} def /t {translate} def
/r {rotate} def /rl {roll}  def /R {repeat} def
/d {rlineto} def /rm {rmoveto} def /gr {grestore} def /f {eofill} def
/c {setrgbcolor} def /black {0 setgray} def /sd {setdash} def
/cl {closepath} def /sf {scalefont setfont} def /lw {setlinewidth} def
/box {m dup 0 exch d exch 0 d 0 exch neg d cl} def
/NC{systemdict begin initclip end}def/C{NC box clip newpath}def
/bl {box s} def /bf {gsave box gsave f grestore 1 lw [] 0 sd s grestore} def /Y { 0 exch d} def /X { 0 d} def 
/K {{pop pop 0 moveto} exch kshow} bind def
/ita {/ang 15 def gsave [1 0 ang dup sin exch cos div 1 0 0] concat} def 
/mp {newpath /y exch def /x exch def} def
/side {[w .77 mul w .23 mul] .385 w mul sd w 0 l currentpoint t -144 r} def
/mr {mp x y w2 0 360 arc} def /m24 {mr s} def /m20 {mr f} def
/mb {mp x y w2 add m w2 neg 0 d 0 w neg d w 0 d 0 w d cl} def
/mt {mp x y w2 add m w2 neg w neg d w 0 d cl} def
/m21 {mb f} def /m25 {mb s} def /m22 {mt f} def /m26{mt s} def
/m23 {mp x y w2 sub m w2 w d w neg 0 d cl f} def
/m27 {mp x y w2 add m w3 neg w2 neg d w3 w2 neg d w3 w2 d cl s} def
/m28 {mp x w2 sub y w2 sub w3 add m w3 0 d  0 w3 neg d w3 0 d 0 w3 d w3 0 d  0 w3 d w3 neg 0 d 0 w3 d w3 neg 0 d 0 w3 neg d w3 neg 0 d cl s } def
/m29 {mp gsave x w2 sub y w2 add w3 sub m currentpoint t 4 {side} repeat cl fill gr} def
/m30 {mp gsave x w2 sub y w2 add w3 sub m currentpoint t 4 {side} repeat cl s gr} def
/m31 {mp x y w2 sub m 0 w d x w2 sub y m w 0 d x w2 sub y w2 add m w w neg d x w2 sub y w2 sub m w w d s} def
/m32 {mp x y w2 sub m w2 w d w neg 0 d cl s} def
/m33 {mp x y w2 add m w3 neg w2 neg d w3 w2 neg d w3 w2 d cl f} def
/m34 {mp x w2 sub y w2 sub w3 add m w3 0 d  0 w3 neg d w3 0 d 0 w3 d w3 0 d  0 w3 d w3 neg 0 d 0 w3 d w3 neg 0 d 0 w3 neg d w3 neg 0 d cl f } def
/m2 {mp x y w2 sub m 0 w d x w2 sub y m w 0 d s} def
/m5 {mp x w2 sub y w2 sub m w w d x w2 sub y w2 add m w w neg d s} def
%%IncludeResource: ProcSet (FontSetInit)
%%IncludeResource: font Times-Roman
%%IncludeResource: font Times-Italic
%%IncludeResource: font Times-Bold
%%IncludeResource: font Times-BoldItalic
%%IncludeResource: font Helvetica
%%IncludeResource: font Helvetica-Oblique
%%IncludeResource: font Helvetica-Bold
%%IncludeResource: font Helvetica-BoldOblique
%%IncludeResource: font Courier
%%IncludeResource: font Courier-Oblique
%%IncludeResource: font Courier-Bold
%%IncludeResource: font Courier-BoldOblique
%%IncludeResource: font Symbol
%%IncludeResource: font ZapfDingbats
/reEncode {exch findfont dup length dict begin {1 index /FID eq  {pop pop} {def} ifelse } forall /Encoding exch def currentdict end dup /FontName get exch definefont pop } def [/Times-Bold /Times-Italic /Times-BoldItalic /Helvetica /Helvetica-Oblique
 /Helvetica-Bold /Helvetica-BoldOblique /Courier /Courier-Oblique /Courier-Bold /Courier-BoldOblique /Times-Roman /AvantGarde-Book /AvantGarde-BookOblique /AvantGarde-Demi /AvantGarde-DemiOblique /Bookman-Demi /Bookman-DemiItalic /Bookman-Light
 /Bookman-LightItalic /Helvetica-Narrow /Helvetica-Narrow-Bold /Helvetica-Narrow-BoldOblique /Helvetica-Narrow-Oblique /NewCenturySchlbk-Roman /NewCenturySchlbk-Bold /NewCenturySchlbk-BoldItalic /NewCenturySchlbk-Italic /Palatino-Bold
 /Palatino-BoldItalic /Palatino-Italic /Palatino-Roman ] {ISOLatin1Encoding reEncode } forall
%%EndProlog
%%BeginSetup
%%EndSetup
newpath  gsave  .25 .25 scale  gsave  0 0 t 0.48 0.56 0.6 c[  ] 0 sd 3 lw 1 1 1 c 2268 1176 0 0 bf 0.48 0.56 0.6 c 1 1 1 c 710 565 23 600 bf black 1 1 1 c 548 427 143 681 bf black 548 427 143 681 bl 1 1 1 c 548 427 143 681 bf black 548 427 143 681 bl
 0 0 0.933333 c 6 lw 0.49 0.6 0.82 c black 3 lw 0.49 0.6 0.82 c 143 681 m 42 X 3 Y 13 X 39 Y 14 X 181 Y 14 X 107 Y 13 X 58 Y 14 X -41 Y 14 X -33 Y 13 X -36 Y 14 X -97 Y 14 X -66 Y 13 X -26 Y 14 X -32 Y 14 X -10 Y 13 X -24 Y 14 X -14 Y 14 X -6 Y 13 X
 -2 Y 14 X -1 Y 14 X 1 Y 13 X -1 Y 247 X f 6 lw 0 0 0.933333 c 0.49 0.6 0.82 c 0 0 0.933333 c 143 681 m 42 X 3 Y 13 X 39 Y 14 X 181 Y 14 X 107 Y 13 X 58 Y 14 X -41 Y 14 X -33 Y 13 X -36 Y 14 X -97 Y 14 X -66 Y 13 X -26 Y 14 X -32 Y 14 X -10 Y 13 X
 -24 Y 14 X -14 Y 14 X -6 Y 13 X -2 Y 14 X -1 Y 14 X 1 Y 13 X -1 Y 247 X s black 3 lw 143 681 m 548 X s
 gsave  710 565 23 600 C 363.744 613.818 t 0 r /Helvetica findfont 28.5208 sf 0 0 m (log_Lc_FDCHI2_OWNPV) show NC gr  219 694 m -13 Y s 243 688 m -7 Y s 266 688 m -7 Y s 289 688 m -7 Y s 312 694 m -13 Y s 335 688 m -7 Y s 358 688 m -7 Y s 381 688 m
 -7 Y s 405 694 m -13 Y s 428 688 m -7 Y s 451 688 m -7 Y s 474 688 m -7 Y s 497 694 m -13 Y s 520 688 m -7 Y s 543 688 m -7 Y s 567 688 m -7 Y s 590 694 m -13 Y s 613 688 m -7 Y s 636 688 m -7 Y s 659 688 m -7 Y s 682 694 m -13 Y s 219 694 m -13 Y s
 196 688 m -7 Y s 173 688 m -7 Y s 150 688 m -7 Y s 682 694 m -13 Y s
 gsave  710 565 23 600 C 210.29 653.603 t 0 r /Helvetica findfont 25.6688 sf 0 0 m (4) show NC gr 
 gsave  710 565 23 600 C 301.225 653.603 t 0 r /Helvetica findfont 25.6688 sf 0 0 m (6) show NC gr 
 gsave  710 565 23 600 C 395.003 653.603 t 0 r /Helvetica findfont 25.6688 sf 0 0 m (8) show NC gr 
 gsave  710 565 23 600 C 480.256 653.603 t 0 r /Helvetica findfont 25.6688 sf 0 0 m (10) show NC gr 
 gsave  710 565 23 600 C 574.034 653.603 t 0 r /Helvetica findfont 25.6688 sf 0 0 m (12) show NC gr 
 gsave  710 565 23 600 C 667.811 653.603 t 0 r /Helvetica findfont 25.6688 sf 0 0 m (14) show NC gr  143 1108 m 548 X s 219 1095 m 13 Y s 243 1102 m 6 Y s 266 1102 m 6 Y s 289 1102 m 6 Y s 312 1095 m 13 Y s 335 1102 m 6 Y s 358 1102 m 6 Y s 381 1102
 m 6 Y s 405 1095 m 13 Y s 428 1102 m 6 Y s 451 1102 m 6 Y s 474 1102 m 6 Y s 497 1095 m 13 Y s 520 1102 m 6 Y s 543 1102 m 6 Y s 567 1102 m 6 Y s 590 1095 m 13 Y s 613 1102 m 6 Y s 636 1102 m 6 Y s 659 1102 m 6 Y s 682 1095 m 13 Y s 219 1095 m 13 Y
 s 196 1102 m 6 Y s 173 1102 m 6 Y s 150 1102 m 6 Y s 682 1095 m 13 Y s 143 681 m 427 Y s
 gsave  710 565 23 600 C 45.468 1028.71 t 90 r /Helvetica findfont 28.5208 sf 0 0 m (0.296 ) show NC gr 
 gsave  710 565 23 600 C 31.2593 1023.03 t 90 r /Helvetica findfont 19.9646 sf 0 0 m ( ) show NC gr 
 gsave  710 565 23 600 C 45.468 1011.66 t 90 r /Helvetica findfont 28.5208 sf 0 0 m (/) show NC gr 
 gsave  710 565 23 600 C 53.9933 1005.98 t 90 r /Helvetica findfont 19.9646 sf 0 0 m ( ) show NC gr 
 gsave  710 565 23 600 C 45.468 897.993 t 90 r /Helvetica findfont 28.5208 sf 0 0 m (\(1/N\) dN) show NC gr  160 681 m -17 X s 152 696 m -9 X s 152 710 m -9 X s 152 725 m -9 X s 152 739 m -9 X s 160 754 m -17 X s 152 768 m -9 X s 152 782 m -9 X s 152
 797 m -9 X s 152 811 m -9 X s 160 826 m -17 X s 152 840 m -9 X s 152 855 m -9 X s 152 869 m -9 X s 152 884 m -9 X s 160 898 m -17 X s 152 912 m -9 X s 152 927 m -9 X s 152 941 m -9 X s 152 956 m -9 X s 160 970 m -17 X s 152 985 m -9 X s 152 999 m -9
 X s 152 1014 m -9 X s 152 1028 m -9 X s 160 1043 m -17 X s 160 1043 m -17 X s 152 1057 m -9 X s 152 1071 m -9 X s 152 1086 m -9 X s 152 1100 m -9 X s
 gsave  710 565 23 600 C 119.354 670.653 t 0 r /Helvetica findfont 25.6688 sf 0 0 m (0) show NC gr 
 gsave  710 565 23 600 C 102.303 744.539 t 0 r /Helvetica findfont 25.6688 sf 0 0 m (0.1) show NC gr 
 gsave  710 565 23 600 C 96.6195 815.582 t 0 r /Helvetica findfont 25.6688 sf 0 0 m (0.2) show NC gr 
 gsave  710 565 23 600 C 96.6195 889.468 t 0 r /Helvetica findfont 25.6688 sf 0 0 m (0.3) show NC gr 
 gsave  710 565 23 600 C 96.6195 960.512 t 0 r /Helvetica findfont 25.6688 sf 0 0 m (0.4) show NC gr 
 gsave  710 565 23 600 C 96.6195 1031.56 t 0 r /Helvetica findfont 25.6688 sf 0 0 m (0.5) show NC gr  691 681 m 427 Y s 674 681 m 17 X s 683 696 m 8 X s 683 710 m 8 X s 683 725 m 8 X s 683 739 m 8 X s 674 754 m 17 X s 683 768 m 8 X s 683 782 m 8 X s
 683 797 m 8 X s 683 811 m 8 X s 674 826 m 17 X s 683 840 m 8 X s 683 855 m 8 X s 683 869 m 8 X s 683 884 m 8 X s 674 898 m 17 X s 683 912 m 8 X s 683 927 m 8 X s 683 941 m 8 X s 683 956 m 8 X s 674 970 m 17 X s 683 985 m 8 X s 683 999 m 8 X s 683
 1014 m 8 X s 683 1028 m 8 X s 674 1043 m 17 X s 674 1043 m 17 X s 683 1057 m 8 X s 683 1071 m 8 X s 683 1086 m 8 X s 683 1100 m 8 X s 1 0 0 c 6 lw black 3 lw 1 0 0 c 676 681 m s 662 682 m -1 -1 d s 646 681 m s 631 682 m -1 Y s 616 682 m -1 Y s 601
 682 m -1 Y s 586 682 m -1 Y s 571 682 m -1 Y s 556 682 m -1 Y s 542 683 m -1 -2 d s 527 683 m -2 -2 d s 513 684 m -3 -3 d s 499 685 m -4 -4 d s 485 687 m -5 -6 d s 472 688 m -7 -7 d s 461 692 m -11 -11 d s 449 696 m -14 -15 d s 439 701 m -19 -20 d s
 431 707 m -26 -26 d s 417 709 m -27 -28 d s 412 719 m -37 -38 d s 403 725 m -43 -44 d s 391 728 m -46 -47 d s 390 742 m -61 -61 d s 379 746 m -65 -65 d s 376 759 m -77 -78 d s 366 764 m -82 -83 d s 362 775 m -93 -94 d s 353 781 m -99 -100 d s 349
 792 m -110 -111 d s 348 807 m -124 -126 d s 335 808 m -126 -127 d s 335 824 m -141 -143 d s 331 834 m -146 -147 d s 184 686 m -5 -5 d s 321 840 m -123 -124 d s 185 703 m -1 Y s 165 682 m -1 -1 d s 321 855 m -123 -124 d s 149 682 m -1 Y s 316 865 m
 -104 -105 d s 205 754 m -7 -8 d s 308 872 m -96 -97 d s 308 887 m -96 -96 d s 294 888 m -82 -82 d s 294 904 m -68 -69 d s 216 826 m -4 -5 d s 280 905 m -54 -55 d s 280 920 m -41 -41 d s 233 873 m -7 -8 d s 268 923 m -1 -1 d s 261 916 m -8 -8 d s 243
 897 m -4 -3 d s 6 lw 143 682 m 28 X 4 Y 14 X 17 Y 13 X 51 Y 14 X 72 Y 14 X 47 Y 13 X 24 Y 14 X 19 Y 14 X 7 Y 13 X -19 Y 14 X -16 Y 14 X -23 Y 13 X -31 Y 14 X -27 Y 14 X -26 Y 13 X -17 Y 14 X -18 Y 14 X -18 Y 13 X -9 Y 14 X -11 Y 14 X -7 Y 13 X -5 Y
 14 X -4 Y 14 X -5 Y 13 X -2 Y 28 X -2 Y 41 X -1 Y 82 X -1 Y 14 X 1 Y 13 X -1 Y 28 X s black 3 lw 143 681 m 548 X s 219 694 m -13 Y s 243 688 m -7 Y s 266 688 m -7 Y s 289 688 m -7 Y s 312 694 m -13 Y s 335 688 m -7 Y s 358 688 m -7 Y s 381 688 m -7
 Y s 405 694 m -13 Y s 428 688 m -7 Y s 451 688 m -7 Y s 474 688 m -7 Y s 497 694 m -13 Y s 520 688 m -7 Y s 543 688 m -7 Y s 567 688 m -7 Y s 590 694 m -13 Y s 613 688 m -7 Y s 636 688 m -7 Y s 659 688 m -7 Y s 682 694 m -13 Y s 219 694 m -13 Y s
 196 688 m -7 Y s 173 688 m -7 Y s 150 688 m -7 Y s 682 694 m -13 Y s 143 1108 m 548 X s 219 1095 m 13 Y s 243 1102 m 6 Y s 266 1102 m 6 Y s 289 1102 m 6 Y s 312 1095 m 13 Y s 335 1102 m 6 Y s 358 1102 m 6 Y s 381 1102 m 6 Y s 405 1095 m 13 Y s 428
 1102 m 6 Y s 451 1102 m 6 Y s 474 1102 m 6 Y s 497 1095 m 13 Y s 520 1102 m 6 Y s 543 1102 m 6 Y s 567 1102 m 6 Y s 590 1095 m 13 Y s 613 1102 m 6 Y s 636 1102 m 6 Y s 659 1102 m 6 Y s 682 1095 m 13 Y s 219 1095 m 13 Y s 196 1102 m 6 Y s 173 1102 m
 6 Y s 150 1102 m 6 Y s 682 1095 m 13 Y s 143 681 m 427 Y s 160 681 m -17 X s 152 696 m -9 X s 152 710 m -9 X s 152 725 m -9 X s 152 739 m -9 X s 160 754 m -17 X s 152 768 m -9 X s 152 782 m -9 X s 152 797 m -9 X s 152 811 m -9 X s 160 826 m -17 X s
 152 840 m -9 X s 152 855 m -9 X s 152 869 m -9 X s 152 884 m -9 X s 160 898 m -17 X s 152 912 m -9 X s 152 927 m -9 X s 152 941 m -9 X s 152 956 m -9 X s 160 970 m -17 X s 152 985 m -9 X s 152 999 m -9 X s 152 1014 m -9 X s 152 1028 m -9 X s 160
 1043 m -17 X s 160 1043 m -17 X s 152 1057 m -9 X s 152 1071 m -9 X s 152 1086 m -9 X s 152 1100 m -9 X s 691 681 m 427 Y s 674 681 m 17 X s 683 696 m 8 X s 683 710 m 8 X s 683 725 m 8 X s 683 739 m 8 X s 674 754 m 17 X s 683 768 m 8 X s 683 782 m 8
 X s 683 797 m 8 X s 683 811 m 8 X s 674 826 m 17 X s 683 840 m 8 X s 683 855 m 8 X s 683 869 m 8 X s 683 884 m 8 X s 674 898 m 17 X s 683 912 m 8 X s 683 927 m 8 X s 683 941 m 8 X s 683 956 m 8 X s 674 970 m 17 X s 683 985 m 8 X s 683 999 m 8 X s
 683 1014 m 8 X s 683 1028 m 8 X s 674 1043 m 17 X s 674 1043 m 17 X s 683 1057 m 8 X s 683 1071 m 8 X s 683 1086 m 8 X s 683 1100 m 8 X s
 gsave  710 565 23 600 C 719.017 679.067 t 90 r /Helvetica-Bold findfont 19.9646 sf 0 0 m (U/O\255flow \(S,B\): \(0.0, 0.0\)% / \(0.0, 0.0\)%) show NC gr  0.48 0.56 0.6 c 0.364706 0.419608 0.490196 c 497 38 30 1124 bf 0.48 0.56 0.6 c 30 1124 m 497 X
 s 527 1124 m 38 Y s 527 1162 m -497 X s 30 1162 m -38 Y s 1 1 1 c black 1 1 1 c
 gsave  710 565 23 600 C 34.101 1136.7 t 0 r /Helvetica-Bold findfont 25.6688 sf 0 0 m (Input variable: log_Lc_FDCHI2_OWNPV) show NC gr  0.48 0.56 0.6 c 1 1 1 c 710 565 779 600 bf black 1 1 1 c 548 427 899 681 bf black 548 427 899 681 bl 1 1 1 c 548
 427 899 681 bf black 548 427 899 681 bl 0 0 0.933333 c 6 lw 0.49 0.6 0.82 c black 3 lw 0.49 0.6 0.82 c 899 681 m 147 Y 14 X 59 Y 14 X 41 Y 13 X 34 Y 14 X -9 Y 14 X 116 Y 13 X -78 Y 14 X 20 Y 14 X -40 Y 13 X -42 Y 14 X -52 Y 28 X -42 Y 13 X -49 Y 14
 X -43 Y 14 X -24 Y 13 X -12 Y 14 X 1 Y 14 X -19 Y 27 X -7 Y 27 X -1 Y 247 X f 6 lw 0 0 0.933333 c 0.49 0.6 0.82 c 0 0 0.933333 c 899 828 m 14 X 59 Y 14 X 41 Y 13 X 34 Y 14 X -9 Y 14 X 116 Y 13 X -78 Y 14 X 20 Y 14 X -40 Y 13 X -42 Y 14 X -52 Y 28 X
 -42 Y 13 X -49 Y 14 X -43 Y 14 X -24 Y 13 X -12 Y 14 X 1 Y 14 X -19 Y 27 X -7 Y 27 X -1 Y 247 X s black 3 lw 899 681 m 548 X s
 gsave  710 565 779 600 C 1111.12 613.818 t 0 r /Helvetica findfont 28.5208 sf 0 0 m (log_LcP_IPCHI2_OWNPV) show NC gr  916 694 m -13 Y s 929 688 m -7 Y s 943 688 m -7 Y s 956 688 m -7 Y s 969 688 m -7 Y s 982 694 m -13 Y s 995 688 m -7 Y s 1009 688
 m -7 Y s 1022 688 m -7 Y s 1035 688 m -7 Y s 1048 694 m -13 Y s 1062 688 m -7 Y s 1075 688 m -7 Y s 1088 688 m -7 Y s 1101 688 m -7 Y s 1115 694 m -13 Y s 1128 688 m -7 Y s 1141 688 m -7 Y s 1154 688 m -7 Y s 1167 688 m -7 Y s 1181 694 m -13 Y s
 1194 688 m -7 Y s 1207 688 m -7 Y s 1220 688 m -7 Y s 1234 688 m -7 Y s 1247 694 m -13 Y s 1260 688 m -7 Y s 1273 688 m -7 Y s 1287 688 m -7 Y s 1300 688 m -7 Y s 1313 694 m -13 Y s 1326 688 m -7 Y s 1339 688 m -7 Y s 1353 688 m -7 Y s 1366 688 m -7
 Y s 1379 694 m -13 Y s 1392 688 m -7 Y s 1406 688 m -7 Y s 1419 688 m -7 Y s 1432 688 m -7 Y s 1445 694 m -13 Y s 916 694 m -13 Y s 903 688 m -7 Y s 1445 694 m -13 Y s
 gsave  710 565 779 600 C 906.518 653.603 t 0 r /Helvetica findfont 25.6688 sf 0 0 m (2) show NC gr 
 gsave  710 565 779 600 C 971.879 653.603 t 0 r /Helvetica findfont 25.6688 sf 0 0 m (3) show NC gr 
 gsave  710 565 779 600 C 1037.24 653.603 t 0 r /Helvetica findfont 25.6688 sf 0 0 m (4) show NC gr 
 gsave  710 565 779 600 C 1105.44 653.603 t 0 r /Helvetica findfont 25.6688 sf 0 0 m (5) show NC gr 
 gsave  710 565 779 600 C 1170.8 653.603 t 0 r /Helvetica findfont 25.6688 sf 0 0 m (6) show NC gr 
 gsave  710 565 779 600 C 1236.16 653.603 t 0 r /Helvetica findfont 25.6688 sf 0 0 m (7) show NC gr 
 gsave  710 565 779 600 C 1304.36 653.603 t 0 r /Helvetica findfont 25.6688 sf 0 0 m (8) show NC gr 
 gsave  710 565 779 600 C 1369.72 653.603 t 0 r /Helvetica findfont 25.6688 sf 0 0 m (9) show NC gr 
 gsave  710 565 779 600 C 1429.4 653.603 t 0 r /Helvetica findfont 25.6688 sf 0 0 m (10) show NC gr  899 1108 m 548 X s 916 1095 m 13 Y s 929 1102 m 6 Y s 943 1102 m 6 Y s 956 1102 m 6 Y s 969 1102 m 6 Y s 982 1095 m 13 Y s 995 1102 m 6 Y s 1009 1102
 m 6 Y s 1022 1102 m 6 Y s 1035 1102 m 6 Y s 1048 1095 m 13 Y s 1062 1102 m 6 Y s 1075 1102 m 6 Y s 1088 1102 m 6 Y s 1101 1102 m 6 Y s 1115 1095 m 13 Y s 1128 1102 m 6 Y s 1141 1102 m 6 Y s 1154 1102 m 6 Y s 1167 1102 m 6 Y s 1181 1095 m 13 Y s 1194
 1102 m 6 Y s 1207 1102 m 6 Y s 1220 1102 m 6 Y s 1234 1102 m 6 Y s 1247 1095 m 13 Y s 1260 1102 m 6 Y s 1273 1102 m 6 Y s 1287 1102 m 6 Y s 1300 1102 m 6 Y s 1313 1095 m 13 Y s 1326 1102 m 6 Y s 1339 1102 m 6 Y s 1353 1102 m 6 Y s 1366 1102 m 6 Y s
 1379 1095 m 13 Y s 1392 1102 m 6 Y s 1406 1102 m 6 Y s 1419 1102 m 6 Y s 1432 1102 m 6 Y s 1445 1095 m 13 Y s 916 1095 m 13 Y s 903 1102 m 6 Y s 1445 1095 m 13 Y s 899 681 m 427 Y s
 gsave  710 565 779 600 C 801.374 1028.71 t 90 r /Helvetica findfont 28.5208 sf 0 0 m (0.207 ) show NC gr 
 gsave  710 565 779 600 C 787.165 1023.03 t 90 r /Helvetica findfont 19.9646 sf 0 0 m ( ) show NC gr 
 gsave  710 565 779 600 C 801.374 1011.66 t 90 r /Helvetica findfont 28.5208 sf 0 0 m (/) show NC gr 
 gsave  710 565 779 600 C 809.899 1005.98 t 90 r /Helvetica findfont 19.9646 sf 0 0 m ( ) show NC gr 
 gsave  710 565 779 600 C 801.374 897.993 t 90 r /Helvetica findfont 28.5208 sf 0 0 m (\(1/N\) dN) show NC gr  915 681 m -16 X s 907 696 m -8 X s 907 711 m -8 X s 907 725 m -8 X s 907 740 m -8 X s 915 754 m -16 X s 907 769 m -8 X s 907 784 m -8 X s
 907 798 m -8 X s 907 813 m -8 X s 915 827 m -16 X s 907 842 m -8 X s 907 857 m -8 X s 907 871 m -8 X s 907 886 m -8 X s 915 901 m -16 X s 907 915 m -8 X s 907 930 m -8 X s 907 944 m -8 X s 907 959 m -8 X s 915 974 m -16 X s 907 988 m -8 X s 907 1003
 m -8 X s 907 1017 m -8 X s 907 1032 m -8 X s 915 1047 m -16 X s 915 1047 m -16 X s 907 1061 m -8 X s 907 1076 m -8 X s 907 1091 m -8 X s 907 1105 m -8 X s
 gsave  710 565 779 600 C 875.259 670.653 t 0 r /Helvetica findfont 25.6688 sf 0 0 m (0) show NC gr 
 gsave  710 565 779 600 C 858.208 744.539 t 0 r /Helvetica findfont 25.6688 sf 0 0 m (0.1) show NC gr 
 gsave  710 565 779 600 C 852.525 818.424 t 0 r /Helvetica findfont 25.6688 sf 0 0 m (0.2) show NC gr 
 gsave  710 565 779 600 C 852.525 889.468 t 0 r /Helvetica findfont 25.6688 sf 0 0 m (0.3) show NC gr 
 gsave  710 565 779 600 C 852.525 963.353 t 0 r /Helvetica findfont 25.6688 sf 0 0 m (0.4) show NC gr 
 gsave  710 565 779 600 C 852.525 1037.24 t 0 r /Helvetica findfont 25.6688 sf 0 0 m (0.5) show NC gr  1447 681 m 427 Y s 1430 681 m 17 X s 1438 696 m 9 X s 1438 711 m 9 X s 1438 725 m 9 X s 1438 740 m 9 X s 1430 754 m 17 X s 1438 769 m 9 X s 1438
 784 m 9 X s 1438 798 m 9 X s 1438 813 m 9 X s 1430 827 m 17 X s 1438 842 m 9 X s 1438 857 m 9 X s 1438 871 m 9 X s 1438 886 m 9 X s 1430 901 m 17 X s 1438 915 m 9 X s 1438 930 m 9 X s 1438 944 m 9 X s 1438 959 m 9 X s 1430 974 m 17 X s 1438 988 m 9
 X s 1438 1003 m 9 X s 1438 1017 m 9 X s 1438 1032 m 9 X s 1430 1047 m 17 X s 1430 1047 m 17 X s 1438 1061 m 9 X s 1438 1076 m 9 X s 1438 1091 m 9 X s 1438 1105 m 9 X s 1 0 0 c 6 lw black 3 lw 1 0 0 c 1432 681 m s 1417 681 m s 1402 682 m -1 Y s 1388
 682 m -1 -1 d s 1372 682 m -1 Y s 1358 683 m -1 -2 d s 1342 682 m -1 Y s 1328 683 m -1 -2 d s 1315 685 m -4 -4 d s 1300 685 m -4 -4 d s 1287 687 m -6 -6 d s 1275 691 m -9 -10 d s 1263 693 m -12 -12 d s 1251 696 m -15 -15 d s 1241 702 m -20 -21 d s
 1228 703 m -22 -22 d s 1218 709 m -27 -28 d s 1210 716 m -34 -35 d s 1200 721 m -39 -40 d s 1187 723 m -41 -42 d s 1186 737 m -55 -56 d s 1173 739 m -57 -58 d s 1170 751 m -70 -70 d s 1159 756 m -74 -75 d s 1157 768 m -87 -87 d s 1146 772 m -91 -91
 d s 1135 777 m -95 -96 d s 1132 789 m -107 -108 d s 1122 794 m -112 -113 d s 1118 806 m -123 -125 d s 1111 814 m -131 -133 d s 1105 822 m -140 -141 d s 1101 834 m -151 -153 d s 1091 839 m -156 -158 d s 1085 848 m -165 -167 d s 1077 855 m -172 -174 d
 s 1067 860 m -168 -169 d s 1064 872 m -165 -165 d s 1053 876 m -154 -154 d s 1050 888 m -151 -151 d s 1044 897 m -145 -145 d s 1027 896 m -128 -129 d s 1022 906 m -54 -55 d s 957 841 m -30 -31 d s 916 799 m -3 -3 d s 903 786 m -4 -4 d s 1020 919 m
 -52 -52 d s 944 842 m -4 -3 d s 939 838 m -12 -13 d s 1009 923 m -41 -41 d s 1000 929 m -32 -32 d s 984 928 m -16 -16 d s 968 927 m s 6 lw 899 786 m 14 X 13 Y 14 X 39 Y 13 X 4 Y 14 X -1 Y 14 X 86 Y 13 X 1 Y 14 X 1 Y 14 X -10 Y 13 X -23 Y 14 X 1 Y 14
 X -21 Y 14 X -16 Y 13 X -12 Y 14 X -14 Y 14 X -20 Y 13 X -20 Y 14 X -17 Y 14 X -9 Y 13 X -17 Y 14 X -14 Y 14 X -14 Y 13 X -7 Y 14 X -7 Y 14 X -6 Y 13 X -7 Y 14 X -3 Y 14 X -2 Y 13 X -4 Y 14 X -2 Y 27 X -2 Y 14 X -1 Y 14 X 1 Y 13 X -1 Y 41 X -1 Y 42
 X s black 3 lw 899 681 m 548 X s 916 694 m -13 Y s 929 688 m -7 Y s 943 688 m -7 Y s 956 688 m -7 Y s 969 688 m -7 Y s 982 694 m -13 Y s 995 688 m -7 Y s 1009 688 m -7 Y s 1022 688 m -7 Y s 1035 688 m -7 Y s 1048 694 m -13 Y s 1062 688 m -7 Y s 1075
 688 m -7 Y s 1088 688 m -7 Y s 1101 688 m -7 Y s 1115 694 m -13 Y s 1128 688 m -7 Y s 1141 688 m -7 Y s 1154 688 m -7 Y s 1167 688 m -7 Y s 1181 694 m -13 Y s 1194 688 m -7 Y s 1207 688 m -7 Y s 1220 688 m -7 Y s 1234 688 m -7 Y s 1247 694 m -13 Y s
 1260 688 m -7 Y s 1273 688 m -7 Y s 1287 688 m -7 Y s 1300 688 m -7 Y s 1313 694 m -13 Y s 1326 688 m -7 Y s 1339 688 m -7 Y s 1353 688 m -7 Y s 1366 688 m -7 Y s 1379 694 m -13 Y s 1392 688 m -7 Y s 1406 688 m -7 Y s 1419 688 m -7 Y s 1432 688 m -7
 Y s 1445 694 m -13 Y s 916 694 m -13 Y s 903 688 m -7 Y s 1445 694 m -13 Y s 899 1108 m 548 X s 916 1095 m 13 Y s 929 1102 m 6 Y s 943 1102 m 6 Y s 956 1102 m 6 Y s 969 1102 m 6 Y s 982 1095 m 13 Y s 995 1102 m 6 Y s 1009 1102 m 6 Y s 1022 1102 m 6
 Y s 1035 1102 m 6 Y s 1048 1095 m 13 Y s 1062 1102 m 6 Y s 1075 1102 m 6 Y s 1088 1102 m 6 Y s 1101 1102 m 6 Y s 1115 1095 m 13 Y s 1128 1102 m 6 Y s 1141 1102 m 6 Y s 1154 1102 m 6 Y s 1167 1102 m 6 Y s 1181 1095 m 13 Y s 1194 1102 m 6 Y s 1207
 1102 m 6 Y s 1220 1102 m 6 Y s 1234 1102 m 6 Y s 1247 1095 m 13 Y s 1260 1102 m 6 Y s 1273 1102 m 6 Y s 1287 1102 m 6 Y s 1300 1102 m 6 Y s 1313 1095 m 13 Y s 1326 1102 m 6 Y s 1339 1102 m 6 Y s 1353 1102 m 6 Y s 1366 1102 m 6 Y s 1379 1095 m 13 Y s
 1392 1102 m 6 Y s 1406 1102 m 6 Y s 1419 1102 m 6 Y s 1432 1102 m 6 Y s 1445 1095 m 13 Y s 916 1095 m 13 Y s 903 1102 m 6 Y s 1445 1095 m 13 Y s 899 681 m 427 Y s 915 681 m -16 X s 907 696 m -8 X s 907 711 m -8 X s 907 725 m -8 X s 907 740 m -8 X s
 915 754 m -16 X s 907 769 m -8 X s 907 784 m -8 X s 907 798 m -8 X s 907 813 m -8 X s 915 827 m -16 X s 907 842 m -8 X s 907 857 m -8 X s 907 871 m -8 X s 907 886 m -8 X s 915 901 m -16 X s 907 915 m -8 X s 907 930 m -8 X s 907 944 m -8 X s 907 959
 m -8 X s 915 974 m -16 X s 907 988 m -8 X s 907 1003 m -8 X s 907 1017 m -8 X s 907 1032 m -8 X s 915 1047 m -16 X s 915 1047 m -16 X s 907 1061 m -8 X s 907 1076 m -8 X s 907 1091 m -8 X s 907 1105 m -8 X s 1447 681 m 427 Y s 1430 681 m 17 X s 1438
 696 m 9 X s 1438 711 m 9 X s 1438 725 m 9 X s 1438 740 m 9 X s 1430 754 m 17 X s 1438 769 m 9 X s 1438 784 m 9 X s 1438 798 m 9 X s 1438 813 m 9 X s 1430 827 m 17 X s 1438 842 m 9 X s 1438 857 m 9 X s 1438 871 m 9 X s 1438 886 m 9 X s 1430 901 m 17
 X s 1438 915 m 9 X s 1438 930 m 9 X s 1438 944 m 9 X s 1438 959 m 9 X s 1430 974 m 17 X s 1438 988 m 9 X s 1438 1003 m 9 X s 1438 1017 m 9 X s 1438 1032 m 9 X s 1430 1047 m 17 X s 1430 1047 m 17 X s 1438 1061 m 9 X s 1438 1076 m 9 X s 1438 1091 m 9
 X s 1438 1105 m 9 X s
 gsave  710 565 779 600 C 1474.92 679.067 t 90 r /Helvetica-Bold findfont 19.9646 sf 0 0 m (U/O\255flow \(S,B\): \(0.0, 0.0\)% / \(0.0, 0.0\)%) show NC gr  0.48 0.56 0.6 c 0.364706 0.419608 0.490196 c 497 38 786 1124 bf 0.48 0.56 0.6 c 786 1124 m 497
 X s 1283 1124 m 38 Y s 1283 1162 m -497 X s 786 1162 m -38 Y s 1 1 1 c black 1 1 1 c
 gsave  710 565 779 600 C 787.165 1136.7 t 0 r /Helvetica-Bold findfont 25.6688 sf 0 0 m (Input variable: log_LcP_IPCHI2_OWNPV) show NC gr  0.48 0.56 0.6 c 1 1 1 c 711 565 1534 600 bf black 1 1 1 c 547 427 1655 681 bf black 547 427 1655 681 bl 1 1 1
 c 547 427 1655 681 bf black 547 427 1655 681 bl 0 0 0.933333 c 6 lw 0.49 0.6 0.82 c black 3 lw 0.49 0.6 0.82 c 1655 681 m 82 X 130 Y 14 X 40 Y 14 X 65 Y 13 X 42 Y 14 X 30 Y 14 X 73 Y 13 X 8 Y 14 X -65 Y 14 X 1 Y 13 X -87 Y 14 X -88 Y 14 X 7 Y 13 X
 -48 Y 14 X -49 Y 14 X -11 Y 14 X -20 Y 13 X -7 Y 14 X -16 Y 27 X -4 Y 14 X 4 Y 14 X -3 Y 13 X -1 Y 14 X -1 Y 150 X f 6 lw 0 0 0.933333 c 0.49 0.6 0.82 c 0 0 0.933333 c 1655 681 m 82 X 130 Y 14 X 40 Y 14 X 65 Y 13 X 42 Y 14 X 30 Y 14 X 73 Y 13 X 8 Y
 14 X -65 Y 14 X 1 Y 13 X -87 Y 14 X -88 Y 14 X 7 Y 13 X -48 Y 14 X -49 Y 14 X -11 Y 14 X -20 Y 13 X -7 Y 14 X -16 Y 27 X -4 Y 14 X 4 Y 14 X -3 Y 13 X -1 Y 14 X -1 Y 150 X s black 3 lw 1655 681 m 547 X s
 gsave  711 565 1534 600 C 1867.03 613.818 t 0 r /Helvetica findfont 28.5208 sf 0 0 m (log_LcK_IPCHI2_OWNPV) show NC gr  1753 694 m -13 Y s 1780 688 m -7 Y s 1807 688 m -7 Y s 1834 688 m -7 Y s 1861 694 m -13 Y s 1888 688 m -7 Y s 1915 688 m -7 Y s
 1942 688 m -7 Y s 1969 694 m -13 Y s 1996 688 m -7 Y s 2023 688 m -7 Y s 2050 688 m -7 Y s 2077 694 m -13 Y s 2104 688 m -7 Y s 2131 688 m -7 Y s 2158 688 m -7 Y s 2185 694 m -13 Y s 1753 694 m -13 Y s 1726 688 m -7 Y s 1699 688 m -7 Y s 1672 688 m
 -7 Y s 2185 694 m -13 Y s
 gsave  711 565 1534 600 C 1741.99 653.603 t 0 r /Helvetica findfont 25.6688 sf 0 0 m (2) show NC gr 
 gsave  711 565 1534 600 C 1849.98 653.603 t 0 r /Helvetica findfont 25.6688 sf 0 0 m (4) show NC gr 
 gsave  711 565 1534 600 C 1957.97 653.603 t 0 r /Helvetica findfont 25.6688 sf 0 0 m (6) show NC gr 
 gsave  711 565 1534 600 C 2065.95 653.603 t 0 r /Helvetica findfont 25.6688 sf 0 0 m (8) show NC gr 
 gsave  711 565 1534 600 C 2168.26 653.603 t 0 r /Helvetica findfont 25.6688 sf 0 0 m (10) show NC gr  1655 1108 m 547 X s 1753 1095 m 13 Y s 1780 1102 m 6 Y s 1807 1102 m 6 Y s 1834 1102 m 6 Y s 1861 1095 m 13 Y s 1888 1102 m 6 Y s 1915 1102 m 6 Y s
 1942 1102 m 6 Y s 1969 1095 m 13 Y s 1996 1102 m 6 Y s 2023 1102 m 6 Y s 2050 1102 m 6 Y s 2077 1095 m 13 Y s 2104 1102 m 6 Y s 2131 1102 m 6 Y s 2158 1102 m 6 Y s 2185 1095 m 13 Y s 1753 1095 m 13 Y s 1726 1102 m 6 Y s 1699 1102 m 6 Y s 1672 1102 m
 6 Y s 2185 1095 m 13 Y s 1655 681 m 427 Y s
 gsave  711 565 1534 600 C 1557.28 1028.71 t 90 r /Helvetica findfont 28.5208 sf 0 0 m (0.253 ) show NC gr 
 gsave  711 565 1534 600 C 1543.07 1023.03 t 90 r /Helvetica findfont 19.9646 sf 0 0 m ( ) show NC gr 
 gsave  711 565 1534 600 C 1557.28 1011.66 t 90 r /Helvetica findfont 28.5208 sf 0 0 m (/) show NC gr 
 gsave  711 565 1534 600 C 1565.8 1005.98 t 90 r /Helvetica findfont 19.9646 sf 0 0 m ( ) show NC gr 
 gsave  711 565 1534 600 C 1557.28 897.993 t 90 r /Helvetica findfont 28.5208 sf 0 0 m (\(1/N\) dN) show NC gr  1671 681 m -16 X s 1663 698 m -8 X s 1663 715 m -8 X s 1663 732 m -8 X s 1663 749 m -8 X s 1671 766 m -16 X s 1663 783 m -8 X s 1663 800 m
 -8 X s 1663 817 m -8 X s 1663 834 m -8 X s 1671 851 m -16 X s 1663 868 m -8 X s 1663 885 m -8 X s 1663 902 m -8 X s 1663 919 m -8 X s 1671 936 m -16 X s 1663 953 m -8 X s 1663 970 m -8 X s 1663 987 m -8 X s 1663 1004 m -8 X s 1671 1021 m -16 X s
 1663 1038 m -8 X s 1663 1055 m -8 X s 1663 1072 m -8 X s 1663 1089 m -8 X s 1671 1106 m -16 X s 1671 1106 m -16 X s
 gsave  711 565 1534 600 C 1631.16 670.653 t 0 r /Helvetica findfont 25.6688 sf 0 0 m (0) show NC gr 
 gsave  711 565 1534 600 C 1614.11 755.906 t 0 r /Helvetica findfont 25.6688 sf 0 0 m (0.1) show NC gr 
 gsave  711 565 1534 600 C 1608.43 841.158 t 0 r /Helvetica findfont 25.6688 sf 0 0 m (0.2) show NC gr 
 gsave  711 565 1534 600 C 1608.43 926.411 t 0 r /Helvetica findfont 25.6688 sf 0 0 m (0.3) show NC gr 
 gsave  711 565 1534 600 C 1608.43 1011.66 t 0 r /Helvetica findfont 25.6688 sf 0 0 m (0.4) show NC gr 
 gsave  711 565 1534 600 C 1608.43 1096.92 t 0 r /Helvetica findfont 25.6688 sf 0 0 m (0.5) show NC gr  2202 681 m 427 Y s 2186 681 m 16 X s 2194 698 m 8 X s 2194 715 m 8 X s 2194 732 m 8 X s 2194 749 m 8 X s 2186 766 m 16 X s 2194 783 m 8 X s 2194
 800 m 8 X s 2194 817 m 8 X s 2194 834 m 8 X s 2186 851 m 16 X s 2194 868 m 8 X s 2194 885 m 8 X s 2194 902 m 8 X s 2194 919 m 8 X s 2186 936 m 16 X s 2194 953 m 8 X s 2194 970 m 8 X s 2194 987 m 8 X s 2194 1004 m 8 X s 2186 1021 m 16 X s 2194 1038 m
 8 X s 2194 1055 m 8 X s 2194 1072 m 8 X s 2194 1089 m 8 X s 2186 1106 m 16 X s 2186 1106 m 16 X s 1 0 0 c 6 lw black 3 lw 1 0 0 c 2188 682 m -1 Y s 2173 682 m -1 Y s 2158 682 m -1 Y s 2143 682 m -1 Y s 2129 683 m -1 -2 d s 2114 682 m -1 -1 d s 2101
 685 m -3 -4 d s 2087 686 m -5 -5 d s 2074 688 m -7 -7 d s 2062 691 m -10 -10 d s 2051 695 m -14 -14 d s 2038 698 m -16 -17 d s 2026 701 m -19 -20 d s 2017 707 m -25 -26 d s 2009 714 m -32 -33 d s 1997 717 m -35 -36 d s 1994 728 m -47 -47 d s 1984
 734 m -52 -53 d s 1976 741 m -59 -60 d s 1970 750 m -68 -69 d s 1961 757 m -74 -76 d s 1956 767 m -85 -86 d s 1950 776 m -94 -95 d s 1943 783 m -102 -102 d s 1943 798 m -117 -117 d s 1931 802 m -120 -121 d s 1929 815 m -133 -134 d s 1918 820 m -137
 -139 d s 1915 832 m -149 -151 d s 1911 842 m -160 -161 d s 1901 848 m -164 -165 d s 1736 681 m s 1901 863 m -164 -165 d s 1721 681 m cl s 1890 867 m -153 -154 d s 1706 681 m s 1888 880 m -151 -152 d s 1691 681 m s 1881 888 m -144 -144 d s 1675 681 m
 cl s 1874 897 m -137 -138 d s 1660 681 m s 1867 905 m -130 -131 d s 1860 913 m -109 -110 d s 1860 928 m -95 -96 d s 1756 823 m -5 -5 d s 1847 930 m -55 -55 d s 1784 867 m -6 -6 d s 1777 860 m -12 -13 d s 1838 936 m -46 -46 d s 1833 946 m -41 -41 d s
 1832 960 m -26 -26 d s 1795 923 m -3 -3 d s 1819 963 m -13 -14 d s 6 lw 1655 681 m 82 X 108 Y 14 X 34 Y 14 X 37 Y 13 X 7 Y 14 X 56 Y 14 X 41 Y 13 X -4 Y 14 X -24 Y 14 X -8 Y 13 X -23 Y 14 X -17 Y 14 X -21 Y 13 X -25 Y 14 X -22 Y 14 X -18 Y 14 X -26
 Y 13 X -19 Y 14 X -16 Y 14 X -13 Y 13 X -14 Y 14 X -7 Y 14 X -6 Y 13 X -6 Y 14 X -4 Y 14 X -3 Y 13 X -2 Y 14 X -1 Y 14 X -3 Y 13 X 1 Y 14 X -1 Y 55 X -1 Y 13 X s black 3 lw 1655 681 m 547 X s 1753 694 m -13 Y s 1780 688 m -7 Y s 1807 688 m -7 Y s
 1834 688 m -7 Y s 1861 694 m -13 Y s 1888 688 m -7 Y s 1915 688 m -7 Y s 1942 688 m -7 Y s 1969 694 m -13 Y s 1996 688 m -7 Y s 2023 688 m -7 Y s 2050 688 m -7 Y s 2077 694 m -13 Y s 2104 688 m -7 Y s 2131 688 m -7 Y s 2158 688 m -7 Y s 2185 694 m
 -13 Y s 1753 694 m -13 Y s 1726 688 m -7 Y s 1699 688 m -7 Y s 1672 688 m -7 Y s 2185 694 m -13 Y s 1655 1108 m 547 X s 1753 1095 m 13 Y s 1780 1102 m 6 Y s 1807 1102 m 6 Y s 1834 1102 m 6 Y s 1861 1095 m 13 Y s 1888 1102 m 6 Y s 1915 1102 m 6 Y s
 1942 1102 m 6 Y s 1969 1095 m 13 Y s 1996 1102 m 6 Y s 2023 1102 m 6 Y s 2050 1102 m 6 Y s 2077 1095 m 13 Y s 2104 1102 m 6 Y s 2131 1102 m 6 Y s 2158 1102 m 6 Y s 2185 1095 m 13 Y s 1753 1095 m 13 Y s 1726 1102 m 6 Y s 1699 1102 m 6 Y s 1672 1102 m
 6 Y s 2185 1095 m 13 Y s 1655 681 m 427 Y s 1671 681 m -16 X s 1663 698 m -8 X s 1663 715 m -8 X s 1663 732 m -8 X s 1663 749 m -8 X s 1671 766 m -16 X s 1663 783 m -8 X s 1663 800 m -8 X s 1663 817 m -8 X s 1663 834 m -8 X s 1671 851 m -16 X s 1663
 868 m -8 X s 1663 885 m -8 X s 1663 902 m -8 X s 1663 919 m -8 X s 1671 936 m -16 X s 1663 953 m -8 X s 1663 970 m -8 X s 1663 987 m -8 X s 1663 1004 m -8 X s 1671 1021 m -16 X s 1663 1038 m -8 X s 1663 1055 m -8 X s 1663 1072 m -8 X s 1663 1089 m
 -8 X s 1671 1106 m -16 X s 1671 1106 m -16 X s 2202 681 m 427 Y s 2186 681 m 16 X s 2194 698 m 8 X s 2194 715 m 8 X s 2194 732 m 8 X s 2194 749 m 8 X s 2186 766 m 16 X s 2194 783 m 8 X s 2194 800 m 8 X s 2194 817 m 8 X s 2194 834 m 8 X s 2186 851 m
 16 X s 2194 868 m 8 X s 2194 885 m 8 X s 2194 902 m 8 X s 2194 919 m 8 X s 2186 936 m 16 X s 2194 953 m 8 X s 2194 970 m 8 X s 2194 987 m 8 X s 2194 1004 m 8 X s 2186 1021 m 16 X s 2194 1038 m 8 X s 2194 1055 m 8 X s 2194 1072 m 8 X s 2194 1089 m 8
 X s 2186 1106 m 16 X s 2186 1106 m 16 X s
 gsave  711 565 1534 600 C 2230.83 679.067 t 90 r /Helvetica-Bold findfont 19.9646 sf 0 0 m (U/O\255flow \(S,B\): \(0.0, 0.0\)% / \(0.0, 0.0\)%) show NC gr  0.48 0.56 0.6 c 0.364706 0.419608 0.490196 c 497 38 1542 1124 bf 0.48 0.56 0.6 c 1542 1124 m
 497 X s 2039 1124 m 38 Y s 2039 1162 m -497 X s 1542 1162 m -38 Y s 1 1 1 c black 1 1 1 c
 gsave  711 565 1534 600 C 1540.23 1136.7 t 0 r /Helvetica-Bold findfont 25.6688 sf 0 0 m (Input variable: log_LcK_IPCHI2_OWNPV) show NC gr  0.48 0.56 0.6 c 1 1 1 c 710 564 23 12 bf black 1 1 1 c 548 427 143 93 bf black 548 427 143 93 bl 1 1 1 c 548
 427 143 93 bf black 548 427 143 93 bl 0 0 0.933333 c 6 lw 0.49 0.6 0.82 c black 3 lw 0.49 0.6 0.82 c 143 93 m 42 X 6 Y 13 X 126 Y 14 X 68 Y 14 X 22 Y 13 X 78 Y 14 X 28 Y 14 X 60 Y 13 X -73 Y 14 X 4 Y 14 X -25 Y 13 X -42 Y 14 X -39 Y 14 X -37 Y 13 X
 -24 Y 14 X -33 Y 14 X -59 Y 13 X -11 Y 14 X -4 Y 14 X -12 Y 13 X -20 Y 14 X 6 Y 14 X -12 Y 13 X -7 Y 14 X 1 Y 14 X -1 Y 178 X f 6 lw 0 0 0.933333 c 0.49 0.6 0.82 c 0 0 0.933333 c 143 93 m 42 X 6 Y 13 X 126 Y 14 X 68 Y 14 X 22 Y 13 X 78 Y 14 X 28 Y
 14 X 60 Y 13 X -73 Y 14 X 4 Y 14 X -25 Y 13 X -42 Y 14 X -39 Y 14 X -37 Y 13 X -24 Y 14 X -33 Y 14 X -59 Y 13 X -11 Y 14 X -4 Y 14 X -12 Y 13 X -20 Y 14 X 6 Y 14 X -12 Y 13 X -7 Y 14 X 1 Y 14 X -1 Y 178 X s black 3 lw 143 93 m 548 X s
 gsave  710 564 23 12 C 349.535 25.5758 t 0 r /Helvetica findfont 28.5208 sf 0 0 m (log_LcPi_IPCHI2_OWNPV) show NC gr  155 106 m -13 Y s 167 100 m -7 Y s 178 100 m -7 Y s 190 100 m -7 Y s 201 100 m -7 Y s 213 106 m -13 Y s 224 100 m -7 Y s 236 100 m
 -7 Y s 247 100 m -7 Y s 259 100 m -7 Y s 270 106 m -13 Y s 282 100 m -7 Y s 293 100 m -7 Y s 305 100 m -7 Y s 317 100 m -7 Y s 328 106 m -13 Y s 340 100 m -7 Y s 351 100 m -7 Y s 363 100 m -7 Y s 374 100 m -7 Y s 386 106 m -13 Y s 397 100 m -7 Y s
 409 100 m -7 Y s 420 100 m -7 Y s 432 100 m -7 Y s 443 106 m -13 Y s 455 100 m -7 Y s 466 100 m -7 Y s 478 100 m -7 Y s 489 100 m -7 Y s 501 106 m -13 Y s 513 100 m -7 Y s 524 100 m -7 Y s 536 100 m -7 Y s 547 100 m -7 Y s 559 106 m -13 Y s 570 100
 m -7 Y s 582 100 m -7 Y s 593 100 m -7 Y s 605 100 m -7 Y s 616 106 m -13 Y s 628 100 m -7 Y s 639 100 m -7 Y s 651 100 m -7 Y s 662 100 m -7 Y s 674 106 m -13 Y s 155 106 m -13 Y s 144 100 m -7 Y s 674 106 m -13 Y s 686 100 m -7 Y s
 gsave  710 564 23 12 C 147.771 65.3603 t 0 r /Helvetica findfont 25.6688 sf 0 0 m (1) show NC gr 
 gsave  710 564 23 12 C 201.764 65.3603 t 0 r /Helvetica findfont 25.6688 sf 0 0 m (2) show NC gr 
 gsave  710 564 23 12 C 261.441 65.3603 t 0 r /Helvetica findfont 25.6688 sf 0 0 m (3) show NC gr 
 gsave  710 564 23 12 C 318.276 65.3603 t 0 r /Helvetica findfont 25.6688 sf 0 0 m (4) show NC gr 
 gsave  710 564 23 12 C 375.111 65.3603 t 0 r /Helvetica findfont 25.6688 sf 0 0 m (5) show NC gr 
 gsave  710 564 23 12 C 434.788 65.3603 t 0 r /Helvetica findfont 25.6688 sf 0 0 m (6) show NC gr 
 gsave  710 564 23 12 C 491.623 65.3603 t 0 r /Helvetica findfont 25.6688 sf 0 0 m (7) show NC gr 
 gsave  710 564 23 12 C 548.458 65.3603 t 0 r /Helvetica findfont 25.6688 sf 0 0 m (8) show NC gr 
 gsave  710 564 23 12 C 605.293 65.3603 t 0 r /Helvetica findfont 25.6688 sf 0 0 m (9) show NC gr 
 gsave  710 564 23 12 C 659.286 65.3603 t 0 r /Helvetica findfont 25.6688 sf 0 0 m (10) show NC gr  143 520 m 548 X s 155 507 m 13 Y s 167 513 m 7 Y s 178 513 m 7 Y s 190 513 m 7 Y s 201 513 m 7 Y s 213 507 m 13 Y s 224 513 m 7 Y s 236 513 m 7 Y s
 247 513 m 7 Y s 259 513 m 7 Y s 270 507 m 13 Y s 282 513 m 7 Y s 293 513 m 7 Y s 305 513 m 7 Y s 317 513 m 7 Y s 328 507 m 13 Y s 340 513 m 7 Y s 351 513 m 7 Y s 363 513 m 7 Y s 374 513 m 7 Y s 386 507 m 13 Y s 397 513 m 7 Y s 409 513 m 7 Y s 420
 513 m 7 Y s 432 513 m 7 Y s 443 507 m 13 Y s 455 513 m 7 Y s 466 513 m 7 Y s 478 513 m 7 Y s 489 513 m 7 Y s 501 507 m 13 Y s 513 513 m 7 Y s 524 513 m 7 Y s 536 513 m 7 Y s 547 513 m 7 Y s 559 507 m 13 Y s 570 513 m 7 Y s 582 513 m 7 Y s 593 513 m
 7 Y s 605 513 m 7 Y s 616 507 m 13 Y s 628 513 m 7 Y s 639 513 m 7 Y s 651 513 m 7 Y s 662 513 m 7 Y s 674 507 m 13 Y s 155 507 m 13 Y s 144 513 m 7 Y s 674 507 m 13 Y s 686 513 m 7 Y s 143 93 m 427 Y s
 gsave  710 564 23 12 C 45.468 440.471 t 90 r /Helvetica findfont 28.5208 sf 0 0 m (0.237 ) show NC gr 
 gsave  710 564 23 12 C 31.2593 434.788 t 90 r /Helvetica findfont 19.9646 sf 0 0 m ( ) show NC gr 
 gsave  710 564 23 12 C 45.468 423.421 t 90 r /Helvetica findfont 28.5208 sf 0 0 m (/) show NC gr 
 gsave  710 564 23 12 C 53.9933 417.737 t 90 r /Helvetica findfont 19.9646 sf 0 0 m ( ) show NC gr 
 gsave  710 564 23 12 C 45.468 309.751 t 90 r /Helvetica findfont 28.5208 sf 0 0 m (\(1/N\) dN) show NC gr  160 93 m -17 X s 152 102 m -9 X s 152 110 m -9 X s 152 119 m -9 X s 152 128 m -9 X s 160 136 m -17 X s 152 145 m -9 X s 152 154 m -9 X s 152
 162 m -9 X s 152 171 m -9 X s 160 179 m -17 X s 152 188 m -9 X s 152 197 m -9 X s 152 205 m -9 X s 152 214 m -9 X s 160 223 m -17 X s 152 231 m -9 X s 152 240 m -9 X s 152 248 m -9 X s 152 257 m -9 X s 160 266 m -17 X s 152 274 m -9 X s 152 283 m -9
 X s 152 292 m -9 X s 152 300 m -9 X s 160 309 m -17 X s 152 318 m -9 X s 152 326 m -9 X s 152 335 m -9 X s 152 343 m -9 X s 160 352 m -17 X s 152 361 m -9 X s 152 369 m -9 X s 152 378 m -9 X s 152 387 m -9 X s 160 395 m -17 X s 152 404 m -9 X s 152
 413 m -9 X s 152 421 m -9 X s 152 430 m -9 X s 160 438 m -17 X s 152 447 m -9 X s 152 456 m -9 X s 152 464 m -9 X s 152 473 m -9 X s 160 482 m -17 X s 160 482 m -17 X s 152 490 m -9 X s 152 499 m -9 X s 152 507 m -9 X s 152 516 m -9 X s
 gsave  710 564 23 12 C 119.354 82.4108 t 0 r /Helvetica findfont 25.6688 sf 0 0 m (0) show NC gr 
 gsave  710 564 23 12 C 82.4108 125.037 t 0 r /Helvetica findfont 25.6688 sf 0 0 m (0.05) show NC gr 
 gsave  710 564 23 12 C 102.303 170.505 t 0 r /Helvetica findfont 25.6688 sf 0 0 m (0.1) show NC gr 
 gsave  710 564 23 12 C 82.4108 213.131 t 0 r /Helvetica findfont 25.6688 sf 0 0 m (0.15) show NC gr 
 gsave  710 564 23 12 C 96.6195 255.758 t 0 r /Helvetica findfont 25.6688 sf 0 0 m (0.2) show NC gr 
 gsave  710 564 23 12 C 82.4108 298.384 t 0 r /Helvetica findfont 25.6688 sf 0 0 m (0.25) show NC gr 
 gsave  710 564 23 12 C 96.6195 341.01 t 0 r /Helvetica findfont 25.6688 sf 0 0 m (0.3) show NC gr 
 gsave  710 564 23 12 C 82.4108 386.478 t 0 r /Helvetica findfont 25.6688 sf 0 0 m (0.35) show NC gr 
 gsave  710 564 23 12 C 96.6195 429.104 t 0 r /Helvetica findfont 25.6688 sf 0 0 m (0.4) show NC gr 
 gsave  710 564 23 12 C 82.4108 471.731 t 0 r /Helvetica findfont 25.6688 sf 0 0 m (0.45) show NC gr  691 93 m 427 Y s 674 93 m 17 X s 683 102 m 8 X s 683 110 m 8 X s 683 119 m 8 X s 683 128 m 8 X s 674 136 m 17 X s 683 145 m 8 X s 683 154 m 8 X s
 683 162 m 8 X s 683 171 m 8 X s 674 179 m 17 X s 683 188 m 8 X s 683 197 m 8 X s 683 205 m 8 X s 683 214 m 8 X s 674 223 m 17 X s 683 231 m 8 X s 683 240 m 8 X s 683 248 m 8 X s 683 257 m 8 X s 674 266 m 17 X s 683 274 m 8 X s 683 283 m 8 X s 683
 292 m 8 X s 683 300 m 8 X s 674 309 m 17 X s 683 318 m 8 X s 683 326 m 8 X s 683 335 m 8 X s 683 343 m 8 X s 674 352 m 17 X s 683 361 m 8 X s 683 369 m 8 X s 683 378 m 8 X s 683 387 m 8 X s 674 395 m 17 X s 683 404 m 8 X s 683 413 m 8 X s 683 421 m
 8 X s 683 430 m 8 X s 674 438 m 17 X s 683 447 m 8 X s 683 456 m 8 X s 683 464 m 8 X s 683 473 m 8 X s 674 482 m 17 X s 674 482 m 17 X s 683 490 m 8 X s 683 499 m 8 X s 683 507 m 8 X s 683 516 m 8 X s 1 0 0 c 6 lw black 3 lw 1 0 0 c 676 93 m s 662
 94 m -1 -1 d s 646 93 m s 632 94 m -1 -1 d s 617 94 m -1 -1 d s 603 96 m -2 -3 d s 590 97 m -4 -4 d s 579 101 m -8 -8 d s 565 103 m -9 -10 d s 554 106 m -13 -13 d s 540 108 m -15 -15 d s 526 109 m -16 -16 d s 522 120 m -27 -27 d s 513 126 m -33 -33
 d s 499 127 m -34 -34 d s 492 135 m -42 -42 d s 485 144 m -50 -51 d s 472 145 m -52 -52 d s 464 153 m -59 -60 d s 458 162 m -68 -69 d s 450 169 m -75 -76 d s 444 178 m -84 -85 d s 436 185 m -91 -92 d s 431 195 m -102 -102 d s 421 200 m -107 -107 d s
 417 212 m -118 -119 d s 403 213 m -119 -120 d s 403 228 m -134 -135 d s 391 231 m -137 -138 d s 390 245 m -151 -152 d s 376 246 m -152 -153 d s 376 261 m -167 -168 d s 372 273 m -174 -176 d s 195 94 m -1 -1 d s 362 278 m -164 -165 d s 179 93 m s 355
 286 m -157 -158 d s 164 93 m cl s 348 294 m -150 -151 d s 149 93 m s 335 296 m -137 -138 d s 335 311 m -137 -138 d s 319 310 m -121 -121 d s 308 314 m -110 -110 d s 300 322 m -102 -103 d s 287 324 m -34 -35 d s 243 280 m -45 -46 d s 275 326 m -22
 -22 d s 239 291 m -13 -14 d s 224 276 m -26 -27 d s 257 324 m -4 -4 d s 232 299 m -6 -7 d s 202 269 m -4 -4 d s 6 lw 143 93 m 42 X 1 Y 13 X 175 Y 14 X 7 Y 14 X 23 Y 13 X -19 Y 14 X 44 Y 14 X 2 Y 13 X -2 Y 14 X -2 Y 14 X -12 Y 13 X 1 Y 14 X -17 Y 14
 X -8 Y 13 X -13 Y 14 X -27 Y 14 X -15 Y 13 X -19 Y 14 X -12 Y 14 X -15 Y 13 X -16 Y 14 X -16 Y 14 X -8 Y 13 X -10 Y 14 X -9 Y 14 X -6 Y 13 X -11 Y 14 X -3 Y 14 X -3 Y 13 X -2 Y 14 X -4 Y 14 X -1 Y 14 X -2 Y 27 X -1 Y 14 X 1 Y 13 X -1 Y 28 X s black
 3 lw 143 93 m 548 X s 155 106 m -13 Y s 167 100 m -7 Y s 178 100 m -7 Y s 190 100 m -7 Y s 201 100 m -7 Y s 213 106 m -13 Y s 224 100 m -7 Y s 236 100 m -7 Y s 247 100 m -7 Y s 259 100 m -7 Y s 270 106 m -13 Y s 282 100 m -7 Y s 293 100 m -7 Y s 305
 100 m -7 Y s 317 100 m -7 Y s 328 106 m -13 Y s 340 100 m -7 Y s 351 100 m -7 Y s 363 100 m -7 Y s 374 100 m -7 Y s 386 106 m -13 Y s 397 100 m -7 Y s 409 100 m -7 Y s 420 100 m -7 Y s 432 100 m -7 Y s 443 106 m -13 Y s 455 100 m -7 Y s 466 100 m -7
 Y s 478 100 m -7 Y s 489 100 m -7 Y s 501 106 m -13 Y s 513 100 m -7 Y s 524 100 m -7 Y s 536 100 m -7 Y s 547 100 m -7 Y s 559 106 m -13 Y s 570 100 m -7 Y s 582 100 m -7 Y s 593 100 m -7 Y s 605 100 m -7 Y s 616 106 m -13 Y s 628 100 m -7 Y s 639
 100 m -7 Y s 651 100 m -7 Y s 662 100 m -7 Y s 674 106 m -13 Y s 155 106 m -13 Y s 144 100 m -7 Y s 674 106 m -13 Y s 686 100 m -7 Y s 143 520 m 548 X s 155 507 m 13 Y s 167 513 m 7 Y s 178 513 m 7 Y s 190 513 m 7 Y s 201 513 m 7 Y s 213 507 m 13 Y
 s 224 513 m 7 Y s 236 513 m 7 Y s 247 513 m 7 Y s 259 513 m 7 Y s 270 507 m 13 Y s 282 513 m 7 Y s 293 513 m 7 Y s 305 513 m 7 Y s 317 513 m 7 Y s 328 507 m 13 Y s 340 513 m 7 Y s 351 513 m 7 Y s 363 513 m 7 Y s 374 513 m 7 Y s 386 507 m 13 Y s 397
 513 m 7 Y s 409 513 m 7 Y s 420 513 m 7 Y s 432 513 m 7 Y s 443 507 m 13 Y s 455 513 m 7 Y s 466 513 m 7 Y s 478 513 m 7 Y s 489 513 m 7 Y s 501 507 m 13 Y s 513 513 m 7 Y s 524 513 m 7 Y s 536 513 m 7 Y s 547 513 m 7 Y s 559 507 m 13 Y s 570 513 m
 7 Y s 582 513 m 7 Y s 593 513 m 7 Y s 605 513 m 7 Y s 616 507 m 13 Y s 628 513 m 7 Y s 639 513 m 7 Y s 651 513 m 7 Y s 662 513 m 7 Y s 674 507 m 13 Y s 155 507 m 13 Y s 144 513 m 7 Y s 674 507 m 13 Y s 686 513 m 7 Y s 143 93 m 427 Y s 160 93 m -17 X
 s 152 102 m -9 X s 152 110 m -9 X s 152 119 m -9 X s 152 128 m -9 X s 160 136 m -17 X s 152 145 m -9 X s 152 154 m -9 X s 152 162 m -9 X s 152 171 m -9 X s 160 179 m -17 X s 152 188 m -9 X s 152 197 m -9 X s 152 205 m -9 X s 152 214 m -9 X s 160 223
 m -17 X s 152 231 m -9 X s 152 240 m -9 X s 152 248 m -9 X s 152 257 m -9 X s 160 266 m -17 X s 152 274 m -9 X s 152 283 m -9 X s 152 292 m -9 X s 152 300 m -9 X s 160 309 m -17 X s 152 318 m -9 X s 152 326 m -9 X s 152 335 m -9 X s 152 343 m -9 X s
 160 352 m -17 X s 152 361 m -9 X s 152 369 m -9 X s 152 378 m -9 X s 152 387 m -9 X s 160 395 m -17 X s 152 404 m -9 X s 152 413 m -9 X s 152 421 m -9 X s 152 430 m -9 X s 160 438 m -17 X s 152 447 m -9 X s 152 456 m -9 X s 152 464 m -9 X s 152 473
 m -9 X s 160 482 m -17 X s 160 482 m -17 X s 152 490 m -9 X s 152 499 m -9 X s 152 507 m -9 X s 152 516 m -9 X s 691 93 m 427 Y s 674 93 m 17 X s 683 102 m 8 X s 683 110 m 8 X s 683 119 m 8 X s 683 128 m 8 X s 674 136 m 17 X s 683 145 m 8 X s 683
 154 m 8 X s 683 162 m 8 X s 683 171 m 8 X s 674 179 m 17 X s 683 188 m 8 X s 683 197 m 8 X s 683 205 m 8 X s 683 214 m 8 X s 674 223 m 17 X s 683 231 m 8 X s 683 240 m 8 X s 683 248 m 8 X s 683 257 m 8 X s 674 266 m 17 X s 683 274 m 8 X s 683 283 m
 8 X s 683 292 m 8 X s 683 300 m 8 X s 674 309 m 17 X s 683 318 m 8 X s 683 326 m 8 X s 683 335 m 8 X s 683 343 m 8 X s 674 352 m 17 X s 683 361 m 8 X s 683 369 m 8 X s 683 378 m 8 X s 683 387 m 8 X s 674 395 m 17 X s 683 404 m 8 X s 683 413 m 8 X s
 683 421 m 8 X s 683 430 m 8 X s 674 438 m 17 X s 683 447 m 8 X s 683 456 m 8 X s 683 464 m 8 X s 683 473 m 8 X s 674 482 m 17 X s 674 482 m 17 X s 683 490 m 8 X s 683 499 m 8 X s 683 507 m 8 X s 683 516 m 8 X s
 gsave  710 564 23 12 C 719.017 90.8246 t 90 r /Helvetica-Bold findfont 19.9646 sf 0 0 m (U/O\255flow \(S,B\): \(0.0, 0.0\)% / \(0.0, 0.0\)%) show NC gr  0.48 0.56 0.6 c 0.364706 0.419608 0.490196 c 497 38 30 536 bf 0.48 0.56 0.6 c 30 536 m 497 X s
 527 536 m 38 Y s 527 574 m -497 X s 30 574 m -38 Y s 1 1 1 c black 1 1 1 c
 gsave  710 564 23 12 C 25.5758 548.458 t 0 r /Helvetica-Bold findfont 25.6688 sf 0 0 m (Input variable: log_LcPi_IPCHI2_OWNPV) show NC gr  0.48 0.56 0.6 c 1 1 1 c 710 564 779 12 bf 0.48 0.56 0.6 c 1 1 1 c 711 564 1534 12 bf
 gr  gr showpage
end
%%EOF
