%!PS-Adobe-2.0 EPSF-2.0
%%BoundingBox:  0 0 567 294
%%Title: plots/variables_id_c3.eps: Input variables (training sample)
%%Creator: ROOT Version 6.06/02
%%CreationDate: Wed Jun  6 20:41:35 2018
%%DocumentNeededResources: ProcSet (FontSetInit)
%%EndComments
%%BeginProlog
80 dict begin
/s {stroke} def /l {lineto} def /m {moveto} def /t {translate} def
/r {rotate} def /rl {roll}  def /R {repeat} def
/d {rlineto} def /rm {rmoveto} def /gr {grestore} def /f {eofill} def
/c {setrgbcolor} def /black {0 setgray} def /sd {setdash} def
/cl {closepath} def /sf {scalefont setfont} def /lw {setlinewidth} def
/box {m dup 0 exch d exch 0 d 0 exch neg d cl} def
/NC{systemdict begin initclip end}def/C{NC box clip newpath}def
/bl {box s} def /bf {gsave box gsave f grestore 1 lw [] 0 sd s grestore} def /Y { 0 exch d} def /X { 0 d} def 
/K {{pop pop 0 moveto} exch kshow} bind def
/ita {/ang 15 def gsave [1 0 ang dup sin exch cos div 1 0 0] concat} def 
/mp {newpath /y exch def /x exch def} def
/side {[w .77 mul w .23 mul] .385 w mul sd w 0 l currentpoint t -144 r} def
/mr {mp x y w2 0 360 arc} def /m24 {mr s} def /m20 {mr f} def
/mb {mp x y w2 add m w2 neg 0 d 0 w neg d w 0 d 0 w d cl} def
/mt {mp x y w2 add m w2 neg w neg d w 0 d cl} def
/m21 {mb f} def /m25 {mb s} def /m22 {mt f} def /m26{mt s} def
/m23 {mp x y w2 sub m w2 w d w neg 0 d cl f} def
/m27 {mp x y w2 add m w3 neg w2 neg d w3 w2 neg d w3 w2 d cl s} def
/m28 {mp x w2 sub y w2 sub w3 add m w3 0 d  0 w3 neg d w3 0 d 0 w3 d w3 0 d  0 w3 d w3 neg 0 d 0 w3 d w3 neg 0 d 0 w3 neg d w3 neg 0 d cl s } def
/m29 {mp gsave x w2 sub y w2 add w3 sub m currentpoint t 4 {side} repeat cl fill gr} def
/m30 {mp gsave x w2 sub y w2 add w3 sub m currentpoint t 4 {side} repeat cl s gr} def
/m31 {mp x y w2 sub m 0 w d x w2 sub y m w 0 d x w2 sub y w2 add m w w neg d x w2 sub y w2 sub m w w d s} def
/m32 {mp x y w2 sub m w2 w d w neg 0 d cl s} def
/m33 {mp x y w2 add m w3 neg w2 neg d w3 w2 neg d w3 w2 d cl f} def
/m34 {mp x w2 sub y w2 sub w3 add m w3 0 d  0 w3 neg d w3 0 d 0 w3 d w3 0 d  0 w3 d w3 neg 0 d 0 w3 d w3 neg 0 d 0 w3 neg d w3 neg 0 d cl f } def
/m2 {mp x y w2 sub m 0 w d x w2 sub y m w 0 d s} def
/m5 {mp x w2 sub y w2 sub m w w d x w2 sub y w2 add m w w neg d s} def
%%IncludeResource: ProcSet (FontSetInit)
%%IncludeResource: font Times-Roman
%%IncludeResource: font Times-Italic
%%IncludeResource: font Times-Bold
%%IncludeResource: font Times-BoldItalic
%%IncludeResource: font Helvetica
%%IncludeResource: font Helvetica-Oblique
%%IncludeResource: font Helvetica-Bold
%%IncludeResource: font Helvetica-BoldOblique
%%IncludeResource: font Courier
%%IncludeResource: font Courier-Oblique
%%IncludeResource: font Courier-Bold
%%IncludeResource: font Courier-BoldOblique
%%IncludeResource: font Symbol
%%IncludeResource: font ZapfDingbats
/reEncode {exch findfont dup length dict begin {1 index /FID eq  {pop pop} {def} ifelse } forall /Encoding exch def currentdict end dup /FontName get exch definefont pop } def [/Times-Bold /Times-Italic /Times-BoldItalic /Helvetica /Helvetica-Oblique
 /Helvetica-Bold /Helvetica-BoldOblique /Courier /Courier-Oblique /Courier-Bold /Courier-BoldOblique /Times-Roman /AvantGarde-Book /AvantGarde-BookOblique /AvantGarde-Demi /AvantGarde-DemiOblique /Bookman-Demi /Bookman-DemiItalic /Bookman-Light
 /Bookman-LightItalic /Helvetica-Narrow /Helvetica-Narrow-Bold /Helvetica-Narrow-BoldOblique /Helvetica-Narrow-Oblique /NewCenturySchlbk-Roman /NewCenturySchlbk-Bold /NewCenturySchlbk-BoldItalic /NewCenturySchlbk-Italic /Palatino-Bold
 /Palatino-BoldItalic /Palatino-Italic /Palatino-Roman ] {ISOLatin1Encoding reEncode } forall
%%EndProlog
%%BeginSetup
%%EndSetup
newpath  gsave  .25 .25 scale  gsave  0 0 t 0.48 0.56 0.6 c[  ] 0 sd 3 lw 1 1 1 c 2268 1176 0 0 bf 0.48 0.56 0.6 c 1 1 1 c 710 565 23 600 bf black 1 1 1 c 548 427 143 681 bf black 548 427 143 681 bl 1 1 1 c 548 427 143 681 bf black 548 427 143 681 bl
 0 0 0.933333 c 6 lw 0.49 0.6 0.82 c black 3 lw 0.49 0.6 0.82 c 143 681 m 137 X 2 Y 14 X 3 Y 14 X 8 Y 13 X 12 Y 14 X 6 Y 14 X 24 Y 13 X 29 Y 14 X 64 Y 14 X 17 Y 13 X 117 Y 14 X 33 Y 14 X 73 Y 13 X -43 Y 14 X -34 Y 14 X -92 Y 13 X -44 Y 14 X -52 Y 14
 X -40 Y 13 X -33 Y 14 X -23 Y 14 X -13 Y 13 X -9 Y 14 X -3 Y 14 X -1 Y 14 X -1 Y 82 X f 6 lw 0 0 0.933333 c 0.49 0.6 0.82 c 0 0 0.933333 c 143 681 m 137 X 2 Y 14 X 3 Y 14 X 8 Y 13 X 12 Y 14 X 6 Y 14 X 24 Y 13 X 29 Y 14 X 64 Y 14 X 17 Y 13 X 117 Y 14
 X 33 Y 14 X 73 Y 13 X -43 Y 14 X -34 Y 14 X -92 Y 13 X -44 Y 14 X -52 Y 14 X -40 Y 13 X -33 Y 14 X -23 Y 14 X -13 Y 13 X -9 Y 14 X -3 Y 14 X -1 Y 14 X -1 Y 82 X s black 3 lw 143 681 m 548 X s
 gsave  710 565 23 600 C 375.111 613.818 t 0 r /Helvetica findfont 28.5208 sf 0 0 m (log_C_FDCHI2_OWNPV) show NC gr  173 694 m -13 Y s 190 688 m -7 Y s 208 688 m -7 Y s 225 688 m -7 Y s 242 694 m -13 Y s 259 688 m -7 Y s 276 688 m -7 Y s 294 688 m -7
 Y s 311 694 m -13 Y s 328 688 m -7 Y s 345 688 m -7 Y s 363 688 m -7 Y s 380 694 m -13 Y s 397 688 m -7 Y s 414 688 m -7 Y s 431 688 m -7 Y s 449 694 m -13 Y s 466 688 m -7 Y s 483 688 m -7 Y s 500 688 m -7 Y s 517 694 m -13 Y s 535 688 m -7 Y s 552
 688 m -7 Y s 569 688 m -7 Y s 586 694 m -13 Y s 604 688 m -7 Y s 621 688 m -7 Y s 638 688 m -7 Y s 655 694 m -13 Y s 173 694 m -13 Y s 156 688 m -7 Y s 655 694 m -13 Y s 672 688 m -7 Y s 690 688 m -7 Y s
 gsave  710 565 23 600 C 167.663 653.603 t 0 r /Helvetica findfont 25.6688 sf 0 0 m (6) show NC gr 
 gsave  710 565 23 600 C 156.296 653.603 t 0 r /Symbol findfont 25.6688 sf 0 0 m (-) show NC gr 
 gsave  710 565 23 600 C 238.707 653.603 t 0 r /Helvetica findfont 25.6688 sf 0 0 m (4) show NC gr 
 gsave  710 565 23 600 C 227.34 653.603 t 0 r /Symbol findfont 25.6688 sf 0 0 m (-) show NC gr 
 gsave  710 565 23 600 C 306.909 653.603 t 0 r /Helvetica findfont 25.6688 sf 0 0 m (2) show NC gr 
 gsave  710 565 23 600 C 295.542 653.603 t 0 r /Symbol findfont 25.6688 sf 0 0 m (-) show NC gr 
 gsave  710 565 23 600 C 369.428 653.603 t 0 r /Helvetica findfont 25.6688 sf 0 0 m (0) show NC gr 
 gsave  710 565 23 600 C 437.63 653.603 t 0 r /Helvetica findfont 25.6688 sf 0 0 m (2) show NC gr 
 gsave  710 565 23 600 C 508.673 653.603 t 0 r /Helvetica findfont 25.6688 sf 0 0 m (4) show NC gr 
 gsave  710 565 23 600 C 576.875 653.603 t 0 r /Helvetica findfont 25.6688 sf 0 0 m (6) show NC gr 
 gsave  710 565 23 600 C 645.077 653.603 t 0 r /Helvetica findfont 25.6688 sf 0 0 m (8) show NC gr  143 1108 m 548 X s 173 1095 m 13 Y s 190 1102 m 6 Y s 208 1102 m 6 Y s 225 1102 m 6 Y s 242 1095 m 13 Y s 259 1102 m 6 Y s 276 1102 m 6 Y s 294 1102 m
 6 Y s 311 1095 m 13 Y s 328 1102 m 6 Y s 345 1102 m 6 Y s 363 1102 m 6 Y s 380 1095 m 13 Y s 397 1102 m 6 Y s 414 1102 m 6 Y s 431 1102 m 6 Y s 449 1095 m 13 Y s 466 1102 m 6 Y s 483 1102 m 6 Y s 500 1102 m 6 Y s 517 1095 m 13 Y s 535 1102 m 6 Y s
 552 1102 m 6 Y s 569 1102 m 6 Y s 586 1095 m 13 Y s 604 1102 m 6 Y s 621 1102 m 6 Y s 638 1102 m 6 Y s 655 1095 m 13 Y s 173 1095 m 13 Y s 156 1102 m 6 Y s 655 1095 m 13 Y s 672 1102 m 6 Y s 690 1102 m 6 Y s 143 681 m 427 Y s
 gsave  710 565 23 600 C 45.468 1028.71 t 90 r /Helvetica findfont 28.5208 sf 0 0 m (0.397 ) show NC gr 
 gsave  710 565 23 600 C 31.2593 1023.03 t 90 r /Helvetica findfont 19.9646 sf 0 0 m ( ) show NC gr 
 gsave  710 565 23 600 C 45.468 1011.66 t 90 r /Helvetica findfont 28.5208 sf 0 0 m (/) show NC gr 
 gsave  710 565 23 600 C 53.9933 1005.98 t 90 r /Helvetica findfont 19.9646 sf 0 0 m ( ) show NC gr 
 gsave  710 565 23 600 C 45.468 897.993 t 90 r /Helvetica findfont 28.5208 sf 0 0 m (\(1/N\) dN) show NC gr  160 681 m -17 X s 152 693 m -9 X s 152 704 m -9 X s 152 715 m -9 X s 152 727 m -9 X s 160 738 m -17 X s 152 749 m -9 X s 152 761 m -9 X s 152
 772 m -9 X s 152 784 m -9 X s 160 795 m -17 X s 152 806 m -9 X s 152 818 m -9 X s 152 829 m -9 X s 152 840 m -9 X s 160 852 m -17 X s 152 863 m -9 X s 152 874 m -9 X s 152 886 m -9 X s 152 897 m -9 X s 160 908 m -17 X s 152 920 m -9 X s 152 931 m -9
 X s 152 943 m -9 X s 152 954 m -9 X s 160 965 m -17 X s 152 977 m -9 X s 152 988 m -9 X s 152 999 m -9 X s 152 1011 m -9 X s 160 1022 m -17 X s 152 1033 m -9 X s 152 1045 m -9 X s 152 1056 m -9 X s 152 1067 m -9 X s 160 1079 m -17 X s 160 1079 m -17
 X s 152 1090 m -9 X s 152 1102 m -9 X s
 gsave  710 565 23 600 C 119.354 670.653 t 0 r /Helvetica findfont 25.6688 sf 0 0 m (0) show NC gr 
 gsave  710 565 23 600 C 82.4108 727.488 t 0 r /Helvetica findfont 25.6688 sf 0 0 m (0.05) show NC gr 
 gsave  710 565 23 600 C 102.303 784.323 t 0 r /Helvetica findfont 25.6688 sf 0 0 m (0.1) show NC gr 
 gsave  710 565 23 600 C 82.4108 841.158 t 0 r /Helvetica findfont 25.6688 sf 0 0 m (0.15) show NC gr 
 gsave  710 565 23 600 C 96.6195 897.993 t 0 r /Helvetica findfont 25.6688 sf 0 0 m (0.2) show NC gr 
 gsave  710 565 23 600 C 82.4108 954.828 t 0 r /Helvetica findfont 25.6688 sf 0 0 m (0.25) show NC gr 
 gsave  710 565 23 600 C 96.6195 1011.66 t 0 r /Helvetica findfont 25.6688 sf 0 0 m (0.3) show NC gr 
 gsave  710 565 23 600 C 82.4108 1068.5 t 0 r /Helvetica findfont 25.6688 sf 0 0 m (0.35) show NC gr  691 681 m 427 Y s 674 681 m 17 X s 683 693 m 8 X s 683 704 m 8 X s 683 715 m 8 X s 683 727 m 8 X s 674 738 m 17 X s 683 749 m 8 X s 683 761 m 8 X s
 683 772 m 8 X s 683 784 m 8 X s 674 795 m 17 X s 683 806 m 8 X s 683 818 m 8 X s 683 829 m 8 X s 683 840 m 8 X s 674 852 m 17 X s 683 863 m 8 X s 683 874 m 8 X s 683 886 m 8 X s 683 897 m 8 X s 674 908 m 17 X s 683 920 m 8 X s 683 931 m 8 X s 683
 943 m 8 X s 683 954 m 8 X s 674 965 m 17 X s 683 977 m 8 X s 683 988 m 8 X s 683 999 m 8 X s 683 1011 m 8 X s 674 1022 m 17 X s 683 1033 m 8 X s 683 1045 m 8 X s 683 1056 m 8 X s 683 1067 m 8 X s 674 1079 m 17 X s 674 1079 m 17 X s 683 1090 m 8 X s
 683 1102 m 8 X s 1 0 0 c 6 lw black 3 lw 1 0 0 c 676 682 m -1 Y s 662 682 m -1 -1 d s 648 684 m -2 -3 d s 634 685 m -3 -4 d s 622 688 m -6 -7 d s 609 689 m -8 -8 d s 595 691 m -9 -10 d s 584 695 m -13 -14 d s 574 700 m -18 -19 d s 562 703 m -21 -22
 d s 553 710 m -28 -29 d s 540 711 m -30 -30 d s 526 713 m -31 -32 d s 526 728 m -46 -47 d s 513 729 m -48 -48 d s 513 745 m -63 -64 d s 504 750 m -69 -69 d s 499 761 m -79 -80 d s 495 772 m -90 -91 d s 485 778 m -95 -97 d s 485 793 m -110 -112 d s
 485 808 m -125 -127 d s 475 813 m -130 -132 d s 472 825 m -143 -144 d s 472 840 m -158 -159 d s 472 855 m -137 -138 d s 330 712 m -9 -9 d s 317 699 m -18 -18 d s 466 864 m -117 -118 d s 340 738 m -5 -6 d s 289 686 m -5 -5 d s 458 872 m -96 -97 d s
 353 766 m -4 -5 d s 273 685 m -4 -4 d s 458 887 m -96 -97 d s 256 683 m -2 -2 d s 458 902 m -82 -83 d s 371 815 m -9 -9 d s 240 682 m -1 -1 d s 458 917 m -82 -83 d s 224 681 m s 458 932 m -82 -82 d s 209 681 m s 458 948 m -82 -83 d s 194 682 m -1 Y
 s 449 953 m -59 -59 d s 385 889 m -9 -9 d s 179 681 m cl s 444 964 m -54 -55 d s 164 681 m cl s 444 979 m -54 -55 d s 149 681 m s 444 995 m -54 -56 d s 444 1010 m -54 -55 d s 444 1025 m -41 -41 d s 395 975 m -5 -5 d s 432 1028 m -29 -29 d s 431 1041
 m -28 -27 d s 431 1057 m -14 -14 d s 408 1034 m -5 -5 d s 426 1067 m -9 -9 d s 6 lw 143 681 m 42 X 1 Y 13 X -1 Y 28 X 1 Y 27 X 1 Y 14 X 2 Y 13 X 1 Y 14 X 4 Y 14 X 9 Y 13 X 13 Y 14 X 26 Y 14 X 28 Y 13 X 49 Y 14 X 74 Y 14 X 86 Y 13 X 59 Y 14 X 33 Y 14
 X -39 Y 13 X -75 Y 14 X -89 Y 14 X -51 Y 13 X -41 Y 14 X -22 Y 14 X -21 Y 13 X -17 Y 14 X -2 Y 14 X -7 Y 13 X -3 Y 14 X -5 Y 14 X -5 Y 14 X -2 Y 13 X -3 Y 14 X -1 Y 14 X -2 Y 41 X s black 3 lw 143 681 m 548 X s 173 694 m -13 Y s 190 688 m -7 Y s 208
 688 m -7 Y s 225 688 m -7 Y s 242 694 m -13 Y s 259 688 m -7 Y s 276 688 m -7 Y s 294 688 m -7 Y s 311 694 m -13 Y s 328 688 m -7 Y s 345 688 m -7 Y s 363 688 m -7 Y s 380 694 m -13 Y s 397 688 m -7 Y s 414 688 m -7 Y s 431 688 m -7 Y s 449 694 m
 -13 Y s 466 688 m -7 Y s 483 688 m -7 Y s 500 688 m -7 Y s 517 694 m -13 Y s 535 688 m -7 Y s 552 688 m -7 Y s 569 688 m -7 Y s 586 694 m -13 Y s 604 688 m -7 Y s 621 688 m -7 Y s 638 688 m -7 Y s 655 694 m -13 Y s 173 694 m -13 Y s 156 688 m -7 Y s
 655 694 m -13 Y s 672 688 m -7 Y s 690 688 m -7 Y s 143 1108 m 548 X s 173 1095 m 13 Y s 190 1102 m 6 Y s 208 1102 m 6 Y s 225 1102 m 6 Y s 242 1095 m 13 Y s 259 1102 m 6 Y s 276 1102 m 6 Y s 294 1102 m 6 Y s 311 1095 m 13 Y s 328 1102 m 6 Y s 345
 1102 m 6 Y s 363 1102 m 6 Y s 380 1095 m 13 Y s 397 1102 m 6 Y s 414 1102 m 6 Y s 431 1102 m 6 Y s 449 1095 m 13 Y s 466 1102 m 6 Y s 483 1102 m 6 Y s 500 1102 m 6 Y s 517 1095 m 13 Y s 535 1102 m 6 Y s 552 1102 m 6 Y s 569 1102 m 6 Y s 586 1095 m
 13 Y s 604 1102 m 6 Y s 621 1102 m 6 Y s 638 1102 m 6 Y s 655 1095 m 13 Y s 173 1095 m 13 Y s 156 1102 m 6 Y s 655 1095 m 13 Y s 672 1102 m 6 Y s 690 1102 m 6 Y s 143 681 m 427 Y s 160 681 m -17 X s 152 693 m -9 X s 152 704 m -9 X s 152 715 m -9 X s
 152 727 m -9 X s 160 738 m -17 X s 152 749 m -9 X s 152 761 m -9 X s 152 772 m -9 X s 152 784 m -9 X s 160 795 m -17 X s 152 806 m -9 X s 152 818 m -9 X s 152 829 m -9 X s 152 840 m -9 X s 160 852 m -17 X s 152 863 m -9 X s 152 874 m -9 X s 152 886
 m -9 X s 152 897 m -9 X s 160 908 m -17 X s 152 920 m -9 X s 152 931 m -9 X s 152 943 m -9 X s 152 954 m -9 X s 160 965 m -17 X s 152 977 m -9 X s 152 988 m -9 X s 152 999 m -9 X s 152 1011 m -9 X s 160 1022 m -17 X s 152 1033 m -9 X s 152 1045 m -9
 X s 152 1056 m -9 X s 152 1067 m -9 X s 160 1079 m -17 X s 160 1079 m -17 X s 152 1090 m -9 X s 152 1102 m -9 X s 691 681 m 427 Y s 674 681 m 17 X s 683 693 m 8 X s 683 704 m 8 X s 683 715 m 8 X s 683 727 m 8 X s 674 738 m 17 X s 683 749 m 8 X s 683
 761 m 8 X s 683 772 m 8 X s 683 784 m 8 X s 674 795 m 17 X s 683 806 m 8 X s 683 818 m 8 X s 683 829 m 8 X s 683 840 m 8 X s 674 852 m 17 X s 683 863 m 8 X s 683 874 m 8 X s 683 886 m 8 X s 683 897 m 8 X s 674 908 m 17 X s 683 920 m 8 X s 683 931 m
 8 X s 683 943 m 8 X s 683 954 m 8 X s 674 965 m 17 X s 683 977 m 8 X s 683 988 m 8 X s 683 999 m 8 X s 683 1011 m 8 X s 674 1022 m 17 X s 683 1033 m 8 X s 683 1045 m 8 X s 683 1056 m 8 X s 683 1067 m 8 X s 674 1079 m 17 X s 674 1079 m 17 X s 683
 1090 m 8 X s 683 1102 m 8 X s
 gsave  710 565 23 600 C 719.017 679.067 t 90 r /Helvetica-Bold findfont 19.9646 sf 0 0 m (U/O\255flow \(S,B\): \(0.0, 0.0\)% / \(0.0, 0.0\)%) show NC gr  0.48 0.56 0.6 c 0.364706 0.419608 0.490196 c 497 38 30 1124 bf 0.48 0.56 0.6 c 30 1124 m 497 X
 s 527 1124 m 38 Y s 527 1162 m -497 X s 30 1162 m -38 Y s 1 1 1 c black 1 1 1 c
 gsave  710 565 23 600 C 39.7845 1136.7 t 0 r /Helvetica-Bold findfont 25.6688 sf 0 0 m (Input variable: log_C_FDCHI2_OWNPV) show NC gr  0.48 0.56 0.6 c 1 1 1 c 710 565 779 600 bf 0.48 0.56 0.6 c 1 1 1 c 711 565 1534 600 bf 0.48 0.56 0.6 c 1 1 1 c
 710 564 23 12 bf 0.48 0.56 0.6 c 1 1 1 c 710 564 779 12 bf 0.48 0.56 0.6 c 1 1 1 c 711 564 1534 12 bf
 gr  gr showpage
end
%%EOF
