%!PS-Adobe-2.0 EPSF-2.0
%%BoundingBox:  0 0 567 294
%%Title: plots/variables_id_c2.eps: Input variables (training sample)
%%Creator: ROOT Version 6.06/02
%%CreationDate: Wed Jun  6 20:41:34 2018
%%DocumentNeededResources: ProcSet (FontSetInit)
%%EndComments
%%BeginProlog
80 dict begin
/s {stroke} def /l {lineto} def /m {moveto} def /t {translate} def
/r {rotate} def /rl {roll}  def /R {repeat} def
/d {rlineto} def /rm {rmoveto} def /gr {grestore} def /f {eofill} def
/c {setrgbcolor} def /black {0 setgray} def /sd {setdash} def
/cl {closepath} def /sf {scalefont setfont} def /lw {setlinewidth} def
/box {m dup 0 exch d exch 0 d 0 exch neg d cl} def
/NC{systemdict begin initclip end}def/C{NC box clip newpath}def
/bl {box s} def /bf {gsave box gsave f grestore 1 lw [] 0 sd s grestore} def /Y { 0 exch d} def /X { 0 d} def 
/K {{pop pop 0 moveto} exch kshow} bind def
/ita {/ang 15 def gsave [1 0 ang dup sin exch cos div 1 0 0] concat} def 
/mp {newpath /y exch def /x exch def} def
/side {[w .77 mul w .23 mul] .385 w mul sd w 0 l currentpoint t -144 r} def
/mr {mp x y w2 0 360 arc} def /m24 {mr s} def /m20 {mr f} def
/mb {mp x y w2 add m w2 neg 0 d 0 w neg d w 0 d 0 w d cl} def
/mt {mp x y w2 add m w2 neg w neg d w 0 d cl} def
/m21 {mb f} def /m25 {mb s} def /m22 {mt f} def /m26{mt s} def
/m23 {mp x y w2 sub m w2 w d w neg 0 d cl f} def
/m27 {mp x y w2 add m w3 neg w2 neg d w3 w2 neg d w3 w2 d cl s} def
/m28 {mp x w2 sub y w2 sub w3 add m w3 0 d  0 w3 neg d w3 0 d 0 w3 d w3 0 d  0 w3 d w3 neg 0 d 0 w3 d w3 neg 0 d 0 w3 neg d w3 neg 0 d cl s } def
/m29 {mp gsave x w2 sub y w2 add w3 sub m currentpoint t 4 {side} repeat cl fill gr} def
/m30 {mp gsave x w2 sub y w2 add w3 sub m currentpoint t 4 {side} repeat cl s gr} def
/m31 {mp x y w2 sub m 0 w d x w2 sub y m w 0 d x w2 sub y w2 add m w w neg d x w2 sub y w2 sub m w w d s} def
/m32 {mp x y w2 sub m w2 w d w neg 0 d cl s} def
/m33 {mp x y w2 add m w3 neg w2 neg d w3 w2 neg d w3 w2 d cl f} def
/m34 {mp x w2 sub y w2 sub w3 add m w3 0 d  0 w3 neg d w3 0 d 0 w3 d w3 0 d  0 w3 d w3 neg 0 d 0 w3 d w3 neg 0 d 0 w3 neg d w3 neg 0 d cl f } def
/m2 {mp x y w2 sub m 0 w d x w2 sub y m w 0 d s} def
/m5 {mp x w2 sub y w2 sub m w w d x w2 sub y w2 add m w w neg d s} def
%%IncludeResource: ProcSet (FontSetInit)
%%IncludeResource: font Times-Roman
%%IncludeResource: font Times-Italic
%%IncludeResource: font Times-Bold
%%IncludeResource: font Times-BoldItalic
%%IncludeResource: font Helvetica
%%IncludeResource: font Helvetica-Oblique
%%IncludeResource: font Helvetica-Bold
%%IncludeResource: font Helvetica-BoldOblique
%%IncludeResource: font Courier
%%IncludeResource: font Courier-Oblique
%%IncludeResource: font Courier-Bold
%%IncludeResource: font Courier-BoldOblique
%%IncludeResource: font Symbol
%%IncludeResource: font ZapfDingbats
/reEncode {exch findfont dup length dict begin {1 index /FID eq  {pop pop} {def} ifelse } forall /Encoding exch def currentdict end dup /FontName get exch definefont pop } def [/Times-Bold /Times-Italic /Times-BoldItalic /Helvetica /Helvetica-Oblique
 /Helvetica-Bold /Helvetica-BoldOblique /Courier /Courier-Oblique /Courier-Bold /Courier-BoldOblique /Times-Roman /AvantGarde-Book /AvantGarde-BookOblique /AvantGarde-Demi /AvantGarde-DemiOblique /Bookman-Demi /Bookman-DemiItalic /Bookman-Light
 /Bookman-LightItalic /Helvetica-Narrow /Helvetica-Narrow-Bold /Helvetica-Narrow-BoldOblique /Helvetica-Narrow-Oblique /NewCenturySchlbk-Roman /NewCenturySchlbk-Bold /NewCenturySchlbk-BoldItalic /NewCenturySchlbk-Italic /Palatino-Bold
 /Palatino-BoldItalic /Palatino-Italic /Palatino-Roman ] {ISOLatin1Encoding reEncode } forall
%%EndProlog
%%BeginSetup
%%EndSetup
newpath  gsave  .25 .25 scale  gsave  0 0 t 0.48 0.56 0.6 c[  ] 0 sd 3 lw 1 1 1 c 2268 1176 0 0 bf 0.48 0.56 0.6 c 1 1 1 c 710 565 23 600 bf black 1 1 1 c 548 427 143 681 bf black 548 427 143 681 bl 1 1 1 c 548 427 143 681 bf black 548 427 143 681 bl
 0 0 0.933333 c 6 lw 0.49 0.6 0.82 c black 3 lw 0.49 0.6 0.82 c 143 681 m 124 X 2 Y 13 X -2 Y 14 X 1 Y 14 X -1 Y 13 X 4 Y 28 X 7 Y 13 X 6 Y 14 X 1 Y 14 X 11 Y 13 X -14 Y 14 X 38 Y 14 X 43 Y 13 X 2 Y 14 X 33 Y 14 X 61 Y 13 X 35 Y 14 X 44 Y 14 X 28 Y
 13 X 89 Y 14 X -10 Y 14 X 5 Y 13 X -93 Y 14 X -100 Y 14 X -93 Y 14 X -69 Y 13 X -21 Y 14 X -7 Y 55 X f 6 lw 0 0 0.933333 c 0.49 0.6 0.82 c 0 0 0.933333 c 143 681 m 124 X 2 Y 13 X -2 Y 14 X 1 Y 14 X -1 Y 13 X 4 Y 28 X 7 Y 13 X 6 Y 14 X 1 Y 14 X 11 Y
 13 X -14 Y 14 X 38 Y 14 X 43 Y 13 X 2 Y 14 X 33 Y 14 X 61 Y 13 X 35 Y 14 X 44 Y 14 X 28 Y 13 X 89 Y 14 X -10 Y 14 X 5 Y 13 X -93 Y 14 X -100 Y 14 X -93 Y 14 X -69 Y 13 X -21 Y 14 X -7 Y 55 X s black 3 lw 143 681 m 548 X s
 gsave  710 565 23 600 C 386.478 613.818 t 0 r /Helvetica findfont 28.5208 sf 0 0 m (log_C_IPCHI2_OWNPV) show NC gr  210 694 m -13 Y s 229 688 m -7 Y s 249 688 m -7 Y s 269 688 m -7 Y s 289 694 m -13 Y s 308 688 m -7 Y s 328 688 m -7 Y s 348 688 m -7
 Y s 368 694 m -13 Y s 388 688 m -7 Y s 407 688 m -7 Y s 427 688 m -7 Y s 447 694 m -13 Y s 467 688 m -7 Y s 487 688 m -7 Y s 506 688 m -7 Y s 526 694 m -13 Y s 546 688 m -7 Y s 566 688 m -7 Y s 585 688 m -7 Y s 605 694 m -13 Y s 625 688 m -7 Y s 645
 688 m -7 Y s 665 688 m -7 Y s 684 694 m -13 Y s 210 694 m -13 Y s 190 688 m -7 Y s 170 688 m -7 Y s 150 688 m -7 Y s 684 694 m -13 Y s
 gsave  710 565 23 600 C 204.606 653.603 t 0 r /Helvetica findfont 25.6688 sf 0 0 m (8) show NC gr 
 gsave  710 565 23 600 C 193.239 653.603 t 0 r /Symbol findfont 25.6688 sf 0 0 m (-) show NC gr 
 gsave  710 565 23 600 C 284.175 653.603 t 0 r /Helvetica findfont 25.6688 sf 0 0 m (6) show NC gr 
 gsave  710 565 23 600 C 272.808 653.603 t 0 r /Symbol findfont 25.6688 sf 0 0 m (-) show NC gr 
 gsave  710 565 23 600 C 363.744 653.603 t 0 r /Helvetica findfont 25.6688 sf 0 0 m (4) show NC gr 
 gsave  710 565 23 600 C 352.377 653.603 t 0 r /Symbol findfont 25.6688 sf 0 0 m (-) show NC gr 
 gsave  710 565 23 600 C 443.313 653.603 t 0 r /Helvetica findfont 25.6688 sf 0 0 m (2) show NC gr 
 gsave  710 565 23 600 C 431.946 653.603 t 0 r /Symbol findfont 25.6688 sf 0 0 m (-) show NC gr 
 gsave  710 565 23 600 C 517.198 653.603 t 0 r /Helvetica findfont 25.6688 sf 0 0 m (0) show NC gr 
 gsave  710 565 23 600 C 593.926 653.603 t 0 r /Helvetica findfont 25.6688 sf 0 0 m (2) show NC gr 
 gsave  710 565 23 600 C 673.495 653.603 t 0 r /Helvetica findfont 25.6688 sf 0 0 m (4) show NC gr  143 1108 m 548 X s 210 1095 m 13 Y s 229 1102 m 6 Y s 249 1102 m 6 Y s 269 1102 m 6 Y s 289 1095 m 13 Y s 308 1102 m 6 Y s 328 1102 m 6 Y s 348 1102 m
 6 Y s 368 1095 m 13 Y s 388 1102 m 6 Y s 407 1102 m 6 Y s 427 1102 m 6 Y s 447 1095 m 13 Y s 467 1102 m 6 Y s 487 1102 m 6 Y s 506 1102 m 6 Y s 526 1095 m 13 Y s 546 1102 m 6 Y s 566 1102 m 6 Y s 585 1102 m 6 Y s 605 1095 m 13 Y s 625 1102 m 6 Y s
 645 1102 m 6 Y s 665 1102 m 6 Y s 684 1095 m 13 Y s 210 1095 m 13 Y s 190 1102 m 6 Y s 170 1102 m 6 Y s 150 1102 m 6 Y s 684 1095 m 13 Y s 143 681 m 427 Y s
 gsave  710 565 23 600 C 45.468 1028.71 t 90 r /Helvetica findfont 28.5208 sf 0 0 m (0.346 ) show NC gr 
 gsave  710 565 23 600 C 31.2593 1023.03 t 90 r /Helvetica findfont 19.9646 sf 0 0 m ( ) show NC gr 
 gsave  710 565 23 600 C 45.468 1011.66 t 90 r /Helvetica findfont 28.5208 sf 0 0 m (/) show NC gr 
 gsave  710 565 23 600 C 53.9933 1005.98 t 90 r /Helvetica findfont 19.9646 sf 0 0 m ( ) show NC gr 
 gsave  710 565 23 600 C 45.468 897.993 t 90 r /Helvetica findfont 28.5208 sf 0 0 m (\(1/N\) dN) show NC gr  160 681 m -17 X s 152 692 m -9 X s 152 704 m -9 X s 152 715 m -9 X s 152 726 m -9 X s 160 737 m -17 X s 152 748 m -9 X s 152 759 m -9 X s 152
 770 m -9 X s 152 782 m -9 X s 160 793 m -17 X s 152 804 m -9 X s 152 815 m -9 X s 152 826 m -9 X s 152 837 m -9 X s 160 848 m -17 X s 152 860 m -9 X s 152 871 m -9 X s 152 882 m -9 X s 152 893 m -9 X s 160 904 m -17 X s 152 915 m -9 X s 152 926 m -9
 X s 152 937 m -9 X s 152 949 m -9 X s 160 960 m -17 X s 152 971 m -9 X s 152 982 m -9 X s 152 993 m -9 X s 152 1004 m -9 X s 160 1015 m -17 X s 152 1027 m -9 X s 152 1038 m -9 X s 152 1049 m -9 X s 152 1060 m -9 X s 160 1071 m -17 X s 160 1071 m -17
 X s 152 1082 m -9 X s 152 1093 m -9 X s 152 1105 m -9 X s
 gsave  710 565 23 600 C 119.354 670.653 t 0 r /Helvetica findfont 25.6688 sf 0 0 m (0) show NC gr 
 gsave  710 565 23 600 C 82.4108 727.488 t 0 r /Helvetica findfont 25.6688 sf 0 0 m (0.05) show NC gr 
 gsave  710 565 23 600 C 102.303 781.481 t 0 r /Helvetica findfont 25.6688 sf 0 0 m (0.1) show NC gr 
 gsave  710 565 23 600 C 82.4108 838.316 t 0 r /Helvetica findfont 25.6688 sf 0 0 m (0.15) show NC gr 
 gsave  710 565 23 600 C 96.6195 895.151 t 0 r /Helvetica findfont 25.6688 sf 0 0 m (0.2) show NC gr 
 gsave  710 565 23 600 C 82.4108 949.145 t 0 r /Helvetica findfont 25.6688 sf 0 0 m (0.25) show NC gr 
 gsave  710 565 23 600 C 96.6195 1005.98 t 0 r /Helvetica findfont 25.6688 sf 0 0 m (0.3) show NC gr 
 gsave  710 565 23 600 C 82.4108 1059.97 t 0 r /Helvetica findfont 25.6688 sf 0 0 m (0.35) show NC gr  691 681 m 427 Y s 674 681 m 17 X s 683 692 m 8 X s 683 704 m 8 X s 683 715 m 8 X s 683 726 m 8 X s 674 737 m 17 X s 683 748 m 8 X s 683 759 m 8 X s
 683 770 m 8 X s 683 782 m 8 X s 674 793 m 17 X s 683 804 m 8 X s 683 815 m 8 X s 683 826 m 8 X s 683 837 m 8 X s 674 848 m 17 X s 683 860 m 8 X s 683 871 m 8 X s 683 882 m 8 X s 683 893 m 8 X s 674 904 m 17 X s 683 915 m 8 X s 683 926 m 8 X s 683
 937 m 8 X s 683 949 m 8 X s 674 960 m 17 X s 683 971 m 8 X s 683 982 m 8 X s 683 993 m 8 X s 683 1004 m 8 X s 674 1015 m 17 X s 683 1027 m 8 X s 683 1038 m 8 X s 683 1049 m 8 X s 683 1060 m 8 X s 674 1071 m 17 X s 674 1071 m 17 X s 683 1082 m 8 X s
 683 1093 m 8 X s 683 1105 m 8 X s 1 0 0 c 6 lw black 3 lw 1 0 0 c 677 682 m -1 -1 d s 677 697 m -16 -16 d s 665 700 m -19 -19 d s 663 714 m -32 -33 d s 663 729 m -47 -48 d s 650 731 m -49 -50 d s 650 746 m -64 -65 d s 647 759 m -76 -78 d s 636 762 m
 -80 -81 d s 636 777 m -95 -96 d s 628 784 m -103 -103 d s 622 794 m -112 -113 d s 622 809 m -127 -128 d s 622 824 m -142 -143 d s 614 832 m -149 -151 d s 609 841 m -159 -160 d s 609 856 m -174 -175 d s 609 871 m -189 -190 d s 609 887 m -204 -206 d s
 605 898 m -147 -148 d s 448 740 m -4 -4 d s 434 726 m -3 -3 d s 421 712 m -4 -3 d s 410 702 m -20 -21 d s 595 903 m -123 -124 d s 459 766 m -1 -1 d s 386 693 m -11 -12 d s 595 918 m -110 -110 d s 473 795 m -1 -1 d s 368 690 m -8 -9 d s 595 933 m -96
 -96 d s 487 825 m -2 -2 d s 351 688 m -6 -7 d s 595 949 m -96 -97 d s 332 683 m -3 -2 d s 595 964 m -82 -83 d s 509 877 m -10 -10 d s 316 683 m -2 -2 d s 587 971 m -74 -75 d s 301 683 m -2 -2 d s 581 980 m -68 -68 d s 285 682 m -1 -1 d s 581 996 m
 -55 -55 d s 520 934 m -7 -7 d s 270 682 m -1 -1 d s 581 1011 m -55 -55 d s 255 682 m -1 -1 d s 571 1016 m -31 -31 d s 526 971 m s 240 682 m -1 -1 d s 567 1027 m -27 -27 d s 224 681 m s 555 1030 m -1 -1 d s 547 1022 m -7 -7 d s 209 682 m -1 Y s 194
 682 m -1 Y s 179 681 m cl s 164 681 m cl s 149 681 m s 6 lw 143 681 m 42 X 1 Y 27 X -1 Y 14 X 1 Y 68 X 1 Y 41 X 3 Y 14 X 2 Y 13 X 2 Y 14 X 3 Y 14 X 3 Y 13 X 6 Y 14 X 10 Y 14 X 14 Y 13 X 14 Y 14 X 26 Y 14 X 29 Y 13 X 30 Y 14 X 52 Y 14 X 57 Y 13 X 37
 Y 14 X 51 Y 14 X 8 Y 13 X -14 Y 14 X -45 Y 14 X -73 Y 14 X -66 Y 13 X -48 Y 14 X -25 Y 14 X -28 Y 13 X -31 Y 14 X -18 Y 14 X s black 3 lw 143 681 m 548 X s 210 694 m -13 Y s 229 688 m -7 Y s 249 688 m -7 Y s 269 688 m -7 Y s 289 694 m -13 Y s 308
 688 m -7 Y s 328 688 m -7 Y s 348 688 m -7 Y s 368 694 m -13 Y s 388 688 m -7 Y s 407 688 m -7 Y s 427 688 m -7 Y s 447 694 m -13 Y s 467 688 m -7 Y s 487 688 m -7 Y s 506 688 m -7 Y s 526 694 m -13 Y s 546 688 m -7 Y s 566 688 m -7 Y s 585 688 m -7
 Y s 605 694 m -13 Y s 625 688 m -7 Y s 645 688 m -7 Y s 665 688 m -7 Y s 684 694 m -13 Y s 210 694 m -13 Y s 190 688 m -7 Y s 170 688 m -7 Y s 150 688 m -7 Y s 684 694 m -13 Y s 143 1108 m 548 X s 210 1095 m 13 Y s 229 1102 m 6 Y s 249 1102 m 6 Y s
 269 1102 m 6 Y s 289 1095 m 13 Y s 308 1102 m 6 Y s 328 1102 m 6 Y s 348 1102 m 6 Y s 368 1095 m 13 Y s 388 1102 m 6 Y s 407 1102 m 6 Y s 427 1102 m 6 Y s 447 1095 m 13 Y s 467 1102 m 6 Y s 487 1102 m 6 Y s 506 1102 m 6 Y s 526 1095 m 13 Y s 546
 1102 m 6 Y s 566 1102 m 6 Y s 585 1102 m 6 Y s 605 1095 m 13 Y s 625 1102 m 6 Y s 645 1102 m 6 Y s 665 1102 m 6 Y s 684 1095 m 13 Y s 210 1095 m 13 Y s 190 1102 m 6 Y s 170 1102 m 6 Y s 150 1102 m 6 Y s 684 1095 m 13 Y s 143 681 m 427 Y s 160 681 m
 -17 X s 152 692 m -9 X s 152 704 m -9 X s 152 715 m -9 X s 152 726 m -9 X s 160 737 m -17 X s 152 748 m -9 X s 152 759 m -9 X s 152 770 m -9 X s 152 782 m -9 X s 160 793 m -17 X s 152 804 m -9 X s 152 815 m -9 X s 152 826 m -9 X s 152 837 m -9 X s
 160 848 m -17 X s 152 860 m -9 X s 152 871 m -9 X s 152 882 m -9 X s 152 893 m -9 X s 160 904 m -17 X s 152 915 m -9 X s 152 926 m -9 X s 152 937 m -9 X s 152 949 m -9 X s 160 960 m -17 X s 152 971 m -9 X s 152 982 m -9 X s 152 993 m -9 X s 152 1004
 m -9 X s 160 1015 m -17 X s 152 1027 m -9 X s 152 1038 m -9 X s 152 1049 m -9 X s 152 1060 m -9 X s 160 1071 m -17 X s 160 1071 m -17 X s 152 1082 m -9 X s 152 1093 m -9 X s 152 1105 m -9 X s 691 681 m 427 Y s 674 681 m 17 X s 683 692 m 8 X s 683
 704 m 8 X s 683 715 m 8 X s 683 726 m 8 X s 674 737 m 17 X s 683 748 m 8 X s 683 759 m 8 X s 683 770 m 8 X s 683 782 m 8 X s 674 793 m 17 X s 683 804 m 8 X s 683 815 m 8 X s 683 826 m 8 X s 683 837 m 8 X s 674 848 m 17 X s 683 860 m 8 X s 683 871 m
 8 X s 683 882 m 8 X s 683 893 m 8 X s 674 904 m 17 X s 683 915 m 8 X s 683 926 m 8 X s 683 937 m 8 X s 683 949 m 8 X s 674 960 m 17 X s 683 971 m 8 X s 683 982 m 8 X s 683 993 m 8 X s 683 1004 m 8 X s 674 1015 m 17 X s 683 1027 m 8 X s 683 1038 m 8
 X s 683 1049 m 8 X s 683 1060 m 8 X s 674 1071 m 17 X s 674 1071 m 17 X s 683 1082 m 8 X s 683 1093 m 8 X s 683 1105 m 8 X s
 gsave  710 565 23 600 C 719.017 679.067 t 90 r /Helvetica-Bold findfont 19.9646 sf 0 0 m (U/O\255flow \(S,B\): \(0.0, 0.0\)% / \(0.0, 0.0\)%) show NC gr  0.48 0.56 0.6 c 0.364706 0.419608 0.490196 c 497 38 30 1124 bf 0.48 0.56 0.6 c 30 1124 m 497 X
 s 527 1124 m 38 Y s 527 1162 m -497 X s 30 1162 m -38 Y s 1 1 1 c black 1 1 1 c
 gsave  710 565 23 600 C 45.468 1136.7 t 0 r /Helvetica-Bold findfont 25.6688 sf 0 0 m (Input variable: log_C_IPCHI2_OWNPV) show NC gr  0.48 0.56 0.6 c 1 1 1 c 710 565 779 600 bf black 1 1 1 c 548 427 899 681 bf black 548 427 899 681 bl 1 1 1 c 548
 427 899 681 bf black 548 427 899 681 bl 0 0 0.933333 c 6 lw 0.49 0.6 0.82 c black 3 lw 0.49 0.6 0.82 c 899 681 m 388 Y 14 X -335 Y 14 X -34 Y 13 X -11 Y 14 X 1 Y 14 X -5 Y 13 X -2 Y 14 X -1 Y 14 X 3 Y 13 X -2 Y 14 X -2 Y 14 X 2 Y 41 X -1 Y 27 X -1 Y
 28 X 1 Y 13 X -1 Y 69 X 1 Y 13 X -1 Y 151 X 1 Y 13 X -1 Y 42 X f 6 lw 0 0 0.933333 c 0.49 0.6 0.82 c 0 0 0.933333 c 899 1069 m 14 X -335 Y 14 X -34 Y 13 X -11 Y 14 X 1 Y 14 X -5 Y 13 X -2 Y 14 X -1 Y 14 X 3 Y 13 X -2 Y 14 X -2 Y 14 X 2 Y 41 X -1 Y
 27 X -1 Y 28 X 1 Y 13 X -1 Y 69 X 1 Y 13 X -1 Y 151 X 1 Y 13 X -1 Y 42 X s black 3 lw 899 681 m 548 X s
 gsave  710 565 779 600 C 1139.54 613.818 t 0 r /Helvetica findfont 28.5208 sf 0 0 m (acos\(C_DIRA_OWNPV\)) show NC gr  977 694 m -13 Y s 997 688 m -7 Y s 1016 688 m -7 Y s 1036 688 m -7 Y s 1055 694 m -13 Y s 1075 688 m -7 Y s 1094 688 m -7 Y s 1114
 688 m -7 Y s 1133 694 m -13 Y s 1153 688 m -7 Y s 1172 688 m -7 Y s 1192 688 m -7 Y s 1211 694 m -13 Y s 1231 688 m -7 Y s 1250 688 m -7 Y s 1270 688 m -7 Y s 1289 694 m -13 Y s 1309 688 m -7 Y s 1328 688 m -7 Y s 1348 688 m -7 Y s 1367 694 m -13 Y
 s 1387 688 m -7 Y s 1406 688 m -7 Y s 1426 688 m -7 Y s 1445 694 m -13 Y s 977 694 m -13 Y s 958 688 m -7 Y s 938 688 m -7 Y s 919 688 m -7 Y s 1445 694 m -13 Y s
 gsave  710 565 779 600 C 954.828 653.603 t 0 r /Helvetica findfont 25.6688 sf 0 0 m (0.2) show NC gr 
 gsave  710 565 779 600 C 1034.4 653.603 t 0 r /Helvetica findfont 25.6688 sf 0 0 m (0.4) show NC gr 
 gsave  710 565 779 600 C 1111.12 653.603 t 0 r /Helvetica findfont 25.6688 sf 0 0 m (0.6) show NC gr 
 gsave  710 565 779 600 C 1190.69 653.603 t 0 r /Helvetica findfont 25.6688 sf 0 0 m (0.8) show NC gr 
 gsave  710 565 779 600 C 1281.63 653.603 t 0 r /Helvetica findfont 25.6688 sf 0 0 m (1) show NC gr 
 gsave  710 565 779 600 C 1346.99 653.603 t 0 r /Helvetica findfont 25.6688 sf 0 0 m (1.2) show NC gr 
 gsave  710 565 779 600 C 1423.72 653.603 t 0 r /Helvetica findfont 25.6688 sf 0 0 m (1.4) show NC gr  899 1108 m 548 X s 977 1095 m 13 Y s 997 1102 m 6 Y s 1016 1102 m 6 Y s 1036 1102 m 6 Y s 1055 1095 m 13 Y s 1075 1102 m 6 Y s 1094 1102 m 6 Y s
 1114 1102 m 6 Y s 1133 1095 m 13 Y s 1153 1102 m 6 Y s 1172 1102 m 6 Y s 1192 1102 m 6 Y s 1211 1095 m 13 Y s 1231 1102 m 6 Y s 1250 1102 m 6 Y s 1270 1102 m 6 Y s 1289 1095 m 13 Y s 1309 1102 m 6 Y s 1328 1102 m 6 Y s 1348 1102 m 6 Y s 1367 1095 m
 13 Y s 1387 1102 m 6 Y s 1406 1102 m 6 Y s 1426 1102 m 6 Y s 1445 1095 m 13 Y s 977 1095 m 13 Y s 958 1102 m 6 Y s 938 1102 m 6 Y s 919 1102 m 6 Y s 1445 1095 m 13 Y s 899 681 m 427 Y s
 gsave  710 565 779 600 C 801.374 1017.35 t 90 r /Helvetica findfont 28.5208 sf 0 0 m (0.0351 ) show NC gr 
 gsave  710 565 779 600 C 787.165 1011.66 t 90 r /Helvetica findfont 19.9646 sf 0 0 m ( ) show NC gr 
 gsave  710 565 779 600 C 801.374 1000.3 t 90 r /Helvetica findfont 28.5208 sf 0 0 m (/) show NC gr 
 gsave  710 565 779 600 C 809.899 994.613 t 90 r /Helvetica findfont 19.9646 sf 0 0 m ( ) show NC gr 
 gsave  710 565 779 600 C 801.374 886.626 t 90 r /Helvetica findfont 28.5208 sf 0 0 m (\(1/N\) dN) show NC gr  915 681 m -16 X s 907 690 m -8 X s 907 699 m -8 X s 907 707 m -8 X s 915 716 m -16 X s 907 725 m -8 X s 907 733 m -8 X s 907 742 m -8 X s
 915 751 m -16 X s 907 759 m -8 X s 907 768 m -8 X s 907 777 m -8 X s 915 785 m -16 X s 907 794 m -8 X s 907 803 m -8 X s 907 811 m -8 X s 915 820 m -16 X s 907 829 m -8 X s 907 837 m -8 X s 907 846 m -8 X s 915 855 m -16 X s 907 863 m -8 X s 907 872
 m -8 X s 907 881 m -8 X s 915 890 m -16 X s 907 898 m -8 X s 907 907 m -8 X s 907 916 m -8 X s 915 924 m -16 X s 907 933 m -8 X s 907 942 m -8 X s 907 950 m -8 X s 915 959 m -16 X s 907 968 m -8 X s 907 976 m -8 X s 907 985 m -8 X s 915 994 m -16 X
 s 907 1002 m -8 X s 907 1011 m -8 X s 907 1020 m -8 X s 915 1028 m -16 X s 907 1037 m -8 X s 907 1046 m -8 X s 907 1054 m -8 X s 915 1063 m -16 X s 907 1072 m -8 X s 907 1080 m -8 X s 907 1089 m -8 X s 915 1098 m -16 X s 915 1098 m -16 X s 907 1106
 m -8 X s
 gsave  710 565 779 600 C 875.259 670.653 t 0 r /Helvetica findfont 25.6688 sf 0 0 m (0) show NC gr 
 gsave  710 565 779 600 C 875.259 704.754 t 0 r /Helvetica findfont 25.6688 sf 0 0 m (2) show NC gr 
 gsave  710 565 779 600 C 875.259 741.697 t 0 r /Helvetica findfont 25.6688 sf 0 0 m (4) show NC gr 
 gsave  710 565 779 600 C 875.259 775.798 t 0 r /Helvetica findfont 25.6688 sf 0 0 m (6) show NC gr 
 gsave  710 565 779 600 C 875.259 809.899 t 0 r /Helvetica findfont 25.6688 sf 0 0 m (8) show NC gr 
 gsave  710 565 779 600 C 861.05 844 t 0 r /Helvetica findfont 25.6688 sf 0 0 m (10) show NC gr 
 gsave  710 565 779 600 C 861.05 880.943 t 0 r /Helvetica findfont 25.6688 sf 0 0 m (12) show NC gr 
 gsave  710 565 779 600 C 861.05 915.044 t 0 r /Helvetica findfont 25.6688 sf 0 0 m (14) show NC gr 
 gsave  710 565 779 600 C 861.05 949.145 t 0 r /Helvetica findfont 25.6688 sf 0 0 m (16) show NC gr 
 gsave  710 565 779 600 C 861.05 983.246 t 0 r /Helvetica findfont 25.6688 sf 0 0 m (18) show NC gr 
 gsave  710 565 779 600 C 861.05 1017.35 t 0 r /Helvetica findfont 25.6688 sf 0 0 m (20) show NC gr 
 gsave  710 565 779 600 C 861.05 1054.29 t 0 r /Helvetica findfont 25.6688 sf 0 0 m (22) show NC gr 
 gsave  710 565 779 600 C 861.05 1088.39 t 0 r /Helvetica findfont 25.6688 sf 0 0 m (24) show NC gr  1447 681 m 427 Y s 1430 681 m 17 X s 1438 690 m 9 X s 1438 699 m 9 X s 1438 707 m 9 X s 1430 716 m 17 X s 1438 725 m 9 X s 1438 733 m 9 X s 1438 742
 m 9 X s 1430 751 m 17 X s 1438 759 m 9 X s 1438 768 m 9 X s 1438 777 m 9 X s 1430 785 m 17 X s 1438 794 m 9 X s 1438 803 m 9 X s 1438 811 m 9 X s 1430 820 m 17 X s 1438 829 m 9 X s 1438 837 m 9 X s 1438 846 m 9 X s 1430 855 m 17 X s 1438 863 m 9 X s
 1438 872 m 9 X s 1438 881 m 9 X s 1430 890 m 17 X s 1438 898 m 9 X s 1438 907 m 9 X s 1438 916 m 9 X s 1430 924 m 17 X s 1438 933 m 9 X s 1438 942 m 9 X s 1438 950 m 9 X s 1430 959 m 17 X s 1438 968 m 9 X s 1438 976 m 9 X s 1438 985 m 9 X s 1430 994
 m 17 X s 1438 1002 m 9 X s 1438 1011 m 9 X s 1438 1020 m 9 X s 1430 1028 m 17 X s 1438 1037 m 9 X s 1438 1046 m 9 X s 1438 1054 m 9 X s 1430 1063 m 17 X s 1438 1072 m 9 X s 1438 1080 m 9 X s 1438 1089 m 9 X s 1430 1098 m 17 X s 1430 1098 m 17 X s
 1438 1106 m 9 X s 1 0 0 c 6 lw black 3 lw 1 0 0 c 1432 682 m -1 Y s 1417 682 m -1 Y s 1402 682 m -1 Y s 1387 682 m -1 Y s 1372 682 m -1 Y s 1357 682 m -1 Y s 1342 682 m -1 Y s 1327 682 m -1 Y s 1312 682 m -1 -1 d s 1297 682 m -1 -1 d s 1282 682 m -1
 -1 d s 1267 682 m -1 -1 d s 1252 682 m -1 -1 d s 1237 682 m -1 -1 d s 1222 682 m -1 -1 d s 1207 682 m -1 -1 d s 1192 682 m -1 -1 d s 1177 682 m -1 -1 d s 1162 682 m -1 -1 d s 1147 682 m -1 -1 d s 1132 682 m -1 -1 d s 1117 683 m -1 -2 d s 1102 683 m
 -2 -2 d s 1087 683 m -2 -2 d s 1072 683 m -2 -2 d s 1058 684 m -3 -3 d s 1043 684 m -3 -3 d s 1029 685 m -4 -4 d s 1015 686 m -5 -5 d s 1000 686 m -5 -5 d s 987 688 m -7 -7 d s 975 691 m -10 -10 d s 964 696 m -14 -15 d s 954 701 m -19 -20 d s 943
 705 m -23 -24 d s 940 717 m -35 -36 d s 931 723 m -32 -32 d s 927 734 m -28 -27 d s 927 749 m -28 -27 d s 927 764 m -28 -27 d s 925 778 m -26 -26 d s 913 781 m -14 -14 d s 913 796 m -14 -14 d s 913 811 m -14 -13 d s 913 827 m -14 -14 d s 913 842 m
 -14 -14 d s 913 857 m -14 -14 d s 913 872 m -14 -14 d s 913 887 m -14 -13 d s 913 903 m -14 -14 d s 913 918 m -14 -14 d s 913 933 m -14 -14 d s 908 943 m -9 -9 d s 6 lw 899 943 m 14 X -165 Y 14 X -55 Y 13 X -18 Y 14 X -9 Y 14 X -5 Y 13 X -3 Y 14 X
 -2 Y 27 X -1 Y 14 X -1 Y 28 X -1 Y 54 X -1 Y 329 X s black 3 lw 899 681 m 548 X s 977 694 m -13 Y s 997 688 m -7 Y s 1016 688 m -7 Y s 1036 688 m -7 Y s 1055 694 m -13 Y s 1075 688 m -7 Y s 1094 688 m -7 Y s 1114 688 m -7 Y s 1133 694 m -13 Y s 1153
 688 m -7 Y s 1172 688 m -7 Y s 1192 688 m -7 Y s 1211 694 m -13 Y s 1231 688 m -7 Y s 1250 688 m -7 Y s 1270 688 m -7 Y s 1289 694 m -13 Y s 1309 688 m -7 Y s 1328 688 m -7 Y s 1348 688 m -7 Y s 1367 694 m -13 Y s 1387 688 m -7 Y s 1406 688 m -7 Y s
 1426 688 m -7 Y s 1445 694 m -13 Y s 977 694 m -13 Y s 958 688 m -7 Y s 938 688 m -7 Y s 919 688 m -7 Y s 1445 694 m -13 Y s 899 1108 m 548 X s 977 1095 m 13 Y s 997 1102 m 6 Y s 1016 1102 m 6 Y s 1036 1102 m 6 Y s 1055 1095 m 13 Y s 1075 1102 m 6 Y
 s 1094 1102 m 6 Y s 1114 1102 m 6 Y s 1133 1095 m 13 Y s 1153 1102 m 6 Y s 1172 1102 m 6 Y s 1192 1102 m 6 Y s 1211 1095 m 13 Y s 1231 1102 m 6 Y s 1250 1102 m 6 Y s 1270 1102 m 6 Y s 1289 1095 m 13 Y s 1309 1102 m 6 Y s 1328 1102 m 6 Y s 1348 1102
 m 6 Y s 1367 1095 m 13 Y s 1387 1102 m 6 Y s 1406 1102 m 6 Y s 1426 1102 m 6 Y s 1445 1095 m 13 Y s 977 1095 m 13 Y s 958 1102 m 6 Y s 938 1102 m 6 Y s 919 1102 m 6 Y s 1445 1095 m 13 Y s 899 681 m 427 Y s 915 681 m -16 X s 907 690 m -8 X s 907 699
 m -8 X s 907 707 m -8 X s 915 716 m -16 X s 907 725 m -8 X s 907 733 m -8 X s 907 742 m -8 X s 915 751 m -16 X s 907 759 m -8 X s 907 768 m -8 X s 907 777 m -8 X s 915 785 m -16 X s 907 794 m -8 X s 907 803 m -8 X s 907 811 m -8 X s 915 820 m -16 X
 s 907 829 m -8 X s 907 837 m -8 X s 907 846 m -8 X s 915 855 m -16 X s 907 863 m -8 X s 907 872 m -8 X s 907 881 m -8 X s 915 890 m -16 X s 907 898 m -8 X s 907 907 m -8 X s 907 916 m -8 X s 915 924 m -16 X s 907 933 m -8 X s 907 942 m -8 X s 907
 950 m -8 X s 915 959 m -16 X s 907 968 m -8 X s 907 976 m -8 X s 907 985 m -8 X s 915 994 m -16 X s 907 1002 m -8 X s 907 1011 m -8 X s 907 1020 m -8 X s 915 1028 m -16 X s 907 1037 m -8 X s 907 1046 m -8 X s 907 1054 m -8 X s 915 1063 m -16 X s 907
 1072 m -8 X s 907 1080 m -8 X s 907 1089 m -8 X s 915 1098 m -16 X s 915 1098 m -16 X s 907 1106 m -8 X s 1447 681 m 427 Y s 1430 681 m 17 X s 1438 690 m 9 X s 1438 699 m 9 X s 1438 707 m 9 X s 1430 716 m 17 X s 1438 725 m 9 X s 1438 733 m 9 X s
 1438 742 m 9 X s 1430 751 m 17 X s 1438 759 m 9 X s 1438 768 m 9 X s 1438 777 m 9 X s 1430 785 m 17 X s 1438 794 m 9 X s 1438 803 m 9 X s 1438 811 m 9 X s 1430 820 m 17 X s 1438 829 m 9 X s 1438 837 m 9 X s 1438 846 m 9 X s 1430 855 m 17 X s 1438
 863 m 9 X s 1438 872 m 9 X s 1438 881 m 9 X s 1430 890 m 17 X s 1438 898 m 9 X s 1438 907 m 9 X s 1438 916 m 9 X s 1430 924 m 17 X s 1438 933 m 9 X s 1438 942 m 9 X s 1438 950 m 9 X s 1430 959 m 17 X s 1438 968 m 9 X s 1438 976 m 9 X s 1438 985 m 9
 X s 1430 994 m 17 X s 1438 1002 m 9 X s 1438 1011 m 9 X s 1438 1020 m 9 X s 1430 1028 m 17 X s 1438 1037 m 9 X s 1438 1046 m 9 X s 1438 1054 m 9 X s 1430 1063 m 17 X s 1438 1072 m 9 X s 1438 1080 m 9 X s 1438 1089 m 9 X s 1430 1098 m 17 X s 1430
 1098 m 17 X s 1438 1106 m 9 X s
 gsave  710 565 779 600 C 1474.92 679.067 t 90 r /Helvetica-Bold findfont 19.9646 sf 0 0 m (U/O\255flow \(S,B\): \(0.0, 0.0\)% / \(0.2, 0.4\)%) show NC gr  0.48 0.56 0.6 c 0.364706 0.419608 0.490196 c 497 38 786 1124 bf 0.48 0.56 0.6 c 786 1124 m 497
 X s 1283 1124 m 38 Y s 1283 1162 m -497 X s 786 1162 m -38 Y s 1 1 1 c black 1 1 1 c
 gsave  710 565 779 600 C 798.532 1136.7 t 0 r /Helvetica-Bold findfont 25.6688 sf 0 0 m (Input variable: acos\(C_DIRA_OWNPV\)) show NC gr  0.48 0.56 0.6 c 1 1 1 c 711 565 1534 600 bf black 1 1 1 c 547 427 1655 681 bf black 547 427 1655 681 bl 1 1 1
 c 547 427 1655 681 bf black 547 427 1655 681 bl 0 0 0.933333 c 6 lw 0.49 0.6 0.82 c black 3 lw 0.49 0.6 0.82 c 1655 681 m 65 Y 14 X 162 Y 14 X 81 Y 13 X 15 Y 14 X 65 Y 14 X -51 Y 13 X 25 Y 14 X -9 Y 14 X -63 Y 13 X -39 Y 14 X -48 Y 14 X 12 Y 13 X
 -69 Y 14 X 53 Y 14 X -51 Y 13 X -9 Y 14 X -8 Y 14 X -32 Y 13 X 16 Y 28 X -19 Y 14 X 3 Y 13 X -38 Y 14 X 11 Y 14 X -42 Y 13 X -30 Y 205 X f 6 lw 0 0 0.933333 c 0.49 0.6 0.82 c 0 0 0.933333 c 1655 746 m 14 X 162 Y 14 X 81 Y 13 X 15 Y 14 X 65 Y 14 X
 -51 Y 13 X 25 Y 14 X -9 Y 14 X -63 Y 13 X -39 Y 14 X -48 Y 14 X 12 Y 13 X -69 Y 14 X 53 Y 14 X -51 Y 13 X -9 Y 14 X -8 Y 14 X -32 Y 13 X 16 Y 28 X -19 Y 14 X 3 Y 13 X -38 Y 14 X 11 Y 14 X -42 Y 13 X -30 Y 205 X s black 3 lw 1655 681 m 547 X s
 gsave  711 565 1534 600 C 1889.76 610.976 t 0 r /Helvetica findfont 28.5208 sf 0 0 m (acos_Lc_DIRA_OWNPV) show NC gr  1722 694 m -13 Y s 1739 688 m -7 Y s 1755 688 m -7 Y s 1772 688 m -7 Y s 1789 694 m -13 Y s 1806 688 m -7 Y s 1822 688 m -7 Y s
 1839 688 m -7 Y s 1856 694 m -13 Y s 1873 688 m -7 Y s 1890 688 m -7 Y s 1906 688 m -7 Y s 1923 694 m -13 Y s 1940 688 m -7 Y s 1957 688 m -7 Y s 1974 688 m -7 Y s 1990 694 m -13 Y s 2007 688 m -7 Y s 2024 688 m -7 Y s 2041 688 m -7 Y s 2058 694 m
 -13 Y s 2074 688 m -7 Y s 2091 688 m -7 Y s 2108 688 m -7 Y s 2125 694 m -13 Y s 2141 688 m -7 Y s 2158 688 m -7 Y s 2175 688 m -7 Y s 2192 694 m -13 Y s 1722 694 m -13 Y s 1705 688 m -7 Y s 1688 688 m -7 Y s 1671 688 m -7 Y s 2192 694 m -13 Y s
 gsave  711 565 1534 600 C 1685.16 653.603 t 0 r /Helvetica findfont 25.6688 sf 0 0 m (0.002) show NC gr 
 gsave  711 565 1534 600 C 1753.36 653.603 t 0 r /Helvetica findfont 25.6688 sf 0 0 m (0.004) show NC gr 
 gsave  711 565 1534 600 C 1821.56 653.603 t 0 r /Helvetica findfont 25.6688 sf 0 0 m (0.006) show NC gr 
 gsave  711 565 1534 600 C 1886.92 653.603 t 0 r /Helvetica findfont 25.6688 sf 0 0 m (0.008) show NC gr 
 gsave  711 565 1534 600 C 1966.49 653.603 t 0 r /Helvetica findfont 25.6688 sf 0 0 m (0.01) show NC gr 
 gsave  711 565 1534 600 C 2023.33 653.603 t 0 r /Helvetica findfont 25.6688 sf 0 0 m (0.012) show NC gr 
 gsave  711 565 1534 600 C 2088.69 653.603 t 0 r /Helvetica findfont 25.6688 sf 0 0 m (0.014) show NC gr 
 gsave  711 565 1534 600 C 2156.89 653.603 t 0 r /Helvetica findfont 25.6688 sf 0 0 m (0.016) show NC gr  1655 1108 m 547 X s 1722 1095 m 13 Y s 1739 1102 m 6 Y s 1755 1102 m 6 Y s 1772 1102 m 6 Y s 1789 1095 m 13 Y s 1806 1102 m 6 Y s 1822 1102 m 6
 Y s 1839 1102 m 6 Y s 1856 1095 m 13 Y s 1873 1102 m 6 Y s 1890 1102 m 6 Y s 1906 1102 m 6 Y s 1923 1095 m 13 Y s 1940 1102 m 6 Y s 1957 1102 m 6 Y s 1974 1102 m 6 Y s 1990 1095 m 13 Y s 2007 1102 m 6 Y s 2024 1102 m 6 Y s 2041 1102 m 6 Y s 2058
 1095 m 13 Y s 2074 1102 m 6 Y s 2091 1102 m 6 Y s 2108 1102 m 6 Y s 2125 1095 m 13 Y s 2141 1102 m 6 Y s 2158 1102 m 6 Y s 2175 1102 m 6 Y s 2192 1095 m 13 Y s 1722 1095 m 13 Y s 1705 1102 m 6 Y s 1688 1102 m 6 Y s 1671 1102 m 6 Y s 2192 1095 m 13 Y
 s 1655 681 m 427 Y s
 gsave  711 565 1534 600 C 1557.28 980.404 t 90 r /Helvetica findfont 28.5208 sf 0 0 m (0.000407 ) show NC gr 
 gsave  711 565 1534 600 C 1543.07 974.72 t 90 r /Helvetica findfont 19.9646 sf 0 0 m ( ) show NC gr 
 gsave  711 565 1534 600 C 1557.28 963.353 t 90 r /Helvetica findfont 28.5208 sf 0 0 m (/) show NC gr 
 gsave  711 565 1534 600 C 1565.8 957.67 t 90 r /Helvetica findfont 19.9646 sf 0 0 m ( ) show NC gr 
 gsave  711 565 1534 600 C 1557.28 849.683 t 90 r /Helvetica findfont 28.5208 sf 0 0 m (\(1/N\) dN) show NC gr  1671 681 m -16 X s 1663 691 m -8 X s 1663 701 m -8 X s 1663 710 m -8 X s 1671 720 m -16 X s 1663 730 m -8 X s 1663 740 m -8 X s 1663 749 m
 -8 X s 1671 759 m -16 X s 1663 769 m -8 X s 1663 778 m -8 X s 1663 788 m -8 X s 1671 798 m -16 X s 1663 807 m -8 X s 1663 817 m -8 X s 1663 827 m -8 X s 1671 837 m -16 X s 1663 846 m -8 X s 1663 856 m -8 X s 1663 866 m -8 X s 1671 875 m -16 X s 1663
 885 m -8 X s 1663 895 m -8 X s 1663 904 m -8 X s 1671 914 m -16 X s 1663 924 m -8 X s 1663 934 m -8 X s 1663 943 m -8 X s 1671 953 m -16 X s 1663 963 m -8 X s 1663 972 m -8 X s 1663 982 m -8 X s 1671 992 m -16 X s 1663 1001 m -8 X s 1663 1011 m -8 X
 s 1663 1021 m -8 X s 1671 1031 m -16 X s 1663 1040 m -8 X s 1663 1050 m -8 X s 1663 1060 m -8 X s 1671 1069 m -16 X s 1663 1079 m -8 X s 1663 1089 m -8 X s 1663 1098 m -8 X s 1671 1108 m -16 X s 1671 1108 m -16 X s
 gsave  711 565 1534 600 C 1631.16 670.653 t 0 r /Helvetica findfont 25.6688 sf 0 0 m (0) show NC gr 
 gsave  711 565 1534 600 C 1616.96 710.438 t 0 r /Helvetica findfont 25.6688 sf 0 0 m (20) show NC gr 
 gsave  711 565 1534 600 C 1616.96 750.222 t 0 r /Helvetica findfont 25.6688 sf 0 0 m (40) show NC gr 
 gsave  711 565 1534 600 C 1616.96 787.165 t 0 r /Helvetica findfont 25.6688 sf 0 0 m (60) show NC gr 
 gsave  711 565 1534 600 C 1616.96 826.949 t 0 r /Helvetica findfont 25.6688 sf 0 0 m (80) show NC gr 
 gsave  711 565 1534 600 C 1602.75 866.734 t 0 r /Helvetica findfont 25.6688 sf 0 0 m (100) show NC gr 
 gsave  711 565 1534 600 C 1602.75 903.677 t 0 r /Helvetica findfont 25.6688 sf 0 0 m (120) show NC gr 
 gsave  711 565 1534 600 C 1602.75 943.461 t 0 r /Helvetica findfont 25.6688 sf 0 0 m (140) show NC gr 
 gsave  711 565 1534 600 C 1602.75 980.404 t 0 r /Helvetica findfont 25.6688 sf 0 0 m (160) show NC gr 
 gsave  711 565 1534 600 C 1602.75 1020.19 t 0 r /Helvetica findfont 25.6688 sf 0 0 m (180) show NC gr 
 gsave  711 565 1534 600 C 1602.75 1059.97 t 0 r /Helvetica findfont 25.6688 sf 0 0 m (200) show NC gr 
 gsave  711 565 1534 600 C 1602.75 1096.92 t 0 r /Helvetica findfont 25.6688 sf 0 0 m (220) show NC gr  2202 681 m 427 Y s 2186 681 m 16 X s 2194 691 m 8 X s 2194 701 m 8 X s 2194 710 m 8 X s 2186 720 m 16 X s 2194 730 m 8 X s 2194 740 m 8 X s 2194
 749 m 8 X s 2186 759 m 16 X s 2194 769 m 8 X s 2194 778 m 8 X s 2194 788 m 8 X s 2186 798 m 16 X s 2194 807 m 8 X s 2194 817 m 8 X s 2194 827 m 8 X s 2186 837 m 16 X s 2194 846 m 8 X s 2194 856 m 8 X s 2194 866 m 8 X s 2186 875 m 16 X s 2194 885 m 8
 X s 2194 895 m 8 X s 2194 904 m 8 X s 2186 914 m 16 X s 2194 924 m 8 X s 2194 934 m 8 X s 2194 943 m 8 X s 2186 953 m 16 X s 2194 963 m 8 X s 2194 972 m 8 X s 2194 982 m 8 X s 2186 992 m 16 X s 2194 1001 m 8 X s 2194 1011 m 8 X s 2194 1021 m 8 X s
 2186 1031 m 16 X s 2194 1040 m 8 X s 2194 1050 m 8 X s 2194 1060 m 8 X s 2186 1069 m 16 X s 2194 1079 m 8 X s 2194 1089 m 8 X s 2194 1098 m 8 X s 2186 1108 m 16 X s 2186 1108 m 16 X s 1 0 0 c 6 lw black 3 lw 1 0 0 c 2188 681 m s 2173 681 m s 2158
 681 m s 2143 681 m s 2128 681 m s 2113 681 m s 2098 681 m s 2082 681 m s 2067 681 m s 2052 681 m s 2037 681 m s 2022 681 m cl s 2007 681 m cl s 1997 687 m -5 -6 d s 1997 702 m -20 -21 d s 1997 717 m -35 -36 d s 1987 722 m -40 -41 d s 1984 734 m -52
 -53 d s 1984 749 m -67 -68 d s 1979 760 m -77 -79 d s 1970 765 m -83 -84 d s 1958 768 m -87 -87 d s 1953 779 m -97 -98 d s 1935 776 m -94 -95 d s 1929 785 m -103 -104 d s 1924 795 m -113 -114 d s 1915 801 m -119 -120 d s 1901 803 m -120 -122 d s
 1896 812 m -130 -131 d s 1887 818 m -136 -137 d s 1874 821 m -138 -140 d s 1874 836 m -153 -155 d s 1865 842 m -159 -161 d s 1859 851 m -168 -170 d s 1847 854 m -172 -173 d s 1840 863 m -180 -182 d s 1833 870 m -178 -179 d s 1833 885 m -178 -178 d s
 1819 887 m -164 -165 d s 1819 902 m -164 -165 d s 1806 904 m -137 -138 d s 1668 764 m -13 -12 d s 1799 912 m -130 -131 d s 1792 920 m -123 -124 d s 1792 935 m -123 -124 d s 1785 943 m -116 -116 d s 1778 952 m -109 -110 d s 1778 967 m -109 -110 d s
 1765 969 m s 1759 963 m -90 -91 d s 1751 970 m -68 -69 d s 1677 896 m -8 -9 d s 1751 985 m -68 -69 d s 1743 993 m -60 -62 d s 1737 1002 m -54 -55 d s 1726 1006 m -30 -30 d s 1685 965 m -2 -3 d s 1714 1009 m -4 -4 d s 1707 1001 m -11 -10 d s 6 lw
 1655 764 m 14 X 132 Y 14 X 69 Y 13 X 36 Y 14 X 8 Y 14 X -3 Y 13 X -13 Y 14 X -30 Y 14 X 6 Y 13 X -26 Y 14 X -31 Y 14 X -8 Y 13 X -19 Y 14 X -22 Y 14 X -12 Y 13 X -9 Y 14 X -24 Y 14 X -6 Y 13 X -11 Y 14 X -6 Y 14 X -19 Y 14 X 3 Y 13 X -11 Y 14 X -8 Y
 14 X -38 Y 13 X -41 Y 205 X s black 3 lw 1655 681 m 547 X s 1722 694 m -13 Y s 1739 688 m -7 Y s 1755 688 m -7 Y s 1772 688 m -7 Y s 1789 694 m -13 Y s 1806 688 m -7 Y s 1822 688 m -7 Y s 1839 688 m -7 Y s 1856 694 m -13 Y s 1873 688 m -7 Y s 1890
 688 m -7 Y s 1906 688 m -7 Y s 1923 694 m -13 Y s 1940 688 m -7 Y s 1957 688 m -7 Y s 1974 688 m -7 Y s 1990 694 m -13 Y s 2007 688 m -7 Y s 2024 688 m -7 Y s 2041 688 m -7 Y s 2058 694 m -13 Y s 2074 688 m -7 Y s 2091 688 m -7 Y s 2108 688 m -7 Y s
 2125 694 m -13 Y s 2141 688 m -7 Y s 2158 688 m -7 Y s 2175 688 m -7 Y s 2192 694 m -13 Y s 1722 694 m -13 Y s 1705 688 m -7 Y s 1688 688 m -7 Y s 1671 688 m -7 Y s 2192 694 m -13 Y s 1655 1108 m 547 X s 1722 1095 m 13 Y s 1739 1102 m 6 Y s 1755
 1102 m 6 Y s 1772 1102 m 6 Y s 1789 1095 m 13 Y s 1806 1102 m 6 Y s 1822 1102 m 6 Y s 1839 1102 m 6 Y s 1856 1095 m 13 Y s 1873 1102 m 6 Y s 1890 1102 m 6 Y s 1906 1102 m 6 Y s 1923 1095 m 13 Y s 1940 1102 m 6 Y s 1957 1102 m 6 Y s 1974 1102 m 6 Y s
 1990 1095 m 13 Y s 2007 1102 m 6 Y s 2024 1102 m 6 Y s 2041 1102 m 6 Y s 2058 1095 m 13 Y s 2074 1102 m 6 Y s 2091 1102 m 6 Y s 2108 1102 m 6 Y s 2125 1095 m 13 Y s 2141 1102 m 6 Y s 2158 1102 m 6 Y s 2175 1102 m 6 Y s 2192 1095 m 13 Y s 1722 1095 m
 13 Y s 1705 1102 m 6 Y s 1688 1102 m 6 Y s 1671 1102 m 6 Y s 2192 1095 m 13 Y s 1655 681 m 427 Y s 1671 681 m -16 X s 1663 691 m -8 X s 1663 701 m -8 X s 1663 710 m -8 X s 1671 720 m -16 X s 1663 730 m -8 X s 1663 740 m -8 X s 1663 749 m -8 X s 1671
 759 m -16 X s 1663 769 m -8 X s 1663 778 m -8 X s 1663 788 m -8 X s 1671 798 m -16 X s 1663 807 m -8 X s 1663 817 m -8 X s 1663 827 m -8 X s 1671 837 m -16 X s 1663 846 m -8 X s 1663 856 m -8 X s 1663 866 m -8 X s 1671 875 m -16 X s 1663 885 m -8 X
 s 1663 895 m -8 X s 1663 904 m -8 X s 1671 914 m -16 X s 1663 924 m -8 X s 1663 934 m -8 X s 1663 943 m -8 X s 1671 953 m -16 X s 1663 963 m -8 X s 1663 972 m -8 X s 1663 982 m -8 X s 1671 992 m -16 X s 1663 1001 m -8 X s 1663 1011 m -8 X s 1663
 1021 m -8 X s 1671 1031 m -16 X s 1663 1040 m -8 X s 1663 1050 m -8 X s 1663 1060 m -8 X s 1671 1069 m -16 X s 1663 1079 m -8 X s 1663 1089 m -8 X s 1663 1098 m -8 X s 1671 1108 m -16 X s 1671 1108 m -16 X s 2202 681 m 427 Y s 2186 681 m 16 X s 2194
 691 m 8 X s 2194 701 m 8 X s 2194 710 m 8 X s 2186 720 m 16 X s 2194 730 m 8 X s 2194 740 m 8 X s 2194 749 m 8 X s 2186 759 m 16 X s 2194 769 m 8 X s 2194 778 m 8 X s 2194 788 m 8 X s 2186 798 m 16 X s 2194 807 m 8 X s 2194 817 m 8 X s 2194 827 m 8
 X s 2186 837 m 16 X s 2194 846 m 8 X s 2194 856 m 8 X s 2194 866 m 8 X s 2186 875 m 16 X s 2194 885 m 8 X s 2194 895 m 8 X s 2194 904 m 8 X s 2186 914 m 16 X s 2194 924 m 8 X s 2194 934 m 8 X s 2194 943 m 8 X s 2186 953 m 16 X s 2194 963 m 8 X s
 2194 972 m 8 X s 2194 982 m 8 X s 2186 992 m 16 X s 2194 1001 m 8 X s 2194 1011 m 8 X s 2194 1021 m 8 X s 2186 1031 m 16 X s 2194 1040 m 8 X s 2194 1050 m 8 X s 2194 1060 m 8 X s 2186 1069 m 16 X s 2194 1079 m 8 X s 2194 1089 m 8 X s 2194 1098 m 8 X
 s 2186 1108 m 16 X s 2186 1108 m 16 X s
 gsave  711 565 1534 600 C 2230.83 679.067 t 90 r /Helvetica-Bold findfont 19.9646 sf 0 0 m (U/O\255flow \(S,B\): \(0.0, 0.0\)% / \(0.0, 0.0\)%) show NC gr  0.48 0.56 0.6 c 0.364706 0.419608 0.490196 c 497 38 1542 1124 bf 0.48 0.56 0.6 c 1542 1124 m
 497 X s 2039 1124 m 38 Y s 2039 1162 m -497 X s 1542 1162 m -38 Y s 1 1 1 c black 1 1 1 c
 gsave  711 565 1534 600 C 1551.6 1136.7 t 0 r /Helvetica-Bold findfont 25.6688 sf 0 0 m (Input variable: acos_Lc_DIRA_OWNPV) show NC gr  0.48 0.56 0.6 c 1 1 1 c 710 564 23 12 bf black 1 1 1 c 548 427 143 93 bf black 548 427 143 93 bl 1 1 1 c 548 427
 143 93 bf black 548 427 143 93 bl 0 0 0.933333 c 6 lw 0.49 0.6 0.82 c black 3 lw 0.49 0.6 0.82 c 143 93 m 96 X 1 Y 28 X -1 Y 27 X 2 Y 14 X -1 Y 13 X -1 Y 14 X 14 Y 14 X -7 Y 13 X -4 Y 14 X 1 Y 14 X 16 Y 13 X 19 Y 14 X 23 Y 14 X 17 Y 13 X 32 Y 14 X
 50 Y 14 X 52 Y 13 X 62 Y 14 X 27 Y 14 X 86 Y 13 X -24 Y 14 X -58 Y 14 X -130 Y 13 X -106 Y 14 X -45 Y 14 X -19 Y 14 X -5 Y 13 X -1 Y 69 X f 6 lw 0 0 0.933333 c 0.49 0.6 0.82 c 0 0 0.933333 c 143 93 m 96 X 1 Y 28 X -1 Y 27 X 2 Y 14 X -1 Y 13 X -1 Y
 14 X 14 Y 14 X -7 Y 13 X -4 Y 14 X 1 Y 14 X 16 Y 13 X 19 Y 14 X 23 Y 14 X 17 Y 13 X 32 Y 14 X 50 Y 14 X 52 Y 13 X 62 Y 14 X 27 Y 14 X 86 Y 13 X -24 Y 14 X -58 Y 14 X -130 Y 13 X -106 Y 14 X -45 Y 14 X -19 Y 14 X -5 Y 13 X -1 Y 69 X s black 3 lw 143
 93 m 548 X s
 gsave  710 564 23 12 C 375.111 25.5758 t 0 r /Helvetica findfont 28.5208 sf 0 0 m (log_Lc_IPCHI2_OWNPV) show NC gr  151 106 m -13 Y s 168 100 m -7 Y s 186 100 m -7 Y s 203 100 m -7 Y s 220 106 m -13 Y s 237 100 m -7 Y s 254 100 m -7 Y s 271 100 m -7
 Y s 288 106 m -13 Y s 305 100 m -7 Y s 323 100 m -7 Y s 340 100 m -7 Y s 357 106 m -13 Y s 374 100 m -7 Y s 391 100 m -7 Y s 408 100 m -7 Y s 425 106 m -13 Y s 442 100 m -7 Y s 460 100 m -7 Y s 477 100 m -7 Y s 494 106 m -13 Y s 511 100 m -7 Y s 528
 100 m -7 Y s 545 100 m -7 Y s 562 106 m -13 Y s 579 100 m -7 Y s 597 100 m -7 Y s 614 100 m -7 Y s 631 106 m -13 Y s 151 106 m -13 Y s 631 106 m -13 Y s 648 100 m -7 Y s 665 100 m -7 Y s 682 100 m -7 Y s
 gsave  710 564 23 12 C 142.088 65.3603 t 0 r /Helvetica findfont 25.6688 sf 0 0 m (10) show NC gr 
 gsave  710 564 23 12 C 127.879 65.3603 t 0 r /Symbol findfont 25.6688 sf 0 0 m (-) show NC gr 
 gsave  710 564 23 12 C 215.973 65.3603 t 0 r /Helvetica findfont 25.6688 sf 0 0 m (8) show NC gr 
 gsave  710 564 23 12 C 204.606 65.3603 t 0 r /Symbol findfont 25.6688 sf 0 0 m (-) show NC gr 
 gsave  710 564 23 12 C 284.175 65.3603 t 0 r /Helvetica findfont 25.6688 sf 0 0 m (6) show NC gr 
 gsave  710 564 23 12 C 272.808 65.3603 t 0 r /Symbol findfont 25.6688 sf 0 0 m (-) show NC gr 
 gsave  710 564 23 12 C 352.377 65.3603 t 0 r /Helvetica findfont 25.6688 sf 0 0 m (4) show NC gr 
 gsave  710 564 23 12 C 341.01 65.3603 t 0 r /Symbol findfont 25.6688 sf 0 0 m (-) show NC gr 
 gsave  710 564 23 12 C 420.579 65.3603 t 0 r /Helvetica findfont 25.6688 sf 0 0 m (2) show NC gr 
 gsave  710 564 23 12 C 409.212 65.3603 t 0 r /Symbol findfont 25.6688 sf 0 0 m (-) show NC gr 
 gsave  710 564 23 12 C 483.098 65.3603 t 0 r /Helvetica findfont 25.6688 sf 0 0 m (0) show NC gr 
 gsave  710 564 23 12 C 551.299 65.3603 t 0 r /Helvetica findfont 25.6688 sf 0 0 m (2) show NC gr 
 gsave  710 564 23 12 C 619.502 65.3603 t 0 r /Helvetica findfont 25.6688 sf 0 0 m (4) show NC gr  143 520 m 548 X s 151 507 m 13 Y s 168 513 m 7 Y s 186 513 m 7 Y s 203 513 m 7 Y s 220 507 m 13 Y s 237 513 m 7 Y s 254 513 m 7 Y s 271 513 m 7 Y s 288
 507 m 13 Y s 305 513 m 7 Y s 323 513 m 7 Y s 340 513 m 7 Y s 357 507 m 13 Y s 374 513 m 7 Y s 391 513 m 7 Y s 408 513 m 7 Y s 425 507 m 13 Y s 442 513 m 7 Y s 460 513 m 7 Y s 477 513 m 7 Y s 494 507 m 13 Y s 511 513 m 7 Y s 528 513 m 7 Y s 545 513 m
 7 Y s 562 507 m 13 Y s 579 513 m 7 Y s 597 513 m 7 Y s 614 513 m 7 Y s 631 507 m 13 Y s 151 507 m 13 Y s 631 507 m 13 Y s 648 513 m 7 Y s 665 513 m 7 Y s 682 513 m 7 Y s 143 93 m 427 Y s
 gsave  710 564 23 12 C 45.468 440.471 t 90 r /Helvetica findfont 28.5208 sf 0 0 m (0.399 ) show NC gr 
 gsave  710 564 23 12 C 31.2593 434.788 t 90 r /Helvetica findfont 19.9646 sf 0 0 m ( ) show NC gr 
 gsave  710 564 23 12 C 45.468 423.421 t 90 r /Helvetica findfont 28.5208 sf 0 0 m (/) show NC gr 
 gsave  710 564 23 12 C 53.9933 417.737 t 90 r /Helvetica findfont 19.9646 sf 0 0 m ( ) show NC gr 
 gsave  710 564 23 12 C 45.468 309.751 t 90 r /Helvetica findfont 28.5208 sf 0 0 m (\(1/N\) dN) show NC gr  160 93 m -17 X s 152 104 m -9 X s 152 114 m -9 X s 152 125 m -9 X s 152 135 m -9 X s 160 146 m -17 X s 152 156 m -9 X s 152 167 m -9 X s 152
 177 m -9 X s 152 188 m -9 X s 160 198 m -17 X s 152 209 m -9 X s 152 219 m -9 X s 152 230 m -9 X s 152 240 m -9 X s 160 251 m -17 X s 152 261 m -9 X s 152 272 m -9 X s 152 282 m -9 X s 152 293 m -9 X s 160 303 m -17 X s 152 314 m -9 X s 152 324 m -9
 X s 152 335 m -9 X s 152 345 m -9 X s 160 356 m -17 X s 152 366 m -9 X s 152 377 m -9 X s 152 387 m -9 X s 152 398 m -9 X s 160 408 m -17 X s 152 419 m -9 X s 152 429 m -9 X s 152 440 m -9 X s 152 450 m -9 X s 160 461 m -17 X s 152 471 m -9 X s 152
 482 m -9 X s 152 492 m -9 X s 152 503 m -9 X s 160 513 m -17 X s 160 513 m -17 X s
 gsave  710 564 23 12 C 119.354 82.4108 t 0 r /Helvetica findfont 25.6688 sf 0 0 m (0) show NC gr 
 gsave  710 564 23 12 C 82.4108 136.404 t 0 r /Helvetica findfont 25.6688 sf 0 0 m (0.05) show NC gr 
 gsave  710 564 23 12 C 102.303 187.556 t 0 r /Helvetica findfont 25.6688 sf 0 0 m (0.1) show NC gr 
 gsave  710 564 23 12 C 82.4108 241.549 t 0 r /Helvetica findfont 25.6688 sf 0 0 m (0.15) show NC gr 
 gsave  710 564 23 12 C 96.6195 292.7 t 0 r /Helvetica findfont 25.6688 sf 0 0 m (0.2) show NC gr 
 gsave  710 564 23 12 C 82.4108 346.694 t 0 r /Helvetica findfont 25.6688 sf 0 0 m (0.25) show NC gr 
 gsave  710 564 23 12 C 96.6195 397.845 t 0 r /Helvetica findfont 25.6688 sf 0 0 m (0.3) show NC gr 
 gsave  710 564 23 12 C 82.4108 451.838 t 0 r /Helvetica findfont 25.6688 sf 0 0 m (0.35) show NC gr 
 gsave  710 564 23 12 C 96.6195 502.99 t 0 r /Helvetica findfont 25.6688 sf 0 0 m (0.4) show NC gr  691 93 m 427 Y s 674 93 m 17 X s 683 104 m 8 X s 683 114 m 8 X s 683 125 m 8 X s 683 135 m 8 X s 674 146 m 17 X s 683 156 m 8 X s 683 167 m 8 X s 683
 177 m 8 X s 683 188 m 8 X s 674 198 m 17 X s 683 209 m 8 X s 683 219 m 8 X s 683 230 m 8 X s 683 240 m 8 X s 674 251 m 17 X s 683 261 m 8 X s 683 272 m 8 X s 683 282 m 8 X s 683 293 m 8 X s 674 303 m 17 X s 683 314 m 8 X s 683 324 m 8 X s 683 335 m
 8 X s 683 345 m 8 X s 674 356 m 17 X s 683 366 m 8 X s 683 377 m 8 X s 683 387 m 8 X s 683 398 m 8 X s 674 408 m 17 X s 683 419 m 8 X s 683 429 m 8 X s 683 440 m 8 X s 683 450 m 8 X s 674 461 m 17 X s 683 471 m 8 X s 683 482 m 8 X s 683 492 m 8 X s
 683 503 m 8 X s 674 513 m 17 X s 674 513 m 17 X s 1 0 0 c 6 lw black 3 lw 1 0 0 c 676 93 m s 663 95 m -2 -2 d s 650 97 m -4 -4 d s 637 99 m -6 -6 d s 631 109 m -15 -16 d s 622 115 m -21 -22 d s 622 130 m -36 -37 d s 613 136 m -42 -43 d s 609 146 m
 -53 -53 d s 607 160 m -66 -67 d s 595 163 m -70 -70 d s 595 178 m -85 -85 d s 593 191 m -98 -98 d s 581 195 m -101 -102 d s 581 210 m -116 -117 d s 576 219 m -126 -126 d s 567 227 m -132 -134 d s 567 242 m -147 -149 d s 567 257 m -162 -164 d s 567
 272 m -177 -179 d s 566 286 m -122 -123 d s 444 163 m -13 -13 d s 424 143 m -7 -7 d s 410 129 m -7 -7 d s 397 116 m -7 -8 d s 389 108 m -14 -15 d s 554 289 m -96 -97 d s 455 189 m -11 -11 d s 369 102 m -9 -9 d s 554 304 m -96 -97 d s 351 100 m -2 -3
 d s 349 97 m -4 -4 d s 554 319 m -82 -83 d s 464 229 m -6 -6 d s 332 96 m -3 -3 d s 554 334 m -82 -82 d s 316 95 m -2 -2 d s 554 349 m -69 -68 d s 480 276 m -8 -9 d s 301 95 m -2 -2 d s 544 355 m -59 -59 d s 285 94 m -1 -1 d s 540 366 m -55 -55 d s
 270 94 m -1 -1 d s 540 381 m -41 -41 d s 496 337 m -11 -11 d s 255 94 m -1 -1 d s 540 396 m -41 -41 d s 239 93 m s 239 93 m s 534 406 m -21 -22 d s 513 384 m -14 -14 d s 224 93 m s 526 413 m -13 -14 d s 209 93 m cl s 526 427 m -13 -13 d s 194 93 m s
 179 93 m s 164 93 m s 149 93 m s 6 lw 143 93 m 110 X 1 Y 41 X 1 Y 27 X 1 Y 14 X 1 Y 14 X 3 Y 13 X 2 Y 14 X 6 Y 14 X 8 Y 13 X 13 Y 14 X 14 Y 14 X 20 Y 13 X 26 Y 14 X 40 Y 14 X 47 Y 13 X 61 Y 14 X 47 Y 14 X 43 Y 13 X -21 Y 14 X -51 Y 14 X -69 Y 13 X
 -67 Y 14 X -28 Y 14 X -31 Y 14 X -24 Y 13 X -27 Y 14 X -10 Y 14 X -4 Y 13 X -2 Y 28 X s black 3 lw 143 93 m 548 X s 151 106 m -13 Y s 168 100 m -7 Y s 186 100 m -7 Y s 203 100 m -7 Y s 220 106 m -13 Y s 237 100 m -7 Y s 254 100 m -7 Y s 271 100 m -7
 Y s 288 106 m -13 Y s 305 100 m -7 Y s 323 100 m -7 Y s 340 100 m -7 Y s 357 106 m -13 Y s 374 100 m -7 Y s 391 100 m -7 Y s 408 100 m -7 Y s 425 106 m -13 Y s 442 100 m -7 Y s 460 100 m -7 Y s 477 100 m -7 Y s 494 106 m -13 Y s 511 100 m -7 Y s 528
 100 m -7 Y s 545 100 m -7 Y s 562 106 m -13 Y s 579 100 m -7 Y s 597 100 m -7 Y s 614 100 m -7 Y s 631 106 m -13 Y s 151 106 m -13 Y s 631 106 m -13 Y s 648 100 m -7 Y s 665 100 m -7 Y s 682 100 m -7 Y s 143 520 m 548 X s 151 507 m 13 Y s 168 513 m
 7 Y s 186 513 m 7 Y s 203 513 m 7 Y s 220 507 m 13 Y s 237 513 m 7 Y s 254 513 m 7 Y s 271 513 m 7 Y s 288 507 m 13 Y s 305 513 m 7 Y s 323 513 m 7 Y s 340 513 m 7 Y s 357 507 m 13 Y s 374 513 m 7 Y s 391 513 m 7 Y s 408 513 m 7 Y s 425 507 m 13 Y s
 442 513 m 7 Y s 460 513 m 7 Y s 477 513 m 7 Y s 494 507 m 13 Y s 511 513 m 7 Y s 528 513 m 7 Y s 545 513 m 7 Y s 562 507 m 13 Y s 579 513 m 7 Y s 597 513 m 7 Y s 614 513 m 7 Y s 631 507 m 13 Y s 151 507 m 13 Y s 631 507 m 13 Y s 648 513 m 7 Y s 665
 513 m 7 Y s 682 513 m 7 Y s 143 93 m 427 Y s 160 93 m -17 X s 152 104 m -9 X s 152 114 m -9 X s 152 125 m -9 X s 152 135 m -9 X s 160 146 m -17 X s 152 156 m -9 X s 152 167 m -9 X s 152 177 m -9 X s 152 188 m -9 X s 160 198 m -17 X s 152 209 m -9 X
 s 152 219 m -9 X s 152 230 m -9 X s 152 240 m -9 X s 160 251 m -17 X s 152 261 m -9 X s 152 272 m -9 X s 152 282 m -9 X s 152 293 m -9 X s 160 303 m -17 X s 152 314 m -9 X s 152 324 m -9 X s 152 335 m -9 X s 152 345 m -9 X s 160 356 m -17 X s 152
 366 m -9 X s 152 377 m -9 X s 152 387 m -9 X s 152 398 m -9 X s 160 408 m -17 X s 152 419 m -9 X s 152 429 m -9 X s 152 440 m -9 X s 152 450 m -9 X s 160 461 m -17 X s 152 471 m -9 X s 152 482 m -9 X s 152 492 m -9 X s 152 503 m -9 X s 160 513 m -17
 X s 160 513 m -17 X s 691 93 m 427 Y s 674 93 m 17 X s 683 104 m 8 X s 683 114 m 8 X s 683 125 m 8 X s 683 135 m 8 X s 674 146 m 17 X s 683 156 m 8 X s 683 167 m 8 X s 683 177 m 8 X s 683 188 m 8 X s 674 198 m 17 X s 683 209 m 8 X s 683 219 m 8 X s
 683 230 m 8 X s 683 240 m 8 X s 674 251 m 17 X s 683 261 m 8 X s 683 272 m 8 X s 683 282 m 8 X s 683 293 m 8 X s 674 303 m 17 X s 683 314 m 8 X s 683 324 m 8 X s 683 335 m 8 X s 683 345 m 8 X s 674 356 m 17 X s 683 366 m 8 X s 683 377 m 8 X s 683
 387 m 8 X s 683 398 m 8 X s 674 408 m 17 X s 683 419 m 8 X s 683 429 m 8 X s 683 440 m 8 X s 683 450 m 8 X s 674 461 m 17 X s 683 471 m 8 X s 683 482 m 8 X s 683 492 m 8 X s 683 503 m 8 X s 674 513 m 17 X s 674 513 m 17 X s
 gsave  710 564 23 12 C 719.017 90.8246 t 90 r /Helvetica-Bold findfont 19.9646 sf 0 0 m (U/O\255flow \(S,B\): \(0.0, 0.0\)% / \(0.0, 0.0\)%) show NC gr  0.48 0.56 0.6 c 0.364706 0.419608 0.490196 c 497 38 30 536 bf 0.48 0.56 0.6 c 30 536 m 497 X s
 527 536 m 38 Y s 527 574 m -497 X s 30 574 m -38 Y s 1 1 1 c black 1 1 1 c
 gsave  710 564 23 12 C 39.7845 548.458 t 0 r /Helvetica-Bold findfont 25.6688 sf 0 0 m (Input variable: log_Lc_IPCHI2_OWNPV) show NC gr  0.48 0.56 0.6 c 1 1 1 c 710 564 779 12 bf black 1 1 1 c 548 427 899 93 bf black 548 427 899 93 bl 1 1 1 c 548
 427 899 93 bf black 548 427 899 93 bl 0 0 0.933333 c 6 lw 0.49 0.6 0.82 c black 3 lw 0.49 0.6 0.82 c 899 93 m 123 X 4 Y 14 X -1 Y 14 X -2 Y 27 X 13 Y 14 X -7 Y 14 X 17 Y 13 X -3 Y 14 X 10 Y 14 X 38 Y 13 X 9 Y 14 X 50 Y 14 X 46 Y 13 X 115 Y 14 X 44 Y
 14 X 17 Y 13 X 21 Y 14 X 13 Y 14 X -118 Y 13 X -63 Y 14 X -104 Y 14 X -39 Y 13 X -35 Y 14 X -15 Y 14 X -6 Y 13 X -3 Y 14 X -1 Y 69 X f 6 lw 0 0 0.933333 c 0.49 0.6 0.82 c 0 0 0.933333 c 899 93 m 123 X 4 Y 14 X -1 Y 14 X -2 Y 27 X 13 Y 14 X -7 Y 14 X
 17 Y 13 X -3 Y 14 X 10 Y 14 X 38 Y 13 X 9 Y 14 X 50 Y 14 X 46 Y 13 X 115 Y 14 X 44 Y 14 X 17 Y 13 X 21 Y 14 X 13 Y 14 X -118 Y 13 X -63 Y 14 X -104 Y 14 X -39 Y 13 X -35 Y 14 X -15 Y 14 X -6 Y 13 X -3 Y 14 X -1 Y 69 X s black 3 lw 899 93 m 548 X s
 gsave  710 564 779 12 C 1088.39 25.5758 t 0 r /Helvetica findfont 28.5208 sf 0 0 m (log_XiccK_IPCHI2_OWNPV) show NC gr  913 106 m -13 Y s 928 100 m -7 Y s 943 100 m -7 Y s 958 100 m -7 Y s 973 106 m -13 Y s 988 100 m -7 Y s 1003 100 m -7 Y s 1019
 100 m -7 Y s 1034 106 m -13 Y s 1049 100 m -7 Y s 1064 100 m -7 Y s 1079 100 m -7 Y s 1094 106 m -13 Y s 1109 100 m -7 Y s 1124 100 m -7 Y s 1139 100 m -7 Y s 1154 106 m -13 Y s 1170 100 m -7 Y s 1185 100 m -7 Y s 1200 100 m -7 Y s 1215 106 m -13 Y
 s 1230 100 m -7 Y s 1245 100 m -7 Y s 1260 100 m -7 Y s 1275 106 m -13 Y s 1290 100 m -7 Y s 1305 100 m -7 Y s 1321 100 m -7 Y s 1336 106 m -13 Y s 1351 100 m -7 Y s 1366 100 m -7 Y s 1381 100 m -7 Y s 1396 106 m -13 Y s 913 106 m -13 Y s 1396 106 m
 -13 Y s 1411 100 m -7 Y s 1426 100 m -7 Y s 1441 100 m -7 Y s
 gsave  710 564 779 12 C 903.677 65.3603 t 0 r /Helvetica findfont 25.6688 sf 0 0 m (10) show NC gr 
 gsave  710 564 779 12 C 889.468 65.3603 t 0 r /Symbol findfont 25.6688 sf 0 0 m (-) show NC gr 
 gsave  710 564 779 12 C 969.037 65.3603 t 0 r /Helvetica findfont 25.6688 sf 0 0 m (8) show NC gr 
 gsave  710 564 779 12 C 957.67 65.3603 t 0 r /Symbol findfont 25.6688 sf 0 0 m (-) show NC gr 
 gsave  710 564 779 12 C 1028.71 65.3603 t 0 r /Helvetica findfont 25.6688 sf 0 0 m (6) show NC gr 
 gsave  710 564 779 12 C 1017.35 65.3603 t 0 r /Symbol findfont 25.6688 sf 0 0 m (-) show NC gr 
 gsave  710 564 779 12 C 1091.23 65.3603 t 0 r /Helvetica findfont 25.6688 sf 0 0 m (4) show NC gr 
 gsave  710 564 779 12 C 1079.86 65.3603 t 0 r /Symbol findfont 25.6688 sf 0 0 m (-) show NC gr 
 gsave  710 564 779 12 C 1150.91 65.3603 t 0 r /Helvetica findfont 25.6688 sf 0 0 m (2) show NC gr 
 gsave  710 564 779 12 C 1139.54 65.3603 t 0 r /Symbol findfont 25.6688 sf 0 0 m (-) show NC gr 
 gsave  710 564 779 12 C 1204.9 65.3603 t 0 r /Helvetica findfont 25.6688 sf 0 0 m (0) show NC gr 
 gsave  710 564 779 12 C 1264.58 65.3603 t 0 r /Helvetica findfont 25.6688 sf 0 0 m (2) show NC gr 
 gsave  710 564 779 12 C 1324.26 65.3603 t 0 r /Helvetica findfont 25.6688 sf 0 0 m (4) show NC gr 
 gsave  710 564 779 12 C 1386.77 65.3603 t 0 r /Helvetica findfont 25.6688 sf 0 0 m (6) show NC gr  899 520 m 548 X s 913 507 m 13 Y s 928 513 m 7 Y s 943 513 m 7 Y s 958 513 m 7 Y s 973 507 m 13 Y s 988 513 m 7 Y s 1003 513 m 7 Y s 1019 513 m 7 Y s
 1034 507 m 13 Y s 1049 513 m 7 Y s 1064 513 m 7 Y s 1079 513 m 7 Y s 1094 507 m 13 Y s 1109 513 m 7 Y s 1124 513 m 7 Y s 1139 513 m 7 Y s 1154 507 m 13 Y s 1170 513 m 7 Y s 1185 513 m 7 Y s 1200 513 m 7 Y s 1215 507 m 13 Y s 1230 513 m 7 Y s 1245
 513 m 7 Y s 1260 513 m 7 Y s 1275 507 m 13 Y s 1290 513 m 7 Y s 1305 513 m 7 Y s 1321 513 m 7 Y s 1336 507 m 13 Y s 1351 513 m 7 Y s 1366 513 m 7 Y s 1381 513 m 7 Y s 1396 507 m 13 Y s 913 507 m 13 Y s 1396 507 m 13 Y s 1411 513 m 7 Y s 1426 513 m 7
 Y s 1441 513 m 7 Y s 899 93 m 427 Y s
 gsave  710 564 779 12 C 801.374 440.471 t 90 r /Helvetica findfont 28.5208 sf 0 0 m (0.453 ) show NC gr 
 gsave  710 564 779 12 C 787.165 434.788 t 90 r /Helvetica findfont 19.9646 sf 0 0 m ( ) show NC gr 
 gsave  710 564 779 12 C 801.374 423.421 t 90 r /Helvetica findfont 28.5208 sf 0 0 m (/) show NC gr 
 gsave  710 564 779 12 C 809.899 417.737 t 90 r /Helvetica findfont 19.9646 sf 0 0 m ( ) show NC gr 
 gsave  710 564 779 12 C 801.374 309.751 t 90 r /Helvetica findfont 28.5208 sf 0 0 m (\(1/N\) dN) show NC gr  915 93 m -16 X s 907 106 m -8 X s 907 120 m -8 X s 907 133 m -8 X s 907 147 m -8 X s 915 160 m -16 X s 907 173 m -8 X s 907 187 m -8 X s 907
 200 m -8 X s 907 213 m -8 X s 915 227 m -16 X s 907 240 m -8 X s 907 253 m -8 X s 907 267 m -8 X s 907 280 m -8 X s 915 293 m -16 X s 907 307 m -8 X s 907 320 m -8 X s 907 333 m -8 X s 907 347 m -8 X s 915 360 m -16 X s 907 374 m -8 X s 907 387 m -8
 X s 907 400 m -8 X s 907 414 m -8 X s 915 427 m -16 X s 907 440 m -8 X s 907 454 m -8 X s 907 467 m -8 X s 907 480 m -8 X s 915 494 m -16 X s 915 494 m -16 X s 907 507 m -8 X s
 gsave  710 564 779 12 C 875.259 82.4108 t 0 r /Helvetica findfont 25.6688 sf 0 0 m (0) show NC gr 
 gsave  710 564 779 12 C 838.316 150.613 t 0 r /Helvetica findfont 25.6688 sf 0 0 m (0.05) show NC gr 
 gsave  710 564 779 12 C 858.208 215.973 t 0 r /Helvetica findfont 25.6688 sf 0 0 m (0.1) show NC gr 
 gsave  710 564 779 12 C 838.316 284.175 t 0 r /Helvetica findfont 25.6688 sf 0 0 m (0.15) show NC gr 
 gsave  710 564 779 12 C 852.525 349.535 t 0 r /Helvetica findfont 25.6688 sf 0 0 m (0.2) show NC gr 
 gsave  710 564 779 12 C 838.316 417.737 t 0 r /Helvetica findfont 25.6688 sf 0 0 m (0.25) show NC gr 
 gsave  710 564 779 12 C 852.525 483.098 t 0 r /Helvetica findfont 25.6688 sf 0 0 m (0.3) show NC gr  1447 93 m 427 Y s 1430 93 m 17 X s 1438 106 m 9 X s 1438 120 m 9 X s 1438 133 m 9 X s 1438 147 m 9 X s 1430 160 m 17 X s 1438 173 m 9 X s 1438 187 m
 9 X s 1438 200 m 9 X s 1438 213 m 9 X s 1430 227 m 17 X s 1438 240 m 9 X s 1438 253 m 9 X s 1438 267 m 9 X s 1438 280 m 9 X s 1430 293 m 17 X s 1438 307 m 9 X s 1438 320 m 9 X s 1438 333 m 9 X s 1438 347 m 9 X s 1430 360 m 17 X s 1438 374 m 9 X s
 1438 387 m 9 X s 1438 400 m 9 X s 1438 414 m 9 X s 1430 427 m 17 X s 1438 440 m 9 X s 1438 454 m 9 X s 1438 467 m 9 X s 1438 480 m 9 X s 1430 494 m 17 X s 1430 494 m 17 X s 1438 507 m 9 X s 1 0 0 c 6 lw black 3 lw 1 0 0 c 1433 94 m -1 -1 d s 1419 95
 m -2 -2 d s 1405 97 m -3 -4 d s 1392 98 m -5 -5 d s 1378 99 m -6 -6 d s 1369 105 m -12 -12 d s 1357 109 m -15 -16 d s 1351 117 m -24 -24 d s 1337 119 m -26 -26 d s 1329 126 m -33 -33 d s 1323 135 m -42 -42 d s 1321 148 m -55 -55 d s 1310 152 m -59
 -59 d s 1310 167 m -74 -74 d s 1296 169 m -75 -76 d s 1296 184 m -90 -91 d s 1296 199 m -105 -106 d s 1296 214 m -120 -121 d s 1285 219 m -124 -126 d s 1282 231 m -136 -138 d s 1282 246 m -151 -153 d s 1282 261 m -166 -168 d s 1282 276 m -182 -183 d
 s 1272 282 m -126 -128 d s 1137 145 m -5 -5 d s 1106 114 m -1 -2 d s 1099 106 m -14 -13 d s 1269 293 m -110 -110 d s 1149 172 m -3 -3 d s 1075 98 m -5 -5 d s 1269 308 m -96 -96 d s 1171 209 m -12 -11 d s 1059 97 m -4 -4 d s 1269 323 m -96 -96 d s
 1042 95 m -2 -2 d s 1269 338 m -96 -96 d s 1026 94 m -1 -1 d s 1269 354 m -82 -83 d s 1176 260 m -3 -3 d s 1011 94 m -1 -1 d s 1268 368 m -81 -82 d s 996 94 m -1 -1 d s 1255 370 m -68 -69 d s 980 93 m cl s 1255 385 m -55 -55 d s 1190 320 m -3 -3 d s
 965 93 m s 1255 401 m -55 -55 d s 950 93 m s 1255 416 m -55 -55 d s 935 93 m cl s 1255 431 m -55 -55 d s 920 93 m cl s 1253 444 m -39 -39 d s 1204 395 m -4 -4 d s 905 93 m s 1241 448 m -27 -28 d s 1241 463 m -27 -28 d s 1241 478 m -13 -14 d s 1219
 455 m -5 -5 d s 1229 481 m -1 -2 d s 6 lw 899 93 m 82 X 1 Y 55 X 1 Y 14 X 2 Y 14 X 1 Y 13 X 1 Y 14 X 7 Y 14 X 8 Y 13 X 12 Y 14 X 19 Y 14 X 27 Y 13 X 37 Y 14 X 51 Y 14 X 60 Y 13 X 75 Y 14 X 60 Y 14 X 26 Y 13 X -37 Y 14 X -76 Y 14 X -86 Y 13 X -63 Y
 14 X -51 Y 14 X -20 Y 13 X -22 Y 14 X -9 Y 14 X -8 Y 13 X -4 Y 14 X -6 Y 14 X -2 Y 13 X -2 Y 14 X -1 Y 14 X -1 Y 14 X s black 3 lw 899 93 m 548 X s 913 106 m -13 Y s 928 100 m -7 Y s 943 100 m -7 Y s 958 100 m -7 Y s 973 106 m -13 Y s 988 100 m -7 Y
 s 1003 100 m -7 Y s 1019 100 m -7 Y s 1034 106 m -13 Y s 1049 100 m -7 Y s 1064 100 m -7 Y s 1079 100 m -7 Y s 1094 106 m -13 Y s 1109 100 m -7 Y s 1124 100 m -7 Y s 1139 100 m -7 Y s 1154 106 m -13 Y s 1170 100 m -7 Y s 1185 100 m -7 Y s 1200 100 m
 -7 Y s 1215 106 m -13 Y s 1230 100 m -7 Y s 1245 100 m -7 Y s 1260 100 m -7 Y s 1275 106 m -13 Y s 1290 100 m -7 Y s 1305 100 m -7 Y s 1321 100 m -7 Y s 1336 106 m -13 Y s 1351 100 m -7 Y s 1366 100 m -7 Y s 1381 100 m -7 Y s 1396 106 m -13 Y s 913
 106 m -13 Y s 1396 106 m -13 Y s 1411 100 m -7 Y s 1426 100 m -7 Y s 1441 100 m -7 Y s 899 520 m 548 X s 913 507 m 13 Y s 928 513 m 7 Y s 943 513 m 7 Y s 958 513 m 7 Y s 973 507 m 13 Y s 988 513 m 7 Y s 1003 513 m 7 Y s 1019 513 m 7 Y s 1034 507 m
 13 Y s 1049 513 m 7 Y s 1064 513 m 7 Y s 1079 513 m 7 Y s 1094 507 m 13 Y s 1109 513 m 7 Y s 1124 513 m 7 Y s 1139 513 m 7 Y s 1154 507 m 13 Y s 1170 513 m 7 Y s 1185 513 m 7 Y s 1200 513 m 7 Y s 1215 507 m 13 Y s 1230 513 m 7 Y s 1245 513 m 7 Y s
 1260 513 m 7 Y s 1275 507 m 13 Y s 1290 513 m 7 Y s 1305 513 m 7 Y s 1321 513 m 7 Y s 1336 507 m 13 Y s 1351 513 m 7 Y s 1366 513 m 7 Y s 1381 513 m 7 Y s 1396 507 m 13 Y s 913 507 m 13 Y s 1396 507 m 13 Y s 1411 513 m 7 Y s 1426 513 m 7 Y s 1441
 513 m 7 Y s 899 93 m 427 Y s 915 93 m -16 X s 907 106 m -8 X s 907 120 m -8 X s 907 133 m -8 X s 907 147 m -8 X s 915 160 m -16 X s 907 173 m -8 X s 907 187 m -8 X s 907 200 m -8 X s 907 213 m -8 X s 915 227 m -16 X s 907 240 m -8 X s 907 253 m -8 X
 s 907 267 m -8 X s 907 280 m -8 X s 915 293 m -16 X s 907 307 m -8 X s 907 320 m -8 X s 907 333 m -8 X s 907 347 m -8 X s 915 360 m -16 X s 907 374 m -8 X s 907 387 m -8 X s 907 400 m -8 X s 907 414 m -8 X s 915 427 m -16 X s 907 440 m -8 X s 907
 454 m -8 X s 907 467 m -8 X s 907 480 m -8 X s 915 494 m -16 X s 915 494 m -16 X s 907 507 m -8 X s 1447 93 m 427 Y s 1430 93 m 17 X s 1438 106 m 9 X s 1438 120 m 9 X s 1438 133 m 9 X s 1438 147 m 9 X s 1430 160 m 17 X s 1438 173 m 9 X s 1438 187 m
 9 X s 1438 200 m 9 X s 1438 213 m 9 X s 1430 227 m 17 X s 1438 240 m 9 X s 1438 253 m 9 X s 1438 267 m 9 X s 1438 280 m 9 X s 1430 293 m 17 X s 1438 307 m 9 X s 1438 320 m 9 X s 1438 333 m 9 X s 1438 347 m 9 X s 1430 360 m 17 X s 1438 374 m 9 X s
 1438 387 m 9 X s 1438 400 m 9 X s 1438 414 m 9 X s 1430 427 m 17 X s 1438 440 m 9 X s 1438 454 m 9 X s 1438 467 m 9 X s 1438 480 m 9 X s 1430 494 m 17 X s 1430 494 m 17 X s 1438 507 m 9 X s
 gsave  710 564 779 12 C 1474.92 90.8246 t 90 r /Helvetica-Bold findfont 19.9646 sf 0 0 m (U/O\255flow \(S,B\): \(0.0, 0.0\)% / \(0.0, 0.0\)%) show NC gr  0.48 0.56 0.6 c 0.364706 0.419608 0.490196 c 497 38 786 536 bf 0.48 0.56 0.6 c 786 536 m 497 X
 s 1283 536 m 38 Y s 1283 574 m -497 X s 786 574 m -38 Y s 1 1 1 c black 1 1 1 c
 gsave  710 564 779 12 C 801.374 548.458 t 0 r /Helvetica-Bold findfont 22.8167 sf 0 0 m (Input variable: log_XiccK_IPCHI2_OWNPV) show NC gr  0.48 0.56 0.6 c 1 1 1 c 711 564 1534 12 bf black 1 1 1 c 547 427 1655 93 bf black 547 427 1655 93 bl 1 1 1 c
 547 427 1655 93 bf black 547 427 1655 93 bl 0 0 0.933333 c 6 lw 0.49 0.6 0.82 c black 3 lw 0.49 0.6 0.82 c 1655 93 m 110 X 3 Y 13 X -2 Y 14 X 1 Y 14 X 2 Y 13 X -2 Y 14 X -2 Y 14 X 19 Y 13 X -4 Y 14 X 2 Y 14 X 26 Y 13 X 6 Y 14 X 20 Y 14 X 32 Y 14 X
 59 Y 13 X 98 Y 14 X 31 Y 14 X 99 Y 13 X -45 Y 14 X -57 Y 14 X -74 Y 13 X -85 Y 14 X -43 Y 14 X -32 Y 13 X -23 Y 14 X -16 Y 14 X -10 Y 13 X -2 Y 14 X -1 Y 68 X f 6 lw 0 0 0.933333 c 0.49 0.6 0.82 c 0 0 0.933333 c 1655 93 m 110 X 3 Y 13 X -2 Y 14 X 1
 Y 14 X 2 Y 13 X -2 Y 14 X -2 Y 14 X 19 Y 13 X -4 Y 14 X 2 Y 14 X 26 Y 13 X 6 Y 14 X 20 Y 14 X 32 Y 14 X 59 Y 13 X 98 Y 14 X 31 Y 14 X 99 Y 13 X -45 Y 14 X -57 Y 14 X -74 Y 13 X -85 Y 14 X -43 Y 14 X -32 Y 13 X -23 Y 14 X -16 Y 14 X -10 Y 13 X -2 Y
 14 X -1 Y 68 X s black 3 lw 1655 93 m 547 X s
 gsave  711 564 1534 12 C 1838.61 25.5758 t 0 r /Helvetica findfont 28.5208 sf 0 0 m (log_XiccPi_IPCHI2_OWNPV) show NC gr  1671 106 m -13 Y s 1686 100 m -7 Y s 1701 100 m -7 Y s 1716 100 m -7 Y s 1731 106 m -13 Y s 1745 100 m -7 Y s 1760 100 m -7 Y s
 1775 100 m -7 Y s 1790 106 m -13 Y s 1805 100 m -7 Y s 1820 100 m -7 Y s 1835 100 m -7 Y s 1850 106 m -13 Y s 1865 100 m -7 Y s 1880 100 m -7 Y s 1895 100 m -7 Y s 1910 106 m -13 Y s 1925 100 m -7 Y s 1940 100 m -7 Y s 1955 100 m -7 Y s 1969 106 m
 -13 Y s 1984 100 m -7 Y s 1999 100 m -7 Y s 2014 100 m -7 Y s 2029 106 m -13 Y s 2044 100 m -7 Y s 2059 100 m -7 Y s 2074 100 m -7 Y s 2089 106 m -13 Y s 2104 100 m -7 Y s 2119 100 m -7 Y s 2134 100 m -7 Y s 2149 106 m -13 Y s 1671 106 m -13 Y s
 1656 100 m -7 Y s 2149 106 m -13 Y s 2164 100 m -7 Y s 2179 100 m -7 Y s 2193 100 m -7 Y s
 gsave  711 564 1534 12 C 1659.58 65.3603 t 0 r /Helvetica findfont 25.6688 sf 0 0 m (10) show NC gr 
 gsave  711 564 1534 12 C 1645.37 65.3603 t 0 r /Symbol findfont 25.6688 sf 0 0 m (-) show NC gr 
 gsave  711 564 1534 12 C 1724.94 65.3603 t 0 r /Helvetica findfont 25.6688 sf 0 0 m (8) show NC gr 
 gsave  711 564 1534 12 C 1713.58 65.3603 t 0 r /Symbol findfont 25.6688 sf 0 0 m (-) show NC gr 
 gsave  711 564 1534 12 C 1784.62 65.3603 t 0 r /Helvetica findfont 25.6688 sf 0 0 m (6) show NC gr 
 gsave  711 564 1534 12 C 1773.25 65.3603 t 0 r /Symbol findfont 25.6688 sf 0 0 m (-) show NC gr 
 gsave  711 564 1534 12 C 1844.3 65.3603 t 0 r /Helvetica findfont 25.6688 sf 0 0 m (4) show NC gr 
 gsave  711 564 1534 12 C 1832.93 65.3603 t 0 r /Symbol findfont 25.6688 sf 0 0 m (-) show NC gr 
 gsave  711 564 1534 12 C 1906.81 65.3603 t 0 r /Helvetica findfont 25.6688 sf 0 0 m (2) show NC gr 
 gsave  711 564 1534 12 C 1895.45 65.3603 t 0 r /Symbol findfont 25.6688 sf 0 0 m (-) show NC gr 
 gsave  711 564 1534 12 C 1960.81 65.3603 t 0 r /Helvetica findfont 25.6688 sf 0 0 m (0) show NC gr 
 gsave  711 564 1534 12 C 2020.48 65.3603 t 0 r /Helvetica findfont 25.6688 sf 0 0 m (2) show NC gr 
 gsave  711 564 1534 12 C 2080.16 65.3603 t 0 r /Helvetica findfont 25.6688 sf 0 0 m (4) show NC gr 
 gsave  711 564 1534 12 C 2139.84 65.3603 t 0 r /Helvetica findfont 25.6688 sf 0 0 m (6) show NC gr  1655 520 m 547 X s 1671 507 m 13 Y s 1686 513 m 7 Y s 1701 513 m 7 Y s 1716 513 m 7 Y s 1731 507 m 13 Y s 1745 513 m 7 Y s 1760 513 m 7 Y s 1775 513
 m 7 Y s 1790 507 m 13 Y s 1805 513 m 7 Y s 1820 513 m 7 Y s 1835 513 m 7 Y s 1850 507 m 13 Y s 1865 513 m 7 Y s 1880 513 m 7 Y s 1895 513 m 7 Y s 1910 507 m 13 Y s 1925 513 m 7 Y s 1940 513 m 7 Y s 1955 513 m 7 Y s 1969 507 m 13 Y s 1984 513 m 7 Y s
 1999 513 m 7 Y s 2014 513 m 7 Y s 2029 507 m 13 Y s 2044 513 m 7 Y s 2059 513 m 7 Y s 2074 513 m 7 Y s 2089 507 m 13 Y s 2104 513 m 7 Y s 2119 513 m 7 Y s 2134 513 m 7 Y s 2149 507 m 13 Y s 1671 507 m 13 Y s 1656 513 m 7 Y s 2149 507 m 13 Y s 2164
 513 m 7 Y s 2179 513 m 7 Y s 2193 513 m 7 Y s 1655 93 m 427 Y s
 gsave  711 564 1534 12 C 1557.28 440.471 t 90 r /Helvetica findfont 28.5208 sf 0 0 m (0.458 ) show NC gr 
 gsave  711 564 1534 12 C 1543.07 434.788 t 90 r /Helvetica findfont 19.9646 sf 0 0 m ( ) show NC gr 
 gsave  711 564 1534 12 C 1557.28 423.421 t 90 r /Helvetica findfont 28.5208 sf 0 0 m (/) show NC gr 
 gsave  711 564 1534 12 C 1565.8 417.737 t 90 r /Helvetica findfont 19.9646 sf 0 0 m ( ) show NC gr 
 gsave  711 564 1534 12 C 1557.28 309.751 t 90 r /Helvetica findfont 28.5208 sf 0 0 m (\(1/N\) dN) show NC gr  1671 93 m -16 X s 1663 105 m -8 X s 1663 117 m -8 X s 1663 128 m -8 X s 1663 140 m -8 X s 1671 152 m -16 X s 1663 164 m -8 X s 1663 175 m
 -8 X s 1663 187 m -8 X s 1663 199 m -8 X s 1671 211 m -16 X s 1663 222 m -8 X s 1663 234 m -8 X s 1663 246 m -8 X s 1663 258 m -8 X s 1671 269 m -16 X s 1663 281 m -8 X s 1663 293 m -8 X s 1663 305 m -8 X s 1663 316 m -8 X s 1671 328 m -16 X s 1663
 340 m -8 X s 1663 352 m -8 X s 1663 363 m -8 X s 1663 375 m -8 X s 1671 387 m -16 X s 1663 399 m -8 X s 1663 410 m -8 X s 1663 422 m -8 X s 1663 434 m -8 X s 1671 446 m -16 X s 1663 457 m -8 X s 1663 469 m -8 X s 1663 481 m -8 X s 1663 493 m -8 X s
 1671 504 m -16 X s 1671 504 m -16 X s 1663 516 m -8 X s
 gsave  711 564 1534 12 C 1631.16 82.4108 t 0 r /Helvetica findfont 25.6688 sf 0 0 m (0) show NC gr 
 gsave  711 564 1534 12 C 1594.22 142.088 t 0 r /Helvetica findfont 25.6688 sf 0 0 m (0.05) show NC gr 
 gsave  711 564 1534 12 C 1614.11 201.764 t 0 r /Helvetica findfont 25.6688 sf 0 0 m (0.1) show NC gr 
 gsave  711 564 1534 12 C 1594.22 258.599 t 0 r /Helvetica findfont 25.6688 sf 0 0 m (0.15) show NC gr 
 gsave  711 564 1534 12 C 1608.43 318.276 t 0 r /Helvetica findfont 25.6688 sf 0 0 m (0.2) show NC gr 
 gsave  711 564 1534 12 C 1594.22 377.953 t 0 r /Helvetica findfont 25.6688 sf 0 0 m (0.25) show NC gr 
 gsave  711 564 1534 12 C 1608.43 434.788 t 0 r /Helvetica findfont 25.6688 sf 0 0 m (0.3) show NC gr 
 gsave  711 564 1534 12 C 1594.22 494.465 t 0 r /Helvetica findfont 25.6688 sf 0 0 m (0.35) show NC gr  2202 93 m 427 Y s 2186 93 m 16 X s 2194 105 m 8 X s 2194 117 m 8 X s 2194 128 m 8 X s 2194 140 m 8 X s 2186 152 m 16 X s 2194 164 m 8 X s 2194 175
 m 8 X s 2194 187 m 8 X s 2194 199 m 8 X s 2186 211 m 16 X s 2194 222 m 8 X s 2194 234 m 8 X s 2194 246 m 8 X s 2194 258 m 8 X s 2186 269 m 16 X s 2194 281 m 8 X s 2194 293 m 8 X s 2194 305 m 8 X s 2194 316 m 8 X s 2186 328 m 16 X s 2194 340 m 8 X s
 2194 352 m 8 X s 2194 363 m 8 X s 2194 375 m 8 X s 2186 387 m 16 X s 2194 399 m 8 X s 2194 410 m 8 X s 2194 422 m 8 X s 2194 434 m 8 X s 2186 446 m 16 X s 2194 457 m 8 X s 2194 469 m 8 X s 2194 481 m 8 X s 2194 493 m 8 X s 2186 504 m 16 X s 2186 504
 m 16 X s 2194 516 m 8 X s 1 0 0 c 6 lw black 3 lw 1 0 0 c 2189 94 m -1 -1 d s 2174 94 m -1 -1 d s 2161 96 m -3 -3 d s 2148 98 m -5 -5 d s 2135 101 m -7 -8 d s 2123 104 m -10 -11 d s 2111 106 m -13 -13 d s 2103 113 m -21 -20 d s 2093 119 m -26 -26 d
 s 2079 120 m -27 -27 d s 2077 134 m -40 -41 d s 2066 137 m -44 -44 d s 2065 152 m -58 -59 d s 2052 153 m -60 -60 d s 2052 169 m -75 -76 d s 2050 182 m -88 -89 d s 2038 185 m -91 -92 d s 2038 200 m -106 -107 d s 2038 216 m -121 -123 d s 2038 231 m
 -136 -138 d s 2038 246 m -151 -153 d s 2028 251 m -157 -158 d s 2025 263 m -124 -124 d s 1899 136 m -11 -11 d s 1885 122 m -11 -11 d s 1874 111 m -18 -18 d s 2025 278 m -110 -110 d s 1914 166 m -13 -12 d s 1854 106 m -13 -13 d s 2025 293 m -110 -110
 d s 1831 98 m -5 -5 d s 2025 308 m -96 -96 d s 1917 200 m -2 -2 d s 1815 97 m -4 -4 d s 2011 310 m -82 -83 d s 1799 96 m -3 -3 d s 2011 325 m -68 -69 d s 1936 249 m -7 -7 d s 1783 95 m -2 -2 d s 2011 340 m -68 -69 d s 1766 94 m -1 Y s 2011 355 m -68
 -69 d s 1751 93 m s 2011 370 m -55 -55 d s 1949 308 m -6 -7 d s 1736 93 m s 2011 385 m -55 -55 d s 1721 93 m s 2006 396 m -50 -50 d s 1706 93 m cl s 1997 402 m -27 -28 d s 1958 362 m -2 -1 d s 1691 93 m s 1997 417 m -27 -27 d s 1675 93 m cl s 1997
 432 m -27 -27 d s 1661 93 m -1 X s 1978 428 m -8 -8 d s 6 lw 1655 93 m 110 X 1 Y 13 X 1 Y 14 X 1 Y 14 X 1 Y 13 X 1 Y 14 X 1 Y 14 X 7 Y 13 X 5 Y 14 X 11 Y 14 X 14 Y 13 X 30 Y 14 X 34 Y 14 X 49 Y 14 X 59 Y 13 X 54 Y 14 X 66 Y 14 X 6 Y 13 X -38 Y 14 X
 -86 Y 14 X -59 Y 13 X -69 Y 14 X -30 Y 14 X -18 Y 13 X -15 Y 14 X -6 Y 14 X -7 Y 13 X -2 Y 14 X -3 Y 14 X -5 Y 13 X -2 Y 28 X -1 Y 13 X s black 3 lw 1655 93 m 547 X s 1671 106 m -13 Y s 1686 100 m -7 Y s 1701 100 m -7 Y s 1716 100 m -7 Y s 1731 106
 m -13 Y s 1745 100 m -7 Y s 1760 100 m -7 Y s 1775 100 m -7 Y s 1790 106 m -13 Y s 1805 100 m -7 Y s 1820 100 m -7 Y s 1835 100 m -7 Y s 1850 106 m -13 Y s 1865 100 m -7 Y s 1880 100 m -7 Y s 1895 100 m -7 Y s 1910 106 m -13 Y s 1925 100 m -7 Y s
 1940 100 m -7 Y s 1955 100 m -7 Y s 1969 106 m -13 Y s 1984 100 m -7 Y s 1999 100 m -7 Y s 2014 100 m -7 Y s 2029 106 m -13 Y s 2044 100 m -7 Y s 2059 100 m -7 Y s 2074 100 m -7 Y s 2089 106 m -13 Y s 2104 100 m -7 Y s 2119 100 m -7 Y s 2134 100 m
 -7 Y s 2149 106 m -13 Y s 1671 106 m -13 Y s 1656 100 m -7 Y s 2149 106 m -13 Y s 2164 100 m -7 Y s 2179 100 m -7 Y s 2193 100 m -7 Y s 1655 520 m 547 X s 1671 507 m 13 Y s 1686 513 m 7 Y s 1701 513 m 7 Y s 1716 513 m 7 Y s 1731 507 m 13 Y s 1745
 513 m 7 Y s 1760 513 m 7 Y s 1775 513 m 7 Y s 1790 507 m 13 Y s 1805 513 m 7 Y s 1820 513 m 7 Y s 1835 513 m 7 Y s 1850 507 m 13 Y s 1865 513 m 7 Y s 1880 513 m 7 Y s 1895 513 m 7 Y s 1910 507 m 13 Y s 1925 513 m 7 Y s 1940 513 m 7 Y s 1955 513 m 7
 Y s 1969 507 m 13 Y s 1984 513 m 7 Y s 1999 513 m 7 Y s 2014 513 m 7 Y s 2029 507 m 13 Y s 2044 513 m 7 Y s 2059 513 m 7 Y s 2074 513 m 7 Y s 2089 507 m 13 Y s 2104 513 m 7 Y s 2119 513 m 7 Y s 2134 513 m 7 Y s 2149 507 m 13 Y s 1671 507 m 13 Y s
 1656 513 m 7 Y s 2149 507 m 13 Y s 2164 513 m 7 Y s 2179 513 m 7 Y s 2193 513 m 7 Y s 1655 93 m 427 Y s 1671 93 m -16 X s 1663 105 m -8 X s 1663 117 m -8 X s 1663 128 m -8 X s 1663 140 m -8 X s 1671 152 m -16 X s 1663 164 m -8 X s 1663 175 m -8 X s
 1663 187 m -8 X s 1663 199 m -8 X s 1671 211 m -16 X s 1663 222 m -8 X s 1663 234 m -8 X s 1663 246 m -8 X s 1663 258 m -8 X s 1671 269 m -16 X s 1663 281 m -8 X s 1663 293 m -8 X s 1663 305 m -8 X s 1663 316 m -8 X s 1671 328 m -16 X s 1663 340 m
 -8 X s 1663 352 m -8 X s 1663 363 m -8 X s 1663 375 m -8 X s 1671 387 m -16 X s 1663 399 m -8 X s 1663 410 m -8 X s 1663 422 m -8 X s 1663 434 m -8 X s 1671 446 m -16 X s 1663 457 m -8 X s 1663 469 m -8 X s 1663 481 m -8 X s 1663 493 m -8 X s 1671
 504 m -16 X s 1671 504 m -16 X s 1663 516 m -8 X s 2202 93 m 427 Y s 2186 93 m 16 X s 2194 105 m 8 X s 2194 117 m 8 X s 2194 128 m 8 X s 2194 140 m 8 X s 2186 152 m 16 X s 2194 164 m 8 X s 2194 175 m 8 X s 2194 187 m 8 X s 2194 199 m 8 X s 2186 211
 m 16 X s 2194 222 m 8 X s 2194 234 m 8 X s 2194 246 m 8 X s 2194 258 m 8 X s 2186 269 m 16 X s 2194 281 m 8 X s 2194 293 m 8 X s 2194 305 m 8 X s 2194 316 m 8 X s 2186 328 m 16 X s 2194 340 m 8 X s 2194 352 m 8 X s 2194 363 m 8 X s 2194 375 m 8 X s
 2186 387 m 16 X s 2194 399 m 8 X s 2194 410 m 8 X s 2194 422 m 8 X s 2194 434 m 8 X s 2186 446 m 16 X s 2194 457 m 8 X s 2194 469 m 8 X s 2194 481 m 8 X s 2194 493 m 8 X s 2186 504 m 16 X s 2186 504 m 16 X s 2194 516 m 8 X s
 gsave  711 564 1534 12 C 2230.83 90.8246 t 90 r /Helvetica-Bold findfont 19.9646 sf 0 0 m (U/O\255flow \(S,B\): \(0.0, 0.0\)% / \(0.0, 0.0\)%) show NC gr  0.48 0.56 0.6 c 0.364706 0.419608 0.490196 c 497 38 1542 536 bf 0.48 0.56 0.6 c 1542 536 m 497
 X s 2039 536 m 38 Y s 2039 574 m -497 X s 1542 574 m -38 Y s 1 1 1 c black 1 1 1 c
 gsave  711 564 1534 12 C 1554.44 548.458 t 0 r /Helvetica-Bold findfont 22.8167 sf 0 0 m (Input variable: log_XiccPi_IPCHI2_OWNPV) show NC gr 
 gr  gr showpage
end
%%EOF
